ISO-10303-21;
HEADER;
FILE_DESCRIPTION(('FreeCAD Model'),'2;1');
FILE_NAME('C:/Git/Marek/freecad/JC-128/JC-128.step',
  '2018-05-14T10:31:01',('kicad StepUp'),('ksu MCAD'),
  'Open CASCADE STEP processor 6.8','FreeCAD','Unknown');
FILE_SCHEMA(('AUTOMOTIVE_DESIGN_CC2 { 1 2 10303 214 -1 1 5 4 }'));
ENDSEC;
DATA;
#1 = APPLICATION_PROTOCOL_DEFINITION('committee draft',
  'automotive_design',1997,#2);
#2 = APPLICATION_CONTEXT(
  'core data for automotive mechanical design processes');
#3 = SHAPE_DEFINITION_REPRESENTATION(#4,#10);
#4 = PRODUCT_DEFINITION_SHAPE('','',#5);
#5 = PRODUCT_DEFINITION('design','',#6,#9);
#6 = PRODUCT_DEFINITION_FORMATION('','',#7);
#7 = PRODUCT('ASSEMBLY','ASSEMBLY','',(#8));
#8 = MECHANICAL_CONTEXT('',#2,'mechanical');
#9 = PRODUCT_DEFINITION_CONTEXT('part definition',#2,'design');
#10 = SHAPE_REPRESENTATION('',(#11,#15,#19,#23,#27,#31),#35);
#11 = AXIS2_PLACEMENT_3D('',#12,#13,#14);
#12 = CARTESIAN_POINT('',(0.E+000,0.E+000,0.E+000));
#13 = DIRECTION('',(0.E+000,0.E+000,1.));
#14 = DIRECTION('',(1.,0.E+000,-0.E+000));
#15 = AXIS2_PLACEMENT_3D('',#16,#17,#18);
#16 = CARTESIAN_POINT('',(0.E+000,0.E+000,0.E+000));
#17 = DIRECTION('',(0.E+000,0.E+000,1.));
#18 = DIRECTION('',(1.,0.E+000,0.E+000));
#19 = AXIS2_PLACEMENT_3D('',#20,#21,#22);
#20 = CARTESIAN_POINT('',(0.E+000,0.E+000,0.E+000));
#21 = DIRECTION('',(0.E+000,0.E+000,1.));
#22 = DIRECTION('',(1.,0.E+000,0.E+000));
#23 = AXIS2_PLACEMENT_3D('',#24,#25,#26);
#24 = CARTESIAN_POINT('',(0.E+000,0.E+000,0.E+000));
#25 = DIRECTION('',(0.E+000,0.E+000,-1.));
#26 = DIRECTION('',(1.,0.E+000,0.E+000));
#27 = AXIS2_PLACEMENT_3D('',#28,#29,#30);
#28 = CARTESIAN_POINT('',(0.E+000,0.E+000,0.E+000));
#29 = DIRECTION('',(0.E+000,0.E+000,1.));
#30 = DIRECTION('',(1.,0.E+000,0.E+000));
#31 = AXIS2_PLACEMENT_3D('',#32,#33,#34);
#32 = CARTESIAN_POINT('',(0.E+000,0.E+000,0.E+000));
#33 = DIRECTION('',(0.E+000,0.E+000,-1.));
#34 = DIRECTION('',(1.,0.E+000,0.E+000));
#35 = ( GEOMETRIC_REPRESENTATION_CONTEXT(3) 
GLOBAL_UNCERTAINTY_ASSIGNED_CONTEXT((#39)) GLOBAL_UNIT_ASSIGNED_CONTEXT(
(#36,#37,#38)) REPRESENTATION_CONTEXT('Context #1',
  '3D Context with UNIT and UNCERTAINTY') );
#36 = ( LENGTH_UNIT() NAMED_UNIT(*) SI_UNIT(.MILLI.,.METRE.) );
#37 = ( NAMED_UNIT(*) PLANE_ANGLE_UNIT() SI_UNIT($,.RADIAN.) );
#38 = ( NAMED_UNIT(*) SI_UNIT($,.STERADIAN.) SOLID_ANGLE_UNIT() );
#39 = UNCERTAINTY_MEASURE_WITH_UNIT(LENGTH_MEASURE(1.E-007),#36,
  'distance_accuracy_value','confusion accuracy');
#40 = PRODUCT_TYPE('part',$,(#7));
#41 = ADVANCED_BREP_SHAPE_REPRESENTATION('',(#11,#42),#327);
#42 = MANIFOLD_SOLID_BREP('',#43);
#43 = CLOSED_SHELL('',(#44,#84,#115,#146,#179,#212,#230,#257,#273,#289,
    #318));
#44 = ADVANCED_FACE('',(#45),#79,.T.);
#45 = FACE_BOUND('',#46,.T.);
#46 = EDGE_LOOP('',(#47,#57,#65,#73));
#47 = ORIENTED_EDGE('',*,*,#48,.T.);
#48 = EDGE_CURVE('',#49,#51,#53,.T.);
#49 = VERTEX_POINT('',#50);
#50 = CARTESIAN_POINT('',(-12.,11.,0.E+000));
#51 = VERTEX_POINT('',#52);
#52 = CARTESIAN_POINT('',(-12.,11.,5.));
#53 = LINE('',#54,#55);
#54 = CARTESIAN_POINT('',(-12.,11.,0.E+000));
#55 = VECTOR('',#56,1.);
#56 = DIRECTION('',(0.E+000,0.E+000,1.));
#57 = ORIENTED_EDGE('',*,*,#58,.T.);
#58 = EDGE_CURVE('',#51,#59,#61,.T.);
#59 = VERTEX_POINT('',#60);
#60 = CARTESIAN_POINT('',(0.E+000,11.,5.));
#61 = LINE('',#62,#63);
#62 = CARTESIAN_POINT('',(-12.,11.,5.));
#63 = VECTOR('',#64,1.);
#64 = DIRECTION('',(1.,0.E+000,0.E+000));
#65 = ORIENTED_EDGE('',*,*,#66,.F.);
#66 = EDGE_CURVE('',#67,#59,#69,.T.);
#67 = VERTEX_POINT('',#68);
#68 = CARTESIAN_POINT('',(0.E+000,11.,0.E+000));
#69 = LINE('',#70,#71);
#70 = CARTESIAN_POINT('',(0.E+000,11.,0.E+000));
#71 = VECTOR('',#72,1.);
#72 = DIRECTION('',(0.E+000,0.E+000,1.));
#73 = ORIENTED_EDGE('',*,*,#74,.F.);
#74 = EDGE_CURVE('',#49,#67,#75,.T.);
#75 = LINE('',#76,#77);
#76 = CARTESIAN_POINT('',(-12.,11.,0.E+000));
#77 = VECTOR('',#78,1.);
#78 = DIRECTION('',(1.,0.E+000,0.E+000));
#79 = PLANE('',#80);
#80 = AXIS2_PLACEMENT_3D('',#81,#82,#83);
#81 = CARTESIAN_POINT('',(-12.,11.,0.E+000));
#82 = DIRECTION('',(0.E+000,1.,0.E+000));
#83 = DIRECTION('',(1.,0.E+000,0.E+000));
#84 = ADVANCED_FACE('',(#85),#110,.T.);
#85 = FACE_BOUND('',#86,.T.);
#86 = EDGE_LOOP('',(#87,#97,#103,#104));
#87 = ORIENTED_EDGE('',*,*,#88,.T.);
#88 = EDGE_CURVE('',#89,#91,#93,.T.);
#89 = VERTEX_POINT('',#90);
#90 = CARTESIAN_POINT('',(-12.,0.E+000,0.E+000));
#91 = VERTEX_POINT('',#92);
#92 = CARTESIAN_POINT('',(-12.,0.E+000,5.));
#93 = LINE('',#94,#95);
#94 = CARTESIAN_POINT('',(-12.,0.E+000,0.E+000));
#95 = VECTOR('',#96,1.);
#96 = DIRECTION('',(0.E+000,0.E+000,1.));
#97 = ORIENTED_EDGE('',*,*,#98,.T.);
#98 = EDGE_CURVE('',#91,#51,#99,.T.);
#99 = LINE('',#100,#101);
#100 = CARTESIAN_POINT('',(-12.,0.E+000,5.));
#101 = VECTOR('',#102,1.);
#102 = DIRECTION('',(0.E+000,1.,0.E+000));
#103 = ORIENTED_EDGE('',*,*,#48,.F.);
#104 = ORIENTED_EDGE('',*,*,#105,.F.);
#105 = EDGE_CURVE('',#89,#49,#106,.T.);
#106 = LINE('',#107,#108);
#107 = CARTESIAN_POINT('',(-12.,0.E+000,0.E+000));
#108 = VECTOR('',#109,1.);
#109 = DIRECTION('',(0.E+000,1.,0.E+000));
#110 = PLANE('',#111);
#111 = AXIS2_PLACEMENT_3D('',#112,#113,#114);
#112 = CARTESIAN_POINT('',(-12.,0.E+000,0.E+000));
#113 = DIRECTION('',(-1.,0.E+000,0.E+000));
#114 = DIRECTION('',(0.E+000,1.,0.E+000));
#115 = ADVANCED_FACE('',(#116),#141,.T.);
#116 = FACE_BOUND('',#117,.T.);
#117 = EDGE_LOOP('',(#118,#119,#127,#135));
#118 = ORIENTED_EDGE('',*,*,#66,.T.);
#119 = ORIENTED_EDGE('',*,*,#120,.T.);
#120 = EDGE_CURVE('',#59,#121,#123,.T.);
#121 = VERTEX_POINT('',#122);
#122 = CARTESIAN_POINT('',(0.E+000,0.E+000,5.));
#123 = LINE('',#124,#125);
#124 = CARTESIAN_POINT('',(0.E+000,11.,5.));
#125 = VECTOR('',#126,1.);
#126 = DIRECTION('',(0.E+000,-1.,0.E+000));
#127 = ORIENTED_EDGE('',*,*,#128,.F.);
#128 = EDGE_CURVE('',#129,#121,#131,.T.);
#129 = VERTEX_POINT('',#130);
#130 = CARTESIAN_POINT('',(0.E+000,0.E+000,0.E+000));
#131 = LINE('',#132,#133);
#132 = CARTESIAN_POINT('',(0.E+000,0.E+000,0.E+000));
#133 = VECTOR('',#134,1.);
#134 = DIRECTION('',(0.E+000,0.E+000,1.));
#135 = ORIENTED_EDGE('',*,*,#136,.F.);
#136 = EDGE_CURVE('',#67,#129,#137,.T.);
#137 = LINE('',#138,#139);
#138 = CARTESIAN_POINT('',(0.E+000,11.,0.E+000));
#139 = VECTOR('',#140,1.);
#140 = DIRECTION('',(0.E+000,-1.,0.E+000));
#141 = PLANE('',#142);
#142 = AXIS2_PLACEMENT_3D('',#143,#144,#145);
#143 = CARTESIAN_POINT('',(0.E+000,11.,0.E+000));
#144 = DIRECTION('',(1.,0.E+000,0.E+000));
#145 = DIRECTION('',(0.E+000,-1.,0.E+000));
#146 = ADVANCED_FACE('',(#147),#174,.F.);
#147 = FACE_BOUND('',#148,.F.);
#148 = EDGE_LOOP('',(#149,#150,#151,#159,#167,#173));
#149 = ORIENTED_EDGE('',*,*,#74,.F.);
#150 = ORIENTED_EDGE('',*,*,#105,.F.);
#151 = ORIENTED_EDGE('',*,*,#152,.F.);
#152 = EDGE_CURVE('',#153,#89,#155,.T.);
#153 = VERTEX_POINT('',#154);
#154 = CARTESIAN_POINT('',(-7.658312395177,-1.567861049127E-029,
    -7.061018436616E-014));
#155 = LINE('',#156,#157);
#156 = CARTESIAN_POINT('',(0.E+000,0.E+000,0.E+000));
#157 = VECTOR('',#158,1.);
#158 = DIRECTION('',(-1.,0.E+000,0.E+000));
#159 = ORIENTED_EDGE('',*,*,#160,.F.);
#160 = EDGE_CURVE('',#161,#153,#163,.T.);
#161 = VERTEX_POINT('',#162);
#162 = CARTESIAN_POINT('',(-4.341687604822,1.553069907154E-029,
    6.994405055138E-014));
#163 = LINE('',#164,#165);
#164 = CARTESIAN_POINT('',(0.E+000,0.E+000,0.E+000));
#165 = VECTOR('',#166,1.);
#166 = DIRECTION('',(-1.,0.E+000,0.E+000));
#167 = ORIENTED_EDGE('',*,*,#168,.F.);
#168 = EDGE_CURVE('',#129,#161,#169,.T.);
#169 = LINE('',#170,#171);
#170 = CARTESIAN_POINT('',(0.E+000,0.E+000,0.E+000));
#171 = VECTOR('',#172,1.);
#172 = DIRECTION('',(-1.,0.E+000,0.E+000));
#173 = ORIENTED_EDGE('',*,*,#136,.F.);
#174 = PLANE('',#175);
#175 = AXIS2_PLACEMENT_3D('',#176,#177,#178);
#176 = CARTESIAN_POINT('',(-12.,11.,0.E+000));
#177 = DIRECTION('',(0.E+000,0.E+000,1.));
#178 = DIRECTION('',(1.,0.E+000,0.E+000));
#179 = ADVANCED_FACE('',(#180),#207,.T.);
#180 = FACE_BOUND('',#181,.T.);
#181 = EDGE_LOOP('',(#182,#183,#184,#192,#200,#206));
#182 = ORIENTED_EDGE('',*,*,#58,.F.);
#183 = ORIENTED_EDGE('',*,*,#98,.F.);
#184 = ORIENTED_EDGE('',*,*,#185,.F.);
#185 = EDGE_CURVE('',#186,#91,#188,.T.);
#186 = VERTEX_POINT('',#187);
#187 = CARTESIAN_POINT('',(-7.658312395178,5.551115123126E-016,5.));
#188 = LINE('',#189,#190);
#189 = CARTESIAN_POINT('',(0.E+000,0.E+000,5.));
#190 = VECTOR('',#191,1.);
#191 = DIRECTION('',(-1.,0.E+000,0.E+000));
#192 = ORIENTED_EDGE('',*,*,#193,.F.);
#193 = EDGE_CURVE('',#194,#186,#196,.T.);
#194 = VERTEX_POINT('',#195);
#195 = CARTESIAN_POINT('',(-4.341687604822,5.551115123126E-016,5.));
#196 = LINE('',#197,#198);
#197 = CARTESIAN_POINT('',(0.E+000,0.E+000,5.));
#198 = VECTOR('',#199,1.);
#199 = DIRECTION('',(-1.,0.E+000,0.E+000));
#200 = ORIENTED_EDGE('',*,*,#201,.F.);
#201 = EDGE_CURVE('',#121,#194,#202,.T.);
#202 = LINE('',#203,#204);
#203 = CARTESIAN_POINT('',(0.E+000,0.E+000,5.));
#204 = VECTOR('',#205,1.);
#205 = DIRECTION('',(-1.,0.E+000,0.E+000));
#206 = ORIENTED_EDGE('',*,*,#120,.F.);
#207 = PLANE('',#208);
#208 = AXIS2_PLACEMENT_3D('',#209,#210,#211);
#209 = CARTESIAN_POINT('',(-12.,11.,5.));
#210 = DIRECTION('',(0.E+000,0.E+000,1.));
#211 = DIRECTION('',(1.,0.E+000,0.E+000));
#212 = ADVANCED_FACE('',(#213),#225,.T.);
#213 = FACE_BOUND('',#214,.T.);
#214 = EDGE_LOOP('',(#215,#216,#223,#224));
#215 = ORIENTED_EDGE('',*,*,#152,.F.);
#216 = ORIENTED_EDGE('',*,*,#217,.F.);
#217 = EDGE_CURVE('',#186,#153,#218,.T.);
#218 = CIRCLE('',#219,3.);
#219 = AXIS2_PLACEMENT_3D('',#220,#221,#222);
#220 = CARTESIAN_POINT('',(-6.,5.551115123126E-016,2.5));
#221 = DIRECTION('',(0.E+000,-1.,2.22044604925E-016));
#222 = DIRECTION('',(1.,0.E+000,0.E+000));
#223 = ORIENTED_EDGE('',*,*,#185,.T.);
#224 = ORIENTED_EDGE('',*,*,#88,.F.);
#225 = PLANE('',#226);
#226 = AXIS2_PLACEMENT_3D('',#227,#228,#229);
#227 = CARTESIAN_POINT('',(0.E+000,0.E+000,0.E+000));
#228 = DIRECTION('',(0.E+000,-1.,0.E+000));
#229 = DIRECTION('',(-1.,0.E+000,0.E+000));
#230 = ADVANCED_FACE('',(#231),#252,.T.);
#231 = FACE_BOUND('',#232,.T.);
#232 = EDGE_LOOP('',(#233,#234,#235,#236,#245));
#233 = ORIENTED_EDGE('',*,*,#168,.F.);
#234 = ORIENTED_EDGE('',*,*,#128,.T.);
#235 = ORIENTED_EDGE('',*,*,#201,.T.);
#236 = ORIENTED_EDGE('',*,*,#237,.F.);
#237 = EDGE_CURVE('',#238,#194,#240,.T.);
#238 = VERTEX_POINT('',#239);
#239 = CARTESIAN_POINT('',(-3.,5.551115123126E-016,2.5));
#240 = CIRCLE('',#241,3.);
#241 = AXIS2_PLACEMENT_3D('',#242,#243,#244);
#242 = CARTESIAN_POINT('',(-6.,5.551115123126E-016,2.5));
#243 = DIRECTION('',(0.E+000,-1.,2.22044604925E-016));
#244 = DIRECTION('',(1.,0.E+000,0.E+000));
#245 = ORIENTED_EDGE('',*,*,#246,.F.);
#246 = EDGE_CURVE('',#161,#238,#247,.T.);
#247 = CIRCLE('',#248,3.);
#248 = AXIS2_PLACEMENT_3D('',#249,#250,#251);
#249 = CARTESIAN_POINT('',(-6.,5.551115123126E-016,2.5));
#250 = DIRECTION('',(0.E+000,-1.,2.22044604925E-016));
#251 = DIRECTION('',(1.,0.E+000,0.E+000));
#252 = PLANE('',#253);
#253 = AXIS2_PLACEMENT_3D('',#254,#255,#256);
#254 = CARTESIAN_POINT('',(0.E+000,0.E+000,0.E+000));
#255 = DIRECTION('',(0.E+000,-1.,0.E+000));
#256 = DIRECTION('',(-1.,0.E+000,0.E+000));
#257 = ADVANCED_FACE('',(#258),#268,.T.);
#258 = FACE_BOUND('',#259,.T.);
#259 = EDGE_LOOP('',(#260,#261));
#260 = ORIENTED_EDGE('',*,*,#160,.F.);
#261 = ORIENTED_EDGE('',*,*,#262,.F.);
#262 = EDGE_CURVE('',#153,#161,#263,.T.);
#263 = CIRCLE('',#264,3.);
#264 = AXIS2_PLACEMENT_3D('',#265,#266,#267);
#265 = CARTESIAN_POINT('',(-6.,5.551115123126E-016,2.5));
#266 = DIRECTION('',(0.E+000,-1.,2.22044604925E-016));
#267 = DIRECTION('',(1.,0.E+000,0.E+000));
#268 = PLANE('',#269);
#269 = AXIS2_PLACEMENT_3D('',#270,#271,#272);
#270 = CARTESIAN_POINT('',(-3.,5.551115123126E-016,2.5));
#271 = DIRECTION('',(0.E+000,1.,-2.22044604925E-016));
#272 = DIRECTION('',(0.E+000,2.22044604925E-016,1.));
#273 = ADVANCED_FACE('',(#274),#284,.T.);
#274 = FACE_BOUND('',#275,.T.);
#275 = EDGE_LOOP('',(#276,#283));
#276 = ORIENTED_EDGE('',*,*,#277,.F.);
#277 = EDGE_CURVE('',#194,#186,#278,.T.);
#278 = CIRCLE('',#279,3.);
#279 = AXIS2_PLACEMENT_3D('',#280,#281,#282);
#280 = CARTESIAN_POINT('',(-6.,5.551115123126E-016,2.5));
#281 = DIRECTION('',(0.E+000,-1.,2.22044604925E-016));
#282 = DIRECTION('',(1.,0.E+000,0.E+000));
#283 = ORIENTED_EDGE('',*,*,#193,.T.);
#284 = PLANE('',#285);
#285 = AXIS2_PLACEMENT_3D('',#286,#287,#288);
#286 = CARTESIAN_POINT('',(-3.,5.551115123126E-016,2.5));
#287 = DIRECTION('',(0.E+000,1.,-2.22044604925E-016));
#288 = DIRECTION('',(0.E+000,2.22044604925E-016,1.));
#289 = ADVANCED_FACE('',(#290),#313,.T.);
#290 = FACE_BOUND('',#291,.F.);
#291 = EDGE_LOOP('',(#292,#293,#301,#308,#309,#310,#311,#312));
#292 = ORIENTED_EDGE('',*,*,#237,.F.);
#293 = ORIENTED_EDGE('',*,*,#294,.T.);
#294 = EDGE_CURVE('',#238,#295,#297,.T.);
#295 = VERTEX_POINT('',#296);
#296 = CARTESIAN_POINT('',(-3.,-3.,2.5));
#297 = LINE('',#298,#299);
#298 = CARTESIAN_POINT('',(-3.,5.551115123126E-016,2.5));
#299 = VECTOR('',#300,1.);
#300 = DIRECTION('',(0.E+000,-1.,2.22044604925E-016));
#301 = ORIENTED_EDGE('',*,*,#302,.T.);
#302 = EDGE_CURVE('',#295,#295,#303,.T.);
#303 = CIRCLE('',#304,3.);
#304 = AXIS2_PLACEMENT_3D('',#305,#306,#307);
#305 = CARTESIAN_POINT('',(-6.,-3.,2.5));
#306 = DIRECTION('',(0.E+000,-1.,2.22044604925E-016));
#307 = DIRECTION('',(1.,0.E+000,0.E+000));
#308 = ORIENTED_EDGE('',*,*,#294,.F.);
#309 = ORIENTED_EDGE('',*,*,#246,.F.);
#310 = ORIENTED_EDGE('',*,*,#262,.F.);
#311 = ORIENTED_EDGE('',*,*,#217,.F.);
#312 = ORIENTED_EDGE('',*,*,#277,.F.);
#313 = CYLINDRICAL_SURFACE('',#314,3.);
#314 = AXIS2_PLACEMENT_3D('',#315,#316,#317);
#315 = CARTESIAN_POINT('',(-6.,5.551115123126E-016,2.5));
#316 = DIRECTION('',(-0.E+000,1.,-2.22044604925E-016));
#317 = DIRECTION('',(1.,0.E+000,0.E+000));
#318 = ADVANCED_FACE('',(#319),#322,.F.);
#319 = FACE_BOUND('',#320,.T.);
#320 = EDGE_LOOP('',(#321));
#321 = ORIENTED_EDGE('',*,*,#302,.T.);
#322 = PLANE('',#323);
#323 = AXIS2_PLACEMENT_3D('',#324,#325,#326);
#324 = CARTESIAN_POINT('',(-3.,-3.,2.5));
#325 = DIRECTION('',(0.E+000,1.,-2.22044604925E-016));
#326 = DIRECTION('',(0.E+000,2.22044604925E-016,1.));
#327 = ( GEOMETRIC_REPRESENTATION_CONTEXT(3) 
GLOBAL_UNCERTAINTY_ASSIGNED_CONTEXT((#331)) GLOBAL_UNIT_ASSIGNED_CONTEXT
((#328,#329,#330)) REPRESENTATION_CONTEXT('Context #1',
  '3D Context with UNIT and UNCERTAINTY') );
#328 = ( LENGTH_UNIT() NAMED_UNIT(*) SI_UNIT(.MILLI.,.METRE.) );
#329 = ( NAMED_UNIT(*) PLANE_ANGLE_UNIT() SI_UNIT($,.RADIAN.) );
#330 = ( NAMED_UNIT(*) SI_UNIT($,.STERADIAN.) SOLID_ANGLE_UNIT() );
#331 = UNCERTAINTY_MEASURE_WITH_UNIT(LENGTH_MEASURE(1.E-007),#328,
  'distance_accuracy_value','confusion accuracy');
#332 = SHAPE_DEFINITION_REPRESENTATION(#333,#41);
#333 = PRODUCT_DEFINITION_SHAPE('','',#334);
#334 = PRODUCT_DEFINITION('design','',#335,#338);
#335 = PRODUCT_DEFINITION_FORMATION('','',#336);
#336 = PRODUCT('Pad001','Pad001','',(#337));
#337 = MECHANICAL_CONTEXT('',#2,'mechanical');
#338 = PRODUCT_DEFINITION_CONTEXT('part definition',#2,'design');
#339 = CONTEXT_DEPENDENT_SHAPE_REPRESENTATION(#340,#342);
#340 = ( REPRESENTATION_RELATIONSHIP('','',#41,#10) 
REPRESENTATION_RELATIONSHIP_WITH_TRANSFORMATION(#341) 
SHAPE_REPRESENTATION_RELATIONSHIP() );
#341 = ITEM_DEFINED_TRANSFORMATION('','',#11,#15);
#342 = PRODUCT_DEFINITION_SHAPE('Placement','Placement of an item',#343
  );
#343 = NEXT_ASSEMBLY_USAGE_OCCURRENCE('1','=>[0:1:1:2]','',#5,#334,$);
#344 = PRODUCT_TYPE('part',$,(#336));
#345 = ADVANCED_BREP_SHAPE_REPRESENTATION('',(#11,#346),#676);
#346 = MANIFOLD_SOLID_BREP('',#347);
#347 = CLOSED_SHELL('',(#348,#388,#419,#450,#483,#516,#534,#561,#577,
    #593,#622,#642,#667));
#348 = ADVANCED_FACE('',(#349),#383,.T.);
#349 = FACE_BOUND('',#350,.T.);
#350 = EDGE_LOOP('',(#351,#361,#369,#377));
#351 = ORIENTED_EDGE('',*,*,#352,.T.);
#352 = EDGE_CURVE('',#353,#355,#357,.T.);
#353 = VERTEX_POINT('',#354);
#354 = CARTESIAN_POINT('',(-12.,11.,0.E+000));
#355 = VERTEX_POINT('',#356);
#356 = CARTESIAN_POINT('',(-12.,11.,5.));
#357 = LINE('',#358,#359);
#358 = CARTESIAN_POINT('',(-12.,11.,0.E+000));
#359 = VECTOR('',#360,1.);
#360 = DIRECTION('',(0.E+000,0.E+000,1.));
#361 = ORIENTED_EDGE('',*,*,#362,.T.);
#362 = EDGE_CURVE('',#355,#363,#365,.T.);
#363 = VERTEX_POINT('',#364);
#364 = CARTESIAN_POINT('',(0.E+000,11.,5.));
#365 = LINE('',#366,#367);
#366 = CARTESIAN_POINT('',(-12.,11.,5.));
#367 = VECTOR('',#368,1.);
#368 = DIRECTION('',(1.,0.E+000,0.E+000));
#369 = ORIENTED_EDGE('',*,*,#370,.F.);
#370 = EDGE_CURVE('',#371,#363,#373,.T.);
#371 = VERTEX_POINT('',#372);
#372 = CARTESIAN_POINT('',(0.E+000,11.,0.E+000));
#373 = LINE('',#374,#375);
#374 = CARTESIAN_POINT('',(0.E+000,11.,0.E+000));
#375 = VECTOR('',#376,1.);
#376 = DIRECTION('',(0.E+000,0.E+000,1.));
#377 = ORIENTED_EDGE('',*,*,#378,.F.);
#378 = EDGE_CURVE('',#353,#371,#379,.T.);
#379 = LINE('',#380,#381);
#380 = CARTESIAN_POINT('',(-12.,11.,0.E+000));
#381 = VECTOR('',#382,1.);
#382 = DIRECTION('',(1.,0.E+000,0.E+000));
#383 = PLANE('',#384);
#384 = AXIS2_PLACEMENT_3D('',#385,#386,#387);
#385 = CARTESIAN_POINT('',(-12.,11.,0.E+000));
#386 = DIRECTION('',(0.E+000,1.,0.E+000));
#387 = DIRECTION('',(1.,0.E+000,0.E+000));
#388 = ADVANCED_FACE('',(#389),#414,.T.);
#389 = FACE_BOUND('',#390,.T.);
#390 = EDGE_LOOP('',(#391,#401,#407,#408));
#391 = ORIENTED_EDGE('',*,*,#392,.T.);
#392 = EDGE_CURVE('',#393,#395,#397,.T.);
#393 = VERTEX_POINT('',#394);
#394 = CARTESIAN_POINT('',(-12.,0.E+000,0.E+000));
#395 = VERTEX_POINT('',#396);
#396 = CARTESIAN_POINT('',(-12.,0.E+000,5.));
#397 = LINE('',#398,#399);
#398 = CARTESIAN_POINT('',(-12.,0.E+000,0.E+000));
#399 = VECTOR('',#400,1.);
#400 = DIRECTION('',(0.E+000,0.E+000,1.));
#401 = ORIENTED_EDGE('',*,*,#402,.T.);
#402 = EDGE_CURVE('',#395,#355,#403,.T.);
#403 = LINE('',#404,#405);
#404 = CARTESIAN_POINT('',(-12.,0.E+000,5.));
#405 = VECTOR('',#406,1.);
#406 = DIRECTION('',(0.E+000,1.,0.E+000));
#407 = ORIENTED_EDGE('',*,*,#352,.F.);
#408 = ORIENTED_EDGE('',*,*,#409,.F.);
#409 = EDGE_CURVE('',#393,#353,#410,.T.);
#410 = LINE('',#411,#412);
#411 = CARTESIAN_POINT('',(-12.,0.E+000,0.E+000));
#412 = VECTOR('',#413,1.);
#413 = DIRECTION('',(0.E+000,1.,0.E+000));
#414 = PLANE('',#415);
#415 = AXIS2_PLACEMENT_3D('',#416,#417,#418);
#416 = CARTESIAN_POINT('',(-12.,0.E+000,0.E+000));
#417 = DIRECTION('',(-1.,0.E+000,0.E+000));
#418 = DIRECTION('',(0.E+000,1.,0.E+000));
#419 = ADVANCED_FACE('',(#420),#445,.T.);
#420 = FACE_BOUND('',#421,.T.);
#421 = EDGE_LOOP('',(#422,#423,#431,#439));
#422 = ORIENTED_EDGE('',*,*,#370,.T.);
#423 = ORIENTED_EDGE('',*,*,#424,.T.);
#424 = EDGE_CURVE('',#363,#425,#427,.T.);
#425 = VERTEX_POINT('',#426);
#426 = CARTESIAN_POINT('',(0.E+000,0.E+000,5.));
#427 = LINE('',#428,#429);
#428 = CARTESIAN_POINT('',(0.E+000,11.,5.));
#429 = VECTOR('',#430,1.);
#430 = DIRECTION('',(0.E+000,-1.,0.E+000));
#431 = ORIENTED_EDGE('',*,*,#432,.F.);
#432 = EDGE_CURVE('',#433,#425,#435,.T.);
#433 = VERTEX_POINT('',#434);
#434 = CARTESIAN_POINT('',(0.E+000,0.E+000,0.E+000));
#435 = LINE('',#436,#437);
#436 = CARTESIAN_POINT('',(0.E+000,0.E+000,0.E+000));
#437 = VECTOR('',#438,1.);
#438 = DIRECTION('',(0.E+000,0.E+000,1.));
#439 = ORIENTED_EDGE('',*,*,#440,.F.);
#440 = EDGE_CURVE('',#371,#433,#441,.T.);
#441 = LINE('',#442,#443);
#442 = CARTESIAN_POINT('',(0.E+000,11.,0.E+000));
#443 = VECTOR('',#444,1.);
#444 = DIRECTION('',(0.E+000,-1.,0.E+000));
#445 = PLANE('',#446);
#446 = AXIS2_PLACEMENT_3D('',#447,#448,#449);
#447 = CARTESIAN_POINT('',(0.E+000,11.,0.E+000));
#448 = DIRECTION('',(1.,0.E+000,0.E+000));
#449 = DIRECTION('',(0.E+000,-1.,0.E+000));
#450 = ADVANCED_FACE('',(#451),#478,.F.);
#451 = FACE_BOUND('',#452,.F.);
#452 = EDGE_LOOP('',(#453,#454,#455,#463,#471,#477));
#453 = ORIENTED_EDGE('',*,*,#378,.F.);
#454 = ORIENTED_EDGE('',*,*,#409,.F.);
#455 = ORIENTED_EDGE('',*,*,#456,.F.);
#456 = EDGE_CURVE('',#457,#393,#459,.T.);
#457 = VERTEX_POINT('',#458);
#458 = CARTESIAN_POINT('',(-7.658312395177,-1.567861049127E-029,
    -7.061018436616E-014));
#459 = LINE('',#460,#461);
#460 = CARTESIAN_POINT('',(0.E+000,0.E+000,0.E+000));
#461 = VECTOR('',#462,1.);
#462 = DIRECTION('',(-1.,0.E+000,0.E+000));
#463 = ORIENTED_EDGE('',*,*,#464,.F.);
#464 = EDGE_CURVE('',#465,#457,#467,.T.);
#465 = VERTEX_POINT('',#466);
#466 = CARTESIAN_POINT('',(-4.341687604822,1.553069907154E-029,
    6.994405055138E-014));
#467 = LINE('',#468,#469);
#468 = CARTESIAN_POINT('',(0.E+000,0.E+000,0.E+000));
#469 = VECTOR('',#470,1.);
#470 = DIRECTION('',(-1.,0.E+000,0.E+000));
#471 = ORIENTED_EDGE('',*,*,#472,.F.);
#472 = EDGE_CURVE('',#433,#465,#473,.T.);
#473 = LINE('',#474,#475);
#474 = CARTESIAN_POINT('',(0.E+000,0.E+000,0.E+000));
#475 = VECTOR('',#476,1.);
#476 = DIRECTION('',(-1.,0.E+000,0.E+000));
#477 = ORIENTED_EDGE('',*,*,#440,.F.);
#478 = PLANE('',#479);
#479 = AXIS2_PLACEMENT_3D('',#480,#481,#482);
#480 = CARTESIAN_POINT('',(-12.,11.,0.E+000));
#481 = DIRECTION('',(0.E+000,0.E+000,1.));
#482 = DIRECTION('',(1.,0.E+000,0.E+000));
#483 = ADVANCED_FACE('',(#484),#511,.T.);
#484 = FACE_BOUND('',#485,.T.);
#485 = EDGE_LOOP('',(#486,#487,#488,#496,#504,#510));
#486 = ORIENTED_EDGE('',*,*,#362,.F.);
#487 = ORIENTED_EDGE('',*,*,#402,.F.);
#488 = ORIENTED_EDGE('',*,*,#489,.F.);
#489 = EDGE_CURVE('',#490,#395,#492,.T.);
#490 = VERTEX_POINT('',#491);
#491 = CARTESIAN_POINT('',(-7.658312395178,5.551115123126E-016,5.));
#492 = LINE('',#493,#494);
#493 = CARTESIAN_POINT('',(0.E+000,0.E+000,5.));
#494 = VECTOR('',#495,1.);
#495 = DIRECTION('',(-1.,0.E+000,0.E+000));
#496 = ORIENTED_EDGE('',*,*,#497,.F.);
#497 = EDGE_CURVE('',#498,#490,#500,.T.);
#498 = VERTEX_POINT('',#499);
#499 = CARTESIAN_POINT('',(-4.341687604822,5.551115123126E-016,5.));
#500 = LINE('',#501,#502);
#501 = CARTESIAN_POINT('',(0.E+000,0.E+000,5.));
#502 = VECTOR('',#503,1.);
#503 = DIRECTION('',(-1.,0.E+000,0.E+000));
#504 = ORIENTED_EDGE('',*,*,#505,.F.);
#505 = EDGE_CURVE('',#425,#498,#506,.T.);
#506 = LINE('',#507,#508);
#507 = CARTESIAN_POINT('',(0.E+000,0.E+000,5.));
#508 = VECTOR('',#509,1.);
#509 = DIRECTION('',(-1.,0.E+000,0.E+000));
#510 = ORIENTED_EDGE('',*,*,#424,.F.);
#511 = PLANE('',#512);
#512 = AXIS2_PLACEMENT_3D('',#513,#514,#515);
#513 = CARTESIAN_POINT('',(-12.,11.,5.));
#514 = DIRECTION('',(0.E+000,0.E+000,1.));
#515 = DIRECTION('',(1.,0.E+000,0.E+000));
#516 = ADVANCED_FACE('',(#517),#529,.T.);
#517 = FACE_BOUND('',#518,.T.);
#518 = EDGE_LOOP('',(#519,#520,#527,#528));
#519 = ORIENTED_EDGE('',*,*,#456,.F.);
#520 = ORIENTED_EDGE('',*,*,#521,.F.);
#521 = EDGE_CURVE('',#490,#457,#522,.T.);
#522 = CIRCLE('',#523,3.);
#523 = AXIS2_PLACEMENT_3D('',#524,#525,#526);
#524 = CARTESIAN_POINT('',(-6.,5.551115123126E-016,2.5));
#525 = DIRECTION('',(0.E+000,-1.,2.22044604925E-016));
#526 = DIRECTION('',(1.,0.E+000,0.E+000));
#527 = ORIENTED_EDGE('',*,*,#489,.T.);
#528 = ORIENTED_EDGE('',*,*,#392,.F.);
#529 = PLANE('',#530);
#530 = AXIS2_PLACEMENT_3D('',#531,#532,#533);
#531 = CARTESIAN_POINT('',(0.E+000,0.E+000,0.E+000));
#532 = DIRECTION('',(0.E+000,-1.,0.E+000));
#533 = DIRECTION('',(-1.,0.E+000,0.E+000));
#534 = ADVANCED_FACE('',(#535),#556,.T.);
#535 = FACE_BOUND('',#536,.T.);
#536 = EDGE_LOOP('',(#537,#538,#539,#540,#549));
#537 = ORIENTED_EDGE('',*,*,#472,.F.);
#538 = ORIENTED_EDGE('',*,*,#432,.T.);
#539 = ORIENTED_EDGE('',*,*,#505,.T.);
#540 = ORIENTED_EDGE('',*,*,#541,.F.);
#541 = EDGE_CURVE('',#542,#498,#544,.T.);
#542 = VERTEX_POINT('',#543);
#543 = CARTESIAN_POINT('',(-3.,5.551115123126E-016,2.5));
#544 = CIRCLE('',#545,3.);
#545 = AXIS2_PLACEMENT_3D('',#546,#547,#548);
#546 = CARTESIAN_POINT('',(-6.,5.551115123126E-016,2.5));
#547 = DIRECTION('',(0.E+000,-1.,2.22044604925E-016));
#548 = DIRECTION('',(1.,0.E+000,0.E+000));
#549 = ORIENTED_EDGE('',*,*,#550,.F.);
#550 = EDGE_CURVE('',#465,#542,#551,.T.);
#551 = CIRCLE('',#552,3.);
#552 = AXIS2_PLACEMENT_3D('',#553,#554,#555);
#553 = CARTESIAN_POINT('',(-6.,5.551115123126E-016,2.5));
#554 = DIRECTION('',(0.E+000,-1.,2.22044604925E-016));
#555 = DIRECTION('',(1.,0.E+000,0.E+000));
#556 = PLANE('',#557);
#557 = AXIS2_PLACEMENT_3D('',#558,#559,#560);
#558 = CARTESIAN_POINT('',(0.E+000,0.E+000,0.E+000));
#559 = DIRECTION('',(0.E+000,-1.,0.E+000));
#560 = DIRECTION('',(-1.,0.E+000,0.E+000));
#561 = ADVANCED_FACE('',(#562),#572,.T.);
#562 = FACE_BOUND('',#563,.T.);
#563 = EDGE_LOOP('',(#564,#565));
#564 = ORIENTED_EDGE('',*,*,#464,.F.);
#565 = ORIENTED_EDGE('',*,*,#566,.F.);
#566 = EDGE_CURVE('',#457,#465,#567,.T.);
#567 = CIRCLE('',#568,3.);
#568 = AXIS2_PLACEMENT_3D('',#569,#570,#571);
#569 = CARTESIAN_POINT('',(-6.,5.551115123126E-016,2.5));
#570 = DIRECTION('',(0.E+000,-1.,2.22044604925E-016));
#571 = DIRECTION('',(1.,0.E+000,0.E+000));
#572 = PLANE('',#573);
#573 = AXIS2_PLACEMENT_3D('',#574,#575,#576);
#574 = CARTESIAN_POINT('',(-3.,5.551115123126E-016,2.5));
#575 = DIRECTION('',(0.E+000,1.,-2.22044604925E-016));
#576 = DIRECTION('',(0.E+000,2.22044604925E-016,1.));
#577 = ADVANCED_FACE('',(#578),#588,.T.);
#578 = FACE_BOUND('',#579,.T.);
#579 = EDGE_LOOP('',(#580,#587));
#580 = ORIENTED_EDGE('',*,*,#581,.F.);
#581 = EDGE_CURVE('',#498,#490,#582,.T.);
#582 = CIRCLE('',#583,3.);
#583 = AXIS2_PLACEMENT_3D('',#584,#585,#586);
#584 = CARTESIAN_POINT('',(-6.,5.551115123126E-016,2.5));
#585 = DIRECTION('',(0.E+000,-1.,2.22044604925E-016));
#586 = DIRECTION('',(1.,0.E+000,0.E+000));
#587 = ORIENTED_EDGE('',*,*,#497,.T.);
#588 = PLANE('',#589);
#589 = AXIS2_PLACEMENT_3D('',#590,#591,#592);
#590 = CARTESIAN_POINT('',(-3.,5.551115123126E-016,2.5));
#591 = DIRECTION('',(0.E+000,1.,-2.22044604925E-016));
#592 = DIRECTION('',(0.E+000,2.22044604925E-016,1.));
#593 = ADVANCED_FACE('',(#594),#617,.T.);
#594 = FACE_BOUND('',#595,.F.);
#595 = EDGE_LOOP('',(#596,#597,#605,#612,#613,#614,#615,#616));
#596 = ORIENTED_EDGE('',*,*,#541,.F.);
#597 = ORIENTED_EDGE('',*,*,#598,.T.);
#598 = EDGE_CURVE('',#542,#599,#601,.T.);
#599 = VERTEX_POINT('',#600);
#600 = CARTESIAN_POINT('',(-3.,-3.,2.5));
#601 = LINE('',#602,#603);
#602 = CARTESIAN_POINT('',(-3.,5.551115123126E-016,2.5));
#603 = VECTOR('',#604,1.);
#604 = DIRECTION('',(0.E+000,-1.,2.22044604925E-016));
#605 = ORIENTED_EDGE('',*,*,#606,.T.);
#606 = EDGE_CURVE('',#599,#599,#607,.T.);
#607 = CIRCLE('',#608,3.);
#608 = AXIS2_PLACEMENT_3D('',#609,#610,#611);
#609 = CARTESIAN_POINT('',(-6.,-3.,2.5));
#610 = DIRECTION('',(0.E+000,-1.,2.22044604925E-016));
#611 = DIRECTION('',(1.,0.E+000,0.E+000));
#612 = ORIENTED_EDGE('',*,*,#598,.F.);
#613 = ORIENTED_EDGE('',*,*,#550,.F.);
#614 = ORIENTED_EDGE('',*,*,#566,.F.);
#615 = ORIENTED_EDGE('',*,*,#521,.F.);
#616 = ORIENTED_EDGE('',*,*,#581,.F.);
#617 = CYLINDRICAL_SURFACE('',#618,3.);
#618 = AXIS2_PLACEMENT_3D('',#619,#620,#621);
#619 = CARTESIAN_POINT('',(-6.,5.551115123126E-016,2.5));
#620 = DIRECTION('',(0.E+000,1.,-2.22044604925E-016));
#621 = DIRECTION('',(1.,0.E+000,0.E+000));
#622 = ADVANCED_FACE('',(#623,#626),#637,.F.);
#623 = FACE_BOUND('',#624,.F.);
#624 = EDGE_LOOP('',(#625));
#625 = ORIENTED_EDGE('',*,*,#606,.F.);
#626 = FACE_BOUND('',#627,.F.);
#627 = EDGE_LOOP('',(#628));
#628 = ORIENTED_EDGE('',*,*,#629,.T.);
#629 = EDGE_CURVE('',#630,#630,#632,.T.);
#630 = VERTEX_POINT('',#631);
#631 = CARTESIAN_POINT('',(-4.2,-3.,2.5));
#632 = CIRCLE('',#633,1.8);
#633 = AXIS2_PLACEMENT_3D('',#634,#635,#636);
#634 = CARTESIAN_POINT('',(-6.,-3.,2.5));
#635 = DIRECTION('',(0.E+000,-1.,2.22044604925E-016));
#636 = DIRECTION('',(1.,0.E+000,0.E+000));
#637 = PLANE('',#638);
#638 = AXIS2_PLACEMENT_3D('',#639,#640,#641);
#639 = CARTESIAN_POINT('',(-3.,-3.,2.5));
#640 = DIRECTION('',(0.E+000,1.,-2.22044604925E-016));
#641 = DIRECTION('',(0.E+000,2.22044604925E-016,1.));
#642 = ADVANCED_FACE('',(#643),#662,.F.);
#643 = FACE_BOUND('',#644,.F.);
#644 = EDGE_LOOP('',(#645,#646,#654,#661));
#645 = ORIENTED_EDGE('',*,*,#629,.F.);
#646 = ORIENTED_EDGE('',*,*,#647,.T.);
#647 = EDGE_CURVE('',#630,#648,#650,.T.);
#648 = VERTEX_POINT('',#649);
#649 = CARTESIAN_POINT('',(-4.2,5.,2.5));
#650 = LINE('',#651,#652);
#651 = CARTESIAN_POINT('',(-4.2,-3.,2.5));
#652 = VECTOR('',#653,1.);
#653 = DIRECTION('',(0.E+000,1.,-2.22044604925E-016));
#654 = ORIENTED_EDGE('',*,*,#655,.T.);
#655 = EDGE_CURVE('',#648,#648,#656,.T.);
#656 = CIRCLE('',#657,1.8);
#657 = AXIS2_PLACEMENT_3D('',#658,#659,#660);
#658 = CARTESIAN_POINT('',(-6.,5.,2.5));
#659 = DIRECTION('',(0.E+000,-1.,2.22044604925E-016));
#660 = DIRECTION('',(1.,0.E+000,0.E+000));
#661 = ORIENTED_EDGE('',*,*,#647,.F.);
#662 = CYLINDRICAL_SURFACE('',#663,1.8);
#663 = AXIS2_PLACEMENT_3D('',#664,#665,#666);
#664 = CARTESIAN_POINT('',(-6.,-3.,2.5));
#665 = DIRECTION('',(0.E+000,-1.,2.22044604925E-016));
#666 = DIRECTION('',(1.,0.E+000,0.E+000));
#667 = ADVANCED_FACE('',(#668),#671,.F.);
#668 = FACE_BOUND('',#669,.T.);
#669 = EDGE_LOOP('',(#670));
#670 = ORIENTED_EDGE('',*,*,#655,.T.);
#671 = PLANE('',#672);
#672 = AXIS2_PLACEMENT_3D('',#673,#674,#675);
#673 = CARTESIAN_POINT('',(-4.2,5.,2.5));
#674 = DIRECTION('',(-3.514267407273E-032,1.,-2.848833609457E-016));
#675 = DIRECTION('',(0.E+000,2.848833609457E-016,1.));
#676 = ( GEOMETRIC_REPRESENTATION_CONTEXT(3) 
GLOBAL_UNCERTAINTY_ASSIGNED_CONTEXT((#680)) GLOBAL_UNIT_ASSIGNED_CONTEXT
((#677,#678,#679)) REPRESENTATION_CONTEXT('Context #1',
  '3D Context with UNIT and UNCERTAINTY') );
#677 = ( LENGTH_UNIT() NAMED_UNIT(*) SI_UNIT(.MILLI.,.METRE.) );
#678 = ( NAMED_UNIT(*) PLANE_ANGLE_UNIT() SI_UNIT($,.RADIAN.) );
#679 = ( NAMED_UNIT(*) SI_UNIT($,.STERADIAN.) SOLID_ANGLE_UNIT() );
#680 = UNCERTAINTY_MEASURE_WITH_UNIT(LENGTH_MEASURE(1.E-007),#677,
  'distance_accuracy_value','confusion accuracy');
#681 = SHAPE_DEFINITION_REPRESENTATION(#682,#345);
#682 = PRODUCT_DEFINITION_SHAPE('','',#683);
#683 = PRODUCT_DEFINITION('design','',#684,#687);
#684 = PRODUCT_DEFINITION_FORMATION('','',#685);
#685 = PRODUCT('Pocket','Pocket','',(#686));
#686 = MECHANICAL_CONTEXT('',#2,'mechanical');
#687 = PRODUCT_DEFINITION_CONTEXT('part definition',#2,'design');
#688 = CONTEXT_DEPENDENT_SHAPE_REPRESENTATION(#689,#691);
#689 = ( REPRESENTATION_RELATIONSHIP('','',#345,#10) 
REPRESENTATION_RELATIONSHIP_WITH_TRANSFORMATION(#690) 
SHAPE_REPRESENTATION_RELATIONSHIP() );
#690 = ITEM_DEFINED_TRANSFORMATION('','',#11,#19);
#691 = PRODUCT_DEFINITION_SHAPE('Placement','Placement of an item',#692
  );
#692 = NEXT_ASSEMBLY_USAGE_OCCURRENCE('2','=>[0:1:1:3]','',#5,#683,$);
#693 = PRODUCT_TYPE('part',$,(#685));
#694 = SHAPE_REPRESENTATION('',(#11,#695,#845,#995,#1145,#1295),#1445);
#695 = MANIFOLD_SOLID_BREP('',#696);
#696 = CLOSED_SHELL('',(#697,#737,#768,#799,#821,#833));
#697 = ADVANCED_FACE('',(#698),#732,.T.);
#698 = FACE_BOUND('',#699,.T.);
#699 = EDGE_LOOP('',(#700,#710,#718,#726));
#700 = ORIENTED_EDGE('',*,*,#701,.T.);
#701 = EDGE_CURVE('',#702,#704,#706,.T.);
#702 = VERTEX_POINT('',#703);
#703 = CARTESIAN_POINT('',(-8.9,-7.75,-9.491012693392E-016));
#704 = VERTEX_POINT('',#705);
#705 = CARTESIAN_POINT('',(-8.9,-7.75,4.));
#706 = LINE('',#707,#708);
#707 = CARTESIAN_POINT('',(-8.9,-7.75,-9.491012693392E-016));
#708 = VECTOR('',#709,1.);
#709 = DIRECTION('',(0.E+000,-1.224646799147E-016,1.));
#710 = ORIENTED_EDGE('',*,*,#711,.T.);
#711 = EDGE_CURVE('',#704,#712,#714,.T.);
#712 = VERTEX_POINT('',#713);
#713 = CARTESIAN_POINT('',(-8.1,-7.75,4.));
#714 = LINE('',#715,#716);
#715 = CARTESIAN_POINT('',(-8.9,-7.75,4.));
#716 = VECTOR('',#717,1.);
#717 = DIRECTION('',(1.,0.E+000,0.E+000));
#718 = ORIENTED_EDGE('',*,*,#719,.F.);
#719 = EDGE_CURVE('',#720,#712,#722,.T.);
#720 = VERTEX_POINT('',#721);
#721 = CARTESIAN_POINT('',(-8.1,-7.75,-9.491012693392E-016));
#722 = LINE('',#723,#724);
#723 = CARTESIAN_POINT('',(-8.1,-7.75,-9.491012693392E-016));
#724 = VECTOR('',#725,1.);
#725 = DIRECTION('',(0.E+000,-1.224646799147E-016,1.));
#726 = ORIENTED_EDGE('',*,*,#727,.F.);
#727 = EDGE_CURVE('',#702,#720,#728,.T.);
#728 = LINE('',#729,#730);
#729 = CARTESIAN_POINT('',(-8.9,-7.75,-9.491012693392E-016));
#730 = VECTOR('',#731,1.);
#731 = DIRECTION('',(1.,0.E+000,0.E+000));
#732 = PLANE('',#733);
#733 = AXIS2_PLACEMENT_3D('',#734,#735,#736);
#734 = CARTESIAN_POINT('',(-8.9,-7.75,-9.491012693392E-016));
#735 = DIRECTION('',(-0.E+000,1.,1.224646799147E-016));
#736 = DIRECTION('',(1.,0.E+000,0.E+000));
#737 = ADVANCED_FACE('',(#738),#763,.T.);
#738 = FACE_BOUND('',#739,.T.);
#739 = EDGE_LOOP('',(#740,#741,#749,#757));
#740 = ORIENTED_EDGE('',*,*,#719,.T.);
#741 = ORIENTED_EDGE('',*,*,#742,.T.);
#742 = EDGE_CURVE('',#712,#743,#745,.T.);
#743 = VERTEX_POINT('',#744);
#744 = CARTESIAN_POINT('',(-8.1,-9.25,4.));
#745 = LINE('',#746,#747);
#746 = CARTESIAN_POINT('',(-8.1,-7.75,4.));
#747 = VECTOR('',#748,1.);
#748 = DIRECTION('',(0.E+000,-1.,-1.224646799147E-016));
#749 = ORIENTED_EDGE('',*,*,#750,.F.);
#750 = EDGE_CURVE('',#751,#743,#753,.T.);
#751 = VERTEX_POINT('',#752);
#752 = CARTESIAN_POINT('',(-8.1,-9.25,-1.132798289211E-015));
#753 = LINE('',#754,#755);
#754 = CARTESIAN_POINT('',(-8.1,-9.25,-1.132798289211E-015));
#755 = VECTOR('',#756,1.);
#756 = DIRECTION('',(0.E+000,-1.224646799147E-016,1.));
#757 = ORIENTED_EDGE('',*,*,#758,.F.);
#758 = EDGE_CURVE('',#720,#751,#759,.T.);
#759 = LINE('',#760,#761);
#760 = CARTESIAN_POINT('',(-8.1,-7.75,-9.491012693392E-016));
#761 = VECTOR('',#762,1.);
#762 = DIRECTION('',(0.E+000,-1.,-1.224646799147E-016));
#763 = PLANE('',#764);
#764 = AXIS2_PLACEMENT_3D('',#765,#766,#767);
#765 = CARTESIAN_POINT('',(-8.1,-7.75,-9.491012693392E-016));
#766 = DIRECTION('',(1.,0.E+000,0.E+000));
#767 = DIRECTION('',(0.E+000,-1.,-1.224646799147E-016));
#768 = ADVANCED_FACE('',(#769),#794,.T.);
#769 = FACE_BOUND('',#770,.T.);
#770 = EDGE_LOOP('',(#771,#772,#780,#788));
#771 = ORIENTED_EDGE('',*,*,#750,.T.);
#772 = ORIENTED_EDGE('',*,*,#773,.T.);
#773 = EDGE_CURVE('',#743,#774,#776,.T.);
#774 = VERTEX_POINT('',#775);
#775 = CARTESIAN_POINT('',(-8.9,-9.25,4.));
#776 = LINE('',#777,#778);
#777 = CARTESIAN_POINT('',(-8.1,-9.25,4.));
#778 = VECTOR('',#779,1.);
#779 = DIRECTION('',(-1.,0.E+000,0.E+000));
#780 = ORIENTED_EDGE('',*,*,#781,.F.);
#781 = EDGE_CURVE('',#782,#774,#784,.T.);
#782 = VERTEX_POINT('',#783);
#783 = CARTESIAN_POINT('',(-8.9,-9.25,-1.132798289211E-015));
#784 = LINE('',#785,#786);
#785 = CARTESIAN_POINT('',(-8.9,-9.25,-1.132798289211E-015));
#786 = VECTOR('',#787,1.);
#787 = DIRECTION('',(0.E+000,-1.224646799147E-016,1.));
#788 = ORIENTED_EDGE('',*,*,#789,.F.);
#789 = EDGE_CURVE('',#751,#782,#790,.T.);
#790 = LINE('',#791,#792);
#791 = CARTESIAN_POINT('',(-8.1,-9.25,-1.132798289211E-015));
#792 = VECTOR('',#793,1.);
#793 = DIRECTION('',(-1.,0.E+000,0.E+000));
#794 = PLANE('',#795);
#795 = AXIS2_PLACEMENT_3D('',#796,#797,#798);
#796 = CARTESIAN_POINT('',(-8.1,-9.25,-1.132798289211E-015));
#797 = DIRECTION('',(-0.E+000,-1.,-1.224646799147E-016));
#798 = DIRECTION('',(-1.,0.E+000,0.E+000));
#799 = ADVANCED_FACE('',(#800),#816,.T.);
#800 = FACE_BOUND('',#801,.T.);
#801 = EDGE_LOOP('',(#802,#803,#809,#810));
#802 = ORIENTED_EDGE('',*,*,#781,.T.);
#803 = ORIENTED_EDGE('',*,*,#804,.T.);
#804 = EDGE_CURVE('',#774,#704,#805,.T.);
#805 = LINE('',#806,#807);
#806 = CARTESIAN_POINT('',(-8.9,-9.25,4.));
#807 = VECTOR('',#808,1.);
#808 = DIRECTION('',(0.E+000,1.,1.224646799147E-016));
#809 = ORIENTED_EDGE('',*,*,#701,.F.);
#810 = ORIENTED_EDGE('',*,*,#811,.F.);
#811 = EDGE_CURVE('',#782,#702,#812,.T.);
#812 = LINE('',#813,#814);
#813 = CARTESIAN_POINT('',(-8.9,-9.25,-1.132798289211E-015));
#814 = VECTOR('',#815,1.);
#815 = DIRECTION('',(0.E+000,1.,1.224646799147E-016));
#816 = PLANE('',#817);
#817 = AXIS2_PLACEMENT_3D('',#818,#819,#820);
#818 = CARTESIAN_POINT('',(-8.9,-9.25,-1.132798289211E-015));
#819 = DIRECTION('',(-1.,0.E+000,0.E+000));
#820 = DIRECTION('',(0.E+000,1.,1.224646799147E-016));
#821 = ADVANCED_FACE('',(#822),#828,.F.);
#822 = FACE_BOUND('',#823,.T.);
#823 = EDGE_LOOP('',(#824,#825,#826,#827));
#824 = ORIENTED_EDGE('',*,*,#727,.T.);
#825 = ORIENTED_EDGE('',*,*,#758,.T.);
#826 = ORIENTED_EDGE('',*,*,#789,.T.);
#827 = ORIENTED_EDGE('',*,*,#811,.T.);
#828 = PLANE('',#829);
#829 = AXIS2_PLACEMENT_3D('',#830,#831,#832);
#830 = CARTESIAN_POINT('',(-8.9,-7.75,-9.491012693392E-016));
#831 = DIRECTION('',(0.E+000,-1.224646799147E-016,1.));
#832 = DIRECTION('',(-1.,-0.E+000,0.E+000));
#833 = ADVANCED_FACE('',(#834),#840,.T.);
#834 = FACE_BOUND('',#835,.F.);
#835 = EDGE_LOOP('',(#836,#837,#838,#839));
#836 = ORIENTED_EDGE('',*,*,#711,.T.);
#837 = ORIENTED_EDGE('',*,*,#742,.T.);
#838 = ORIENTED_EDGE('',*,*,#773,.T.);
#839 = ORIENTED_EDGE('',*,*,#804,.T.);
#840 = PLANE('',#841);
#841 = AXIS2_PLACEMENT_3D('',#842,#843,#844);
#842 = CARTESIAN_POINT('',(-8.9,-7.75,4.));
#843 = DIRECTION('',(0.E+000,-1.224646799147E-016,1.));
#844 = DIRECTION('',(-1.,-0.E+000,0.E+000));
#845 = MANIFOLD_SOLID_BREP('',#846);
#846 = CLOSED_SHELL('',(#847,#887,#918,#949,#971,#983));
#847 = ADVANCED_FACE('',(#848),#882,.T.);
#848 = FACE_BOUND('',#849,.T.);
#849 = EDGE_LOOP('',(#850,#860,#868,#876));
#850 = ORIENTED_EDGE('',*,*,#851,.T.);
#851 = EDGE_CURVE('',#852,#854,#856,.T.);
#852 = VERTEX_POINT('',#853);
#853 = CARTESIAN_POINT('',(-11.4,-7.75,-9.491012693392E-016));
#854 = VERTEX_POINT('',#855);
#855 = CARTESIAN_POINT('',(-11.4,-7.75,4.));
#856 = LINE('',#857,#858);
#857 = CARTESIAN_POINT('',(-11.4,-7.75,-9.491012693392E-016));
#858 = VECTOR('',#859,1.);
#859 = DIRECTION('',(0.E+000,-1.224646799147E-016,1.));
#860 = ORIENTED_EDGE('',*,*,#861,.T.);
#861 = EDGE_CURVE('',#854,#862,#864,.T.);
#862 = VERTEX_POINT('',#863);
#863 = CARTESIAN_POINT('',(-10.6,-7.75,4.));
#864 = LINE('',#865,#866);
#865 = CARTESIAN_POINT('',(-11.4,-7.75,4.));
#866 = VECTOR('',#867,1.);
#867 = DIRECTION('',(1.,0.E+000,0.E+000));
#868 = ORIENTED_EDGE('',*,*,#869,.F.);
#869 = EDGE_CURVE('',#870,#862,#872,.T.);
#870 = VERTEX_POINT('',#871);
#871 = CARTESIAN_POINT('',(-10.6,-7.75,-9.491012693392E-016));
#872 = LINE('',#873,#874);
#873 = CARTESIAN_POINT('',(-10.6,-7.75,-9.491012693392E-016));
#874 = VECTOR('',#875,1.);
#875 = DIRECTION('',(0.E+000,-1.224646799147E-016,1.));
#876 = ORIENTED_EDGE('',*,*,#877,.F.);
#877 = EDGE_CURVE('',#852,#870,#878,.T.);
#878 = LINE('',#879,#880);
#879 = CARTESIAN_POINT('',(-11.4,-7.75,-9.491012693392E-016));
#880 = VECTOR('',#881,1.);
#881 = DIRECTION('',(1.,0.E+000,0.E+000));
#882 = PLANE('',#883);
#883 = AXIS2_PLACEMENT_3D('',#884,#885,#886);
#884 = CARTESIAN_POINT('',(-11.4,-7.75,-9.491012693392E-016));
#885 = DIRECTION('',(-0.E+000,1.,1.224646799147E-016));
#886 = DIRECTION('',(1.,0.E+000,0.E+000));
#887 = ADVANCED_FACE('',(#888),#913,.T.);
#888 = FACE_BOUND('',#889,.T.);
#889 = EDGE_LOOP('',(#890,#891,#899,#907));
#890 = ORIENTED_EDGE('',*,*,#869,.T.);
#891 = ORIENTED_EDGE('',*,*,#892,.T.);
#892 = EDGE_CURVE('',#862,#893,#895,.T.);
#893 = VERTEX_POINT('',#894);
#894 = CARTESIAN_POINT('',(-10.6,-9.25,4.));
#895 = LINE('',#896,#897);
#896 = CARTESIAN_POINT('',(-10.6,-7.75,4.));
#897 = VECTOR('',#898,1.);
#898 = DIRECTION('',(0.E+000,-1.,-1.224646799147E-016));
#899 = ORIENTED_EDGE('',*,*,#900,.F.);
#900 = EDGE_CURVE('',#901,#893,#903,.T.);
#901 = VERTEX_POINT('',#902);
#902 = CARTESIAN_POINT('',(-10.6,-9.25,-1.132798289211E-015));
#903 = LINE('',#904,#905);
#904 = CARTESIAN_POINT('',(-10.6,-9.25,-1.132798289211E-015));
#905 = VECTOR('',#906,1.);
#906 = DIRECTION('',(0.E+000,-1.224646799147E-016,1.));
#907 = ORIENTED_EDGE('',*,*,#908,.F.);
#908 = EDGE_CURVE('',#870,#901,#909,.T.);
#909 = LINE('',#910,#911);
#910 = CARTESIAN_POINT('',(-10.6,-7.75,-9.491012693392E-016));
#911 = VECTOR('',#912,1.);
#912 = DIRECTION('',(0.E+000,-1.,-1.224646799147E-016));
#913 = PLANE('',#914);
#914 = AXIS2_PLACEMENT_3D('',#915,#916,#917);
#915 = CARTESIAN_POINT('',(-10.6,-7.75,-9.491012693392E-016));
#916 = DIRECTION('',(1.,0.E+000,0.E+000));
#917 = DIRECTION('',(0.E+000,-1.,-1.224646799147E-016));
#918 = ADVANCED_FACE('',(#919),#944,.T.);
#919 = FACE_BOUND('',#920,.T.);
#920 = EDGE_LOOP('',(#921,#922,#930,#938));
#921 = ORIENTED_EDGE('',*,*,#900,.T.);
#922 = ORIENTED_EDGE('',*,*,#923,.T.);
#923 = EDGE_CURVE('',#893,#924,#926,.T.);
#924 = VERTEX_POINT('',#925);
#925 = CARTESIAN_POINT('',(-11.4,-9.25,4.));
#926 = LINE('',#927,#928);
#927 = CARTESIAN_POINT('',(-10.6,-9.25,4.));
#928 = VECTOR('',#929,1.);
#929 = DIRECTION('',(-1.,0.E+000,0.E+000));
#930 = ORIENTED_EDGE('',*,*,#931,.F.);
#931 = EDGE_CURVE('',#932,#924,#934,.T.);
#932 = VERTEX_POINT('',#933);
#933 = CARTESIAN_POINT('',(-11.4,-9.25,-1.132798289211E-015));
#934 = LINE('',#935,#936);
#935 = CARTESIAN_POINT('',(-11.4,-9.25,-1.132798289211E-015));
#936 = VECTOR('',#937,1.);
#937 = DIRECTION('',(0.E+000,-1.224646799147E-016,1.));
#938 = ORIENTED_EDGE('',*,*,#939,.F.);
#939 = EDGE_CURVE('',#901,#932,#940,.T.);
#940 = LINE('',#941,#942);
#941 = CARTESIAN_POINT('',(-10.6,-9.25,-1.132798289211E-015));
#942 = VECTOR('',#943,1.);
#943 = DIRECTION('',(-1.,0.E+000,0.E+000));
#944 = PLANE('',#945);
#945 = AXIS2_PLACEMENT_3D('',#946,#947,#948);
#946 = CARTESIAN_POINT('',(-10.6,-9.25,-1.132798289211E-015));
#947 = DIRECTION('',(-0.E+000,-1.,-1.224646799147E-016));
#948 = DIRECTION('',(-1.,0.E+000,0.E+000));
#949 = ADVANCED_FACE('',(#950),#966,.T.);
#950 = FACE_BOUND('',#951,.T.);
#951 = EDGE_LOOP('',(#952,#953,#959,#960));
#952 = ORIENTED_EDGE('',*,*,#931,.T.);
#953 = ORIENTED_EDGE('',*,*,#954,.T.);
#954 = EDGE_CURVE('',#924,#854,#955,.T.);
#955 = LINE('',#956,#957);
#956 = CARTESIAN_POINT('',(-11.4,-9.25,4.));
#957 = VECTOR('',#958,1.);
#958 = DIRECTION('',(0.E+000,1.,1.224646799147E-016));
#959 = ORIENTED_EDGE('',*,*,#851,.F.);
#960 = ORIENTED_EDGE('',*,*,#961,.F.);
#961 = EDGE_CURVE('',#932,#852,#962,.T.);
#962 = LINE('',#963,#964);
#963 = CARTESIAN_POINT('',(-11.4,-9.25,-1.132798289211E-015));
#964 = VECTOR('',#965,1.);
#965 = DIRECTION('',(0.E+000,1.,1.224646799147E-016));
#966 = PLANE('',#967);
#967 = AXIS2_PLACEMENT_3D('',#968,#969,#970);
#968 = CARTESIAN_POINT('',(-11.4,-9.25,-1.132798289211E-015));
#969 = DIRECTION('',(-1.,0.E+000,0.E+000));
#970 = DIRECTION('',(0.E+000,1.,1.224646799147E-016));
#971 = ADVANCED_FACE('',(#972),#978,.F.);
#972 = FACE_BOUND('',#973,.T.);
#973 = EDGE_LOOP('',(#974,#975,#976,#977));
#974 = ORIENTED_EDGE('',*,*,#877,.T.);
#975 = ORIENTED_EDGE('',*,*,#908,.T.);
#976 = ORIENTED_EDGE('',*,*,#939,.T.);
#977 = ORIENTED_EDGE('',*,*,#961,.T.);
#978 = PLANE('',#979);
#979 = AXIS2_PLACEMENT_3D('',#980,#981,#982);
#980 = CARTESIAN_POINT('',(-11.4,-7.75,-9.491012693392E-016));
#981 = DIRECTION('',(0.E+000,-1.224646799147E-016,1.));
#982 = DIRECTION('',(-1.,-0.E+000,0.E+000));
#983 = ADVANCED_FACE('',(#984),#990,.T.);
#984 = FACE_BOUND('',#985,.F.);
#985 = EDGE_LOOP('',(#986,#987,#988,#989));
#986 = ORIENTED_EDGE('',*,*,#861,.T.);
#987 = ORIENTED_EDGE('',*,*,#892,.T.);
#988 = ORIENTED_EDGE('',*,*,#923,.T.);
#989 = ORIENTED_EDGE('',*,*,#954,.T.);
#990 = PLANE('',#991);
#991 = AXIS2_PLACEMENT_3D('',#992,#993,#994);
#992 = CARTESIAN_POINT('',(-11.4,-7.75,4.));
#993 = DIRECTION('',(0.E+000,-1.224646799147E-016,1.));
#994 = DIRECTION('',(-1.,-0.E+000,0.E+000));
#995 = MANIFOLD_SOLID_BREP('',#996);
#996 = CLOSED_SHELL('',(#997,#1037,#1068,#1099,#1121,#1133));
#997 = ADVANCED_FACE('',(#998),#1032,.T.);
#998 = FACE_BOUND('',#999,.T.);
#999 = EDGE_LOOP('',(#1000,#1010,#1018,#1026));
#1000 = ORIENTED_EDGE('',*,*,#1001,.T.);
#1001 = EDGE_CURVE('',#1002,#1004,#1006,.T.);
#1002 = VERTEX_POINT('',#1003);
#1003 = CARTESIAN_POINT('',(-6.75,-3.1,-3.796405077357E-016));
#1004 = VERTEX_POINT('',#1005);
#1005 = CARTESIAN_POINT('',(-6.75,-3.1,4.));
#1006 = LINE('',#1007,#1008);
#1007 = CARTESIAN_POINT('',(-6.75,-3.1,-3.796405077357E-016));
#1008 = VECTOR('',#1009,1.);
#1009 = DIRECTION('',(0.E+000,-1.224646799147E-016,1.));
#1010 = ORIENTED_EDGE('',*,*,#1011,.T.);
#1011 = EDGE_CURVE('',#1004,#1012,#1014,.T.);
#1012 = VERTEX_POINT('',#1013);
#1013 = CARTESIAN_POINT('',(-5.25,-3.1,4.));
#1014 = LINE('',#1015,#1016);
#1015 = CARTESIAN_POINT('',(-6.75,-3.1,4.));
#1016 = VECTOR('',#1017,1.);
#1017 = DIRECTION('',(1.,0.E+000,0.E+000));
#1018 = ORIENTED_EDGE('',*,*,#1019,.F.);
#1019 = EDGE_CURVE('',#1020,#1012,#1022,.T.);
#1020 = VERTEX_POINT('',#1021);
#1021 = CARTESIAN_POINT('',(-5.25,-3.1,-3.796405077357E-016));
#1022 = LINE('',#1023,#1024);
#1023 = CARTESIAN_POINT('',(-5.25,-3.1,-3.796405077357E-016));
#1024 = VECTOR('',#1025,1.);
#1025 = DIRECTION('',(0.E+000,-1.224646799147E-016,1.));
#1026 = ORIENTED_EDGE('',*,*,#1027,.F.);
#1027 = EDGE_CURVE('',#1002,#1020,#1028,.T.);
#1028 = LINE('',#1029,#1030);
#1029 = CARTESIAN_POINT('',(-6.75,-3.1,-3.796405077357E-016));
#1030 = VECTOR('',#1031,1.);
#1031 = DIRECTION('',(1.,0.E+000,0.E+000));
#1032 = PLANE('',#1033);
#1033 = AXIS2_PLACEMENT_3D('',#1034,#1035,#1036);
#1034 = CARTESIAN_POINT('',(-6.75,-3.1,-3.796405077357E-016));
#1035 = DIRECTION('',(-0.E+000,1.,1.224646799147E-016));
#1036 = DIRECTION('',(1.,0.E+000,0.E+000));
#1037 = ADVANCED_FACE('',(#1038),#1063,.T.);
#1038 = FACE_BOUND('',#1039,.T.);
#1039 = EDGE_LOOP('',(#1040,#1041,#1049,#1057));
#1040 = ORIENTED_EDGE('',*,*,#1019,.T.);
#1041 = ORIENTED_EDGE('',*,*,#1042,.T.);
#1042 = EDGE_CURVE('',#1012,#1043,#1045,.T.);
#1043 = VERTEX_POINT('',#1044);
#1044 = CARTESIAN_POINT('',(-5.25,-3.9,4.));
#1045 = LINE('',#1046,#1047);
#1046 = CARTESIAN_POINT('',(-5.25,-3.1,4.));
#1047 = VECTOR('',#1048,1.);
#1048 = DIRECTION('',(0.E+000,-1.,-1.224646799147E-016));
#1049 = ORIENTED_EDGE('',*,*,#1050,.F.);
#1050 = EDGE_CURVE('',#1051,#1043,#1053,.T.);
#1051 = VERTEX_POINT('',#1052);
#1052 = CARTESIAN_POINT('',(-5.25,-3.9,-4.776122516675E-016));
#1053 = LINE('',#1054,#1055);
#1054 = CARTESIAN_POINT('',(-5.25,-3.9,-4.776122516675E-016));
#1055 = VECTOR('',#1056,1.);
#1056 = DIRECTION('',(0.E+000,-1.224646799147E-016,1.));
#1057 = ORIENTED_EDGE('',*,*,#1058,.F.);
#1058 = EDGE_CURVE('',#1020,#1051,#1059,.T.);
#1059 = LINE('',#1060,#1061);
#1060 = CARTESIAN_POINT('',(-5.25,-3.1,-3.796405077357E-016));
#1061 = VECTOR('',#1062,1.);
#1062 = DIRECTION('',(0.E+000,-1.,-1.224646799147E-016));
#1063 = PLANE('',#1064);
#1064 = AXIS2_PLACEMENT_3D('',#1065,#1066,#1067);
#1065 = CARTESIAN_POINT('',(-5.25,-3.1,-3.796405077357E-016));
#1066 = DIRECTION('',(1.,0.E+000,0.E+000));
#1067 = DIRECTION('',(0.E+000,-1.,-1.224646799147E-016));
#1068 = ADVANCED_FACE('',(#1069),#1094,.T.);
#1069 = FACE_BOUND('',#1070,.T.);
#1070 = EDGE_LOOP('',(#1071,#1072,#1080,#1088));
#1071 = ORIENTED_EDGE('',*,*,#1050,.T.);
#1072 = ORIENTED_EDGE('',*,*,#1073,.T.);
#1073 = EDGE_CURVE('',#1043,#1074,#1076,.T.);
#1074 = VERTEX_POINT('',#1075);
#1075 = CARTESIAN_POINT('',(-6.75,-3.9,4.));
#1076 = LINE('',#1077,#1078);
#1077 = CARTESIAN_POINT('',(-5.25,-3.9,4.));
#1078 = VECTOR('',#1079,1.);
#1079 = DIRECTION('',(-1.,0.E+000,0.E+000));
#1080 = ORIENTED_EDGE('',*,*,#1081,.F.);
#1081 = EDGE_CURVE('',#1082,#1074,#1084,.T.);
#1082 = VERTEX_POINT('',#1083);
#1083 = CARTESIAN_POINT('',(-6.75,-3.9,-4.776122516675E-016));
#1084 = LINE('',#1085,#1086);
#1085 = CARTESIAN_POINT('',(-6.75,-3.9,-4.776122516675E-016));
#1086 = VECTOR('',#1087,1.);
#1087 = DIRECTION('',(0.E+000,-1.224646799147E-016,1.));
#1088 = ORIENTED_EDGE('',*,*,#1089,.F.);
#1089 = EDGE_CURVE('',#1051,#1082,#1090,.T.);
#1090 = LINE('',#1091,#1092);
#1091 = CARTESIAN_POINT('',(-5.25,-3.9,-4.776122516675E-016));
#1092 = VECTOR('',#1093,1.);
#1093 = DIRECTION('',(-1.,0.E+000,0.E+000));
#1094 = PLANE('',#1095);
#1095 = AXIS2_PLACEMENT_3D('',#1096,#1097,#1098);
#1096 = CARTESIAN_POINT('',(-5.25,-3.9,-4.776122516675E-016));
#1097 = DIRECTION('',(-0.E+000,-1.,-1.224646799147E-016));
#1098 = DIRECTION('',(-1.,0.E+000,0.E+000));
#1099 = ADVANCED_FACE('',(#1100),#1116,.T.);
#1100 = FACE_BOUND('',#1101,.T.);
#1101 = EDGE_LOOP('',(#1102,#1103,#1109,#1110));
#1102 = ORIENTED_EDGE('',*,*,#1081,.T.);
#1103 = ORIENTED_EDGE('',*,*,#1104,.T.);
#1104 = EDGE_CURVE('',#1074,#1004,#1105,.T.);
#1105 = LINE('',#1106,#1107);
#1106 = CARTESIAN_POINT('',(-6.75,-3.9,4.));
#1107 = VECTOR('',#1108,1.);
#1108 = DIRECTION('',(0.E+000,1.,1.224646799147E-016));
#1109 = ORIENTED_EDGE('',*,*,#1001,.F.);
#1110 = ORIENTED_EDGE('',*,*,#1111,.F.);
#1111 = EDGE_CURVE('',#1082,#1002,#1112,.T.);
#1112 = LINE('',#1113,#1114);
#1113 = CARTESIAN_POINT('',(-6.75,-3.9,-4.776122516675E-016));
#1114 = VECTOR('',#1115,1.);
#1115 = DIRECTION('',(0.E+000,1.,1.224646799147E-016));
#1116 = PLANE('',#1117);
#1117 = AXIS2_PLACEMENT_3D('',#1118,#1119,#1120);
#1118 = CARTESIAN_POINT('',(-6.75,-3.9,-4.776122516675E-016));
#1119 = DIRECTION('',(-1.,0.E+000,0.E+000));
#1120 = DIRECTION('',(0.E+000,1.,1.224646799147E-016));
#1121 = ADVANCED_FACE('',(#1122),#1128,.F.);
#1122 = FACE_BOUND('',#1123,.T.);
#1123 = EDGE_LOOP('',(#1124,#1125,#1126,#1127));
#1124 = ORIENTED_EDGE('',*,*,#1027,.T.);
#1125 = ORIENTED_EDGE('',*,*,#1058,.T.);
#1126 = ORIENTED_EDGE('',*,*,#1089,.T.);
#1127 = ORIENTED_EDGE('',*,*,#1111,.T.);
#1128 = PLANE('',#1129);
#1129 = AXIS2_PLACEMENT_3D('',#1130,#1131,#1132);
#1130 = CARTESIAN_POINT('',(-6.75,-3.1,-3.796405077357E-016));
#1131 = DIRECTION('',(0.E+000,-1.224646799147E-016,1.));
#1132 = DIRECTION('',(-1.,-0.E+000,0.E+000));
#1133 = ADVANCED_FACE('',(#1134),#1140,.T.);
#1134 = FACE_BOUND('',#1135,.F.);
#1135 = EDGE_LOOP('',(#1136,#1137,#1138,#1139));
#1136 = ORIENTED_EDGE('',*,*,#1011,.T.);
#1137 = ORIENTED_EDGE('',*,*,#1042,.T.);
#1138 = ORIENTED_EDGE('',*,*,#1073,.T.);
#1139 = ORIENTED_EDGE('',*,*,#1104,.T.);
#1140 = PLANE('',#1141);
#1141 = AXIS2_PLACEMENT_3D('',#1142,#1143,#1144);
#1142 = CARTESIAN_POINT('',(-6.75,-3.1,4.));
#1143 = DIRECTION('',(0.E+000,-1.224646799147E-016,1.));
#1144 = DIRECTION('',(-1.,-0.E+000,0.E+000));
#1145 = MANIFOLD_SOLID_BREP('',#1146);
#1146 = CLOSED_SHELL('',(#1147,#1187,#1218,#1249,#1271,#1283));
#1147 = ADVANCED_FACE('',(#1148),#1182,.T.);
#1148 = FACE_BOUND('',#1149,.T.);
#1149 = EDGE_LOOP('',(#1150,#1160,#1168,#1176));
#1150 = ORIENTED_EDGE('',*,*,#1151,.T.);
#1151 = EDGE_CURVE('',#1152,#1154,#1156,.T.);
#1152 = VERTEX_POINT('',#1153);
#1153 = CARTESIAN_POINT('',(-3.9,-7.75,-9.491012693392E-016));
#1154 = VERTEX_POINT('',#1155);
#1155 = CARTESIAN_POINT('',(-3.9,-7.75,4.));
#1156 = LINE('',#1157,#1158);
#1157 = CARTESIAN_POINT('',(-3.9,-7.75,-9.491012693392E-016));
#1158 = VECTOR('',#1159,1.);
#1159 = DIRECTION('',(0.E+000,-1.224646799147E-016,1.));
#1160 = ORIENTED_EDGE('',*,*,#1161,.T.);
#1161 = EDGE_CURVE('',#1154,#1162,#1164,.T.);
#1162 = VERTEX_POINT('',#1163);
#1163 = CARTESIAN_POINT('',(-3.1,-7.75,4.));
#1164 = LINE('',#1165,#1166);
#1165 = CARTESIAN_POINT('',(-3.9,-7.75,4.));
#1166 = VECTOR('',#1167,1.);
#1167 = DIRECTION('',(1.,0.E+000,0.E+000));
#1168 = ORIENTED_EDGE('',*,*,#1169,.F.);
#1169 = EDGE_CURVE('',#1170,#1162,#1172,.T.);
#1170 = VERTEX_POINT('',#1171);
#1171 = CARTESIAN_POINT('',(-3.1,-7.75,-9.491012693392E-016));
#1172 = LINE('',#1173,#1174);
#1173 = CARTESIAN_POINT('',(-3.1,-7.75,-9.491012693392E-016));
#1174 = VECTOR('',#1175,1.);
#1175 = DIRECTION('',(0.E+000,-1.224646799147E-016,1.));
#1176 = ORIENTED_EDGE('',*,*,#1177,.F.);
#1177 = EDGE_CURVE('',#1152,#1170,#1178,.T.);
#1178 = LINE('',#1179,#1180);
#1179 = CARTESIAN_POINT('',(-3.9,-7.75,-9.491012693392E-016));
#1180 = VECTOR('',#1181,1.);
#1181 = DIRECTION('',(1.,0.E+000,0.E+000));
#1182 = PLANE('',#1183);
#1183 = AXIS2_PLACEMENT_3D('',#1184,#1185,#1186);
#1184 = CARTESIAN_POINT('',(-3.9,-7.75,-9.491012693392E-016));
#1185 = DIRECTION('',(-0.E+000,1.,1.224646799147E-016));
#1186 = DIRECTION('',(1.,0.E+000,0.E+000));
#1187 = ADVANCED_FACE('',(#1188),#1213,.T.);
#1188 = FACE_BOUND('',#1189,.T.);
#1189 = EDGE_LOOP('',(#1190,#1191,#1199,#1207));
#1190 = ORIENTED_EDGE('',*,*,#1169,.T.);
#1191 = ORIENTED_EDGE('',*,*,#1192,.T.);
#1192 = EDGE_CURVE('',#1162,#1193,#1195,.T.);
#1193 = VERTEX_POINT('',#1194);
#1194 = CARTESIAN_POINT('',(-3.1,-9.25,4.));
#1195 = LINE('',#1196,#1197);
#1196 = CARTESIAN_POINT('',(-3.1,-7.75,4.));
#1197 = VECTOR('',#1198,1.);
#1198 = DIRECTION('',(0.E+000,-1.,-1.224646799147E-016));
#1199 = ORIENTED_EDGE('',*,*,#1200,.F.);
#1200 = EDGE_CURVE('',#1201,#1193,#1203,.T.);
#1201 = VERTEX_POINT('',#1202);
#1202 = CARTESIAN_POINT('',(-3.1,-9.25,-1.132798289211E-015));
#1203 = LINE('',#1204,#1205);
#1204 = CARTESIAN_POINT('',(-3.1,-9.25,-1.132798289211E-015));
#1205 = VECTOR('',#1206,1.);
#1206 = DIRECTION('',(0.E+000,-1.224646799147E-016,1.));
#1207 = ORIENTED_EDGE('',*,*,#1208,.F.);
#1208 = EDGE_CURVE('',#1170,#1201,#1209,.T.);
#1209 = LINE('',#1210,#1211);
#1210 = CARTESIAN_POINT('',(-3.1,-7.75,-9.491012693392E-016));
#1211 = VECTOR('',#1212,1.);
#1212 = DIRECTION('',(0.E+000,-1.,-1.224646799147E-016));
#1213 = PLANE('',#1214);
#1214 = AXIS2_PLACEMENT_3D('',#1215,#1216,#1217);
#1215 = CARTESIAN_POINT('',(-3.1,-7.75,-9.491012693392E-016));
#1216 = DIRECTION('',(1.,0.E+000,0.E+000));
#1217 = DIRECTION('',(0.E+000,-1.,-1.224646799147E-016));
#1218 = ADVANCED_FACE('',(#1219),#1244,.T.);
#1219 = FACE_BOUND('',#1220,.T.);
#1220 = EDGE_LOOP('',(#1221,#1222,#1230,#1238));
#1221 = ORIENTED_EDGE('',*,*,#1200,.T.);
#1222 = ORIENTED_EDGE('',*,*,#1223,.T.);
#1223 = EDGE_CURVE('',#1193,#1224,#1226,.T.);
#1224 = VERTEX_POINT('',#1225);
#1225 = CARTESIAN_POINT('',(-3.9,-9.25,4.));
#1226 = LINE('',#1227,#1228);
#1227 = CARTESIAN_POINT('',(-3.1,-9.25,4.));
#1228 = VECTOR('',#1229,1.);
#1229 = DIRECTION('',(-1.,0.E+000,0.E+000));
#1230 = ORIENTED_EDGE('',*,*,#1231,.F.);
#1231 = EDGE_CURVE('',#1232,#1224,#1234,.T.);
#1232 = VERTEX_POINT('',#1233);
#1233 = CARTESIAN_POINT('',(-3.9,-9.25,-1.132798289211E-015));
#1234 = LINE('',#1235,#1236);
#1235 = CARTESIAN_POINT('',(-3.9,-9.25,-1.132798289211E-015));
#1236 = VECTOR('',#1237,1.);
#1237 = DIRECTION('',(0.E+000,-1.224646799147E-016,1.));
#1238 = ORIENTED_EDGE('',*,*,#1239,.F.);
#1239 = EDGE_CURVE('',#1201,#1232,#1240,.T.);
#1240 = LINE('',#1241,#1242);
#1241 = CARTESIAN_POINT('',(-3.1,-9.25,-1.132798289211E-015));
#1242 = VECTOR('',#1243,1.);
#1243 = DIRECTION('',(-1.,0.E+000,0.E+000));
#1244 = PLANE('',#1245);
#1245 = AXIS2_PLACEMENT_3D('',#1246,#1247,#1248);
#1246 = CARTESIAN_POINT('',(-3.1,-9.25,-1.132798289211E-015));
#1247 = DIRECTION('',(-0.E+000,-1.,-1.224646799147E-016));
#1248 = DIRECTION('',(-1.,0.E+000,0.E+000));
#1249 = ADVANCED_FACE('',(#1250),#1266,.T.);
#1250 = FACE_BOUND('',#1251,.T.);
#1251 = EDGE_LOOP('',(#1252,#1253,#1259,#1260));
#1252 = ORIENTED_EDGE('',*,*,#1231,.T.);
#1253 = ORIENTED_EDGE('',*,*,#1254,.T.);
#1254 = EDGE_CURVE('',#1224,#1154,#1255,.T.);
#1255 = LINE('',#1256,#1257);
#1256 = CARTESIAN_POINT('',(-3.9,-9.25,4.));
#1257 = VECTOR('',#1258,1.);
#1258 = DIRECTION('',(0.E+000,1.,1.224646799147E-016));
#1259 = ORIENTED_EDGE('',*,*,#1151,.F.);
#1260 = ORIENTED_EDGE('',*,*,#1261,.F.);
#1261 = EDGE_CURVE('',#1232,#1152,#1262,.T.);
#1262 = LINE('',#1263,#1264);
#1263 = CARTESIAN_POINT('',(-3.9,-9.25,-1.132798289211E-015));
#1264 = VECTOR('',#1265,1.);
#1265 = DIRECTION('',(0.E+000,1.,1.224646799147E-016));
#1266 = PLANE('',#1267);
#1267 = AXIS2_PLACEMENT_3D('',#1268,#1269,#1270);
#1268 = CARTESIAN_POINT('',(-3.9,-9.25,-1.132798289211E-015));
#1269 = DIRECTION('',(-1.,0.E+000,0.E+000));
#1270 = DIRECTION('',(0.E+000,1.,1.224646799147E-016));
#1271 = ADVANCED_FACE('',(#1272),#1278,.F.);
#1272 = FACE_BOUND('',#1273,.T.);
#1273 = EDGE_LOOP('',(#1274,#1275,#1276,#1277));
#1274 = ORIENTED_EDGE('',*,*,#1177,.T.);
#1275 = ORIENTED_EDGE('',*,*,#1208,.T.);
#1276 = ORIENTED_EDGE('',*,*,#1239,.T.);
#1277 = ORIENTED_EDGE('',*,*,#1261,.T.);
#1278 = PLANE('',#1279);
#1279 = AXIS2_PLACEMENT_3D('',#1280,#1281,#1282);
#1280 = CARTESIAN_POINT('',(-3.9,-7.75,-9.491012693392E-016));
#1281 = DIRECTION('',(0.E+000,-1.224646799147E-016,1.));
#1282 = DIRECTION('',(-1.,-0.E+000,0.E+000));
#1283 = ADVANCED_FACE('',(#1284),#1290,.T.);
#1284 = FACE_BOUND('',#1285,.F.);
#1285 = EDGE_LOOP('',(#1286,#1287,#1288,#1289));
#1286 = ORIENTED_EDGE('',*,*,#1161,.T.);
#1287 = ORIENTED_EDGE('',*,*,#1192,.T.);
#1288 = ORIENTED_EDGE('',*,*,#1223,.T.);
#1289 = ORIENTED_EDGE('',*,*,#1254,.T.);
#1290 = PLANE('',#1291);
#1291 = AXIS2_PLACEMENT_3D('',#1292,#1293,#1294);
#1292 = CARTESIAN_POINT('',(-3.9,-7.75,4.));
#1293 = DIRECTION('',(0.E+000,-1.224646799147E-016,1.));
#1294 = DIRECTION('',(-1.,-0.E+000,0.E+000));
#1295 = MANIFOLD_SOLID_BREP('',#1296);
#1296 = CLOSED_SHELL('',(#1297,#1337,#1368,#1399,#1421,#1433));
#1297 = ADVANCED_FACE('',(#1298),#1332,.T.);
#1298 = FACE_BOUND('',#1299,.T.);
#1299 = EDGE_LOOP('',(#1300,#1310,#1318,#1326));
#1300 = ORIENTED_EDGE('',*,*,#1301,.T.);
#1301 = EDGE_CURVE('',#1302,#1304,#1306,.T.);
#1302 = VERTEX_POINT('',#1303);
#1303 = CARTESIAN_POINT('',(-1.4,-7.75,-9.491012693392E-016));
#1304 = VERTEX_POINT('',#1305);
#1305 = CARTESIAN_POINT('',(-1.4,-7.75,4.));
#1306 = LINE('',#1307,#1308);
#1307 = CARTESIAN_POINT('',(-1.4,-7.75,-9.491012693392E-016));
#1308 = VECTOR('',#1309,1.);
#1309 = DIRECTION('',(0.E+000,-1.224646799147E-016,1.));
#1310 = ORIENTED_EDGE('',*,*,#1311,.T.);
#1311 = EDGE_CURVE('',#1304,#1312,#1314,.T.);
#1312 = VERTEX_POINT('',#1313);
#1313 = CARTESIAN_POINT('',(-0.6,-7.75,4.));
#1314 = LINE('',#1315,#1316);
#1315 = CARTESIAN_POINT('',(-1.4,-7.75,4.));
#1316 = VECTOR('',#1317,1.);
#1317 = DIRECTION('',(1.,0.E+000,0.E+000));
#1318 = ORIENTED_EDGE('',*,*,#1319,.F.);
#1319 = EDGE_CURVE('',#1320,#1312,#1322,.T.);
#1320 = VERTEX_POINT('',#1321);
#1321 = CARTESIAN_POINT('',(-0.6,-7.75,-9.491012693392E-016));
#1322 = LINE('',#1323,#1324);
#1323 = CARTESIAN_POINT('',(-0.6,-7.75,-9.491012693392E-016));
#1324 = VECTOR('',#1325,1.);
#1325 = DIRECTION('',(0.E+000,-1.224646799147E-016,1.));
#1326 = ORIENTED_EDGE('',*,*,#1327,.F.);
#1327 = EDGE_CURVE('',#1302,#1320,#1328,.T.);
#1328 = LINE('',#1329,#1330);
#1329 = CARTESIAN_POINT('',(-1.4,-7.75,-9.491012693392E-016));
#1330 = VECTOR('',#1331,1.);
#1331 = DIRECTION('',(1.,0.E+000,0.E+000));
#1332 = PLANE('',#1333);
#1333 = AXIS2_PLACEMENT_3D('',#1334,#1335,#1336);
#1334 = CARTESIAN_POINT('',(-1.4,-7.75,-9.491012693392E-016));
#1335 = DIRECTION('',(-0.E+000,1.,1.224646799147E-016));
#1336 = DIRECTION('',(1.,0.E+000,0.E+000));
#1337 = ADVANCED_FACE('',(#1338),#1363,.T.);
#1338 = FACE_BOUND('',#1339,.T.);
#1339 = EDGE_LOOP('',(#1340,#1341,#1349,#1357));
#1340 = ORIENTED_EDGE('',*,*,#1319,.T.);
#1341 = ORIENTED_EDGE('',*,*,#1342,.T.);
#1342 = EDGE_CURVE('',#1312,#1343,#1345,.T.);
#1343 = VERTEX_POINT('',#1344);
#1344 = CARTESIAN_POINT('',(-0.6,-9.25,4.));
#1345 = LINE('',#1346,#1347);
#1346 = CARTESIAN_POINT('',(-0.6,-7.75,4.));
#1347 = VECTOR('',#1348,1.);
#1348 = DIRECTION('',(0.E+000,-1.,-1.224646799147E-016));
#1349 = ORIENTED_EDGE('',*,*,#1350,.F.);
#1350 = EDGE_CURVE('',#1351,#1343,#1353,.T.);
#1351 = VERTEX_POINT('',#1352);
#1352 = CARTESIAN_POINT('',(-0.6,-9.25,-1.132798289211E-015));
#1353 = LINE('',#1354,#1355);
#1354 = CARTESIAN_POINT('',(-0.6,-9.25,-1.132798289211E-015));
#1355 = VECTOR('',#1356,1.);
#1356 = DIRECTION('',(0.E+000,-1.224646799147E-016,1.));
#1357 = ORIENTED_EDGE('',*,*,#1358,.F.);
#1358 = EDGE_CURVE('',#1320,#1351,#1359,.T.);
#1359 = LINE('',#1360,#1361);
#1360 = CARTESIAN_POINT('',(-0.6,-7.75,-9.491012693392E-016));
#1361 = VECTOR('',#1362,1.);
#1362 = DIRECTION('',(0.E+000,-1.,-1.224646799147E-016));
#1363 = PLANE('',#1364);
#1364 = AXIS2_PLACEMENT_3D('',#1365,#1366,#1367);
#1365 = CARTESIAN_POINT('',(-0.6,-7.75,-9.491012693392E-016));
#1366 = DIRECTION('',(1.,0.E+000,0.E+000));
#1367 = DIRECTION('',(0.E+000,-1.,-1.224646799147E-016));
#1368 = ADVANCED_FACE('',(#1369),#1394,.T.);
#1369 = FACE_BOUND('',#1370,.T.);
#1370 = EDGE_LOOP('',(#1371,#1372,#1380,#1388));
#1371 = ORIENTED_EDGE('',*,*,#1350,.T.);
#1372 = ORIENTED_EDGE('',*,*,#1373,.T.);
#1373 = EDGE_CURVE('',#1343,#1374,#1376,.T.);
#1374 = VERTEX_POINT('',#1375);
#1375 = CARTESIAN_POINT('',(-1.4,-9.25,4.));
#1376 = LINE('',#1377,#1378);
#1377 = CARTESIAN_POINT('',(-0.6,-9.25,4.));
#1378 = VECTOR('',#1379,1.);
#1379 = DIRECTION('',(-1.,0.E+000,0.E+000));
#1380 = ORIENTED_EDGE('',*,*,#1381,.F.);
#1381 = EDGE_CURVE('',#1382,#1374,#1384,.T.);
#1382 = VERTEX_POINT('',#1383);
#1383 = CARTESIAN_POINT('',(-1.4,-9.25,-1.132798289211E-015));
#1384 = LINE('',#1385,#1386);
#1385 = CARTESIAN_POINT('',(-1.4,-9.25,-1.132798289211E-015));
#1386 = VECTOR('',#1387,1.);
#1387 = DIRECTION('',(0.E+000,-1.224646799147E-016,1.));
#1388 = ORIENTED_EDGE('',*,*,#1389,.F.);
#1389 = EDGE_CURVE('',#1351,#1382,#1390,.T.);
#1390 = LINE('',#1391,#1392);
#1391 = CARTESIAN_POINT('',(-0.6,-9.25,-1.132798289211E-015));
#1392 = VECTOR('',#1393,1.);
#1393 = DIRECTION('',(-1.,0.E+000,0.E+000));
#1394 = PLANE('',#1395);
#1395 = AXIS2_PLACEMENT_3D('',#1396,#1397,#1398);
#1396 = CARTESIAN_POINT('',(-0.6,-9.25,-1.132798289211E-015));
#1397 = DIRECTION('',(-0.E+000,-1.,-1.224646799147E-016));
#1398 = DIRECTION('',(-1.,0.E+000,0.E+000));
#1399 = ADVANCED_FACE('',(#1400),#1416,.T.);
#1400 = FACE_BOUND('',#1401,.T.);
#1401 = EDGE_LOOP('',(#1402,#1403,#1409,#1410));
#1402 = ORIENTED_EDGE('',*,*,#1381,.T.);
#1403 = ORIENTED_EDGE('',*,*,#1404,.T.);
#1404 = EDGE_CURVE('',#1374,#1304,#1405,.T.);
#1405 = LINE('',#1406,#1407);
#1406 = CARTESIAN_POINT('',(-1.4,-9.25,4.));
#1407 = VECTOR('',#1408,1.);
#1408 = DIRECTION('',(0.E+000,1.,1.224646799147E-016));
#1409 = ORIENTED_EDGE('',*,*,#1301,.F.);
#1410 = ORIENTED_EDGE('',*,*,#1411,.F.);
#1411 = EDGE_CURVE('',#1382,#1302,#1412,.T.);
#1412 = LINE('',#1413,#1414);
#1413 = CARTESIAN_POINT('',(-1.4,-9.25,-1.132798289211E-015));
#1414 = VECTOR('',#1415,1.);
#1415 = DIRECTION('',(0.E+000,1.,1.224646799147E-016));
#1416 = PLANE('',#1417);
#1417 = AXIS2_PLACEMENT_3D('',#1418,#1419,#1420);
#1418 = CARTESIAN_POINT('',(-1.4,-9.25,-1.132798289211E-015));
#1419 = DIRECTION('',(-1.,0.E+000,0.E+000));
#1420 = DIRECTION('',(0.E+000,1.,1.224646799147E-016));
#1421 = ADVANCED_FACE('',(#1422),#1428,.F.);
#1422 = FACE_BOUND('',#1423,.T.);
#1423 = EDGE_LOOP('',(#1424,#1425,#1426,#1427));
#1424 = ORIENTED_EDGE('',*,*,#1327,.T.);
#1425 = ORIENTED_EDGE('',*,*,#1358,.T.);
#1426 = ORIENTED_EDGE('',*,*,#1389,.T.);
#1427 = ORIENTED_EDGE('',*,*,#1411,.T.);
#1428 = PLANE('',#1429);
#1429 = AXIS2_PLACEMENT_3D('',#1430,#1431,#1432);
#1430 = CARTESIAN_POINT('',(-1.4,-7.75,-9.491012693392E-016));
#1431 = DIRECTION('',(0.E+000,-1.224646799147E-016,1.));
#1432 = DIRECTION('',(-1.,-0.E+000,0.E+000));
#1433 = ADVANCED_FACE('',(#1434),#1440,.T.);
#1434 = FACE_BOUND('',#1435,.F.);
#1435 = EDGE_LOOP('',(#1436,#1437,#1438,#1439));
#1436 = ORIENTED_EDGE('',*,*,#1311,.T.);
#1437 = ORIENTED_EDGE('',*,*,#1342,.T.);
#1438 = ORIENTED_EDGE('',*,*,#1373,.T.);
#1439 = ORIENTED_EDGE('',*,*,#1404,.T.);
#1440 = PLANE('',#1441);
#1441 = AXIS2_PLACEMENT_3D('',#1442,#1443,#1444);
#1442 = CARTESIAN_POINT('',(-1.4,-7.75,4.));
#1443 = DIRECTION('',(0.E+000,-1.224646799147E-016,1.));
#1444 = DIRECTION('',(-1.,-0.E+000,0.E+000));
#1445 = ( GEOMETRIC_REPRESENTATION_CONTEXT(3) 
GLOBAL_UNCERTAINTY_ASSIGNED_CONTEXT((#1449)) 
GLOBAL_UNIT_ASSIGNED_CONTEXT((#1446,#1447,#1448)) REPRESENTATION_CONTEXT
('Context #1','3D Context with UNIT and UNCERTAINTY') );
#1446 = ( LENGTH_UNIT() NAMED_UNIT(*) SI_UNIT(.MILLI.,.METRE.) );
#1447 = ( NAMED_UNIT(*) PLANE_ANGLE_UNIT() SI_UNIT($,.RADIAN.) );
#1448 = ( NAMED_UNIT(*) SI_UNIT($,.STERADIAN.) SOLID_ANGLE_UNIT() );
#1449 = UNCERTAINTY_MEASURE_WITH_UNIT(LENGTH_MEASURE(1.E-007),#1446,
  'distance_accuracy_value','confusion accuracy');
#1450 = SHAPE_DEFINITION_REPRESENTATION(#1451,#694);
#1451 = PRODUCT_DEFINITION_SHAPE('','',#1452);
#1452 = PRODUCT_DEFINITION('design','',#1453,#1456);
#1453 = PRODUCT_DEFINITION_FORMATION('','',#1454);
#1454 = PRODUCT('Pad003','Pad003','',(#1455));
#1455 = MECHANICAL_CONTEXT('',#2,'mechanical');
#1456 = PRODUCT_DEFINITION_CONTEXT('part definition',#2,'design');
#1457 = CONTEXT_DEPENDENT_SHAPE_REPRESENTATION(#1458,#1460);
#1458 = ( REPRESENTATION_RELATIONSHIP('','',#694,#10) 
REPRESENTATION_RELATIONSHIP_WITH_TRANSFORMATION(#1459) 
SHAPE_REPRESENTATION_RELATIONSHIP() );
#1459 = ITEM_DEFINED_TRANSFORMATION('','',#11,#23);
#1460 = PRODUCT_DEFINITION_SHAPE('Placement','Placement of an item',
  #1461);
#1461 = NEXT_ASSEMBLY_USAGE_OCCURRENCE('3','=>[0:1:1:4]','',#5,#1452,$);
#1462 = PRODUCT_TYPE('part',$,(#1454));
#1463 = ADVANCED_BREP_SHAPE_REPRESENTATION('',(#11,#1464),#1614);
#1464 = MANIFOLD_SOLID_BREP('',#1465);
#1465 = CLOSED_SHELL('',(#1466,#1506,#1537,#1568,#1590,#1602));
#1466 = ADVANCED_FACE('',(#1467),#1501,.T.);
#1467 = FACE_BOUND('',#1468,.T.);
#1468 = EDGE_LOOP('',(#1469,#1479,#1487,#1495));
#1469 = ORIENTED_EDGE('',*,*,#1470,.T.);
#1470 = EDGE_CURVE('',#1471,#1473,#1475,.T.);
#1471 = VERTEX_POINT('',#1472);
#1472 = CARTESIAN_POINT('',(-12.,11.,0.E+000));
#1473 = VERTEX_POINT('',#1474);
#1474 = CARTESIAN_POINT('',(-12.,11.,5.));
#1475 = LINE('',#1476,#1477);
#1476 = CARTESIAN_POINT('',(-12.,11.,0.E+000));
#1477 = VECTOR('',#1478,1.);
#1478 = DIRECTION('',(0.E+000,0.E+000,1.));
#1479 = ORIENTED_EDGE('',*,*,#1480,.T.);
#1480 = EDGE_CURVE('',#1473,#1481,#1483,.T.);
#1481 = VERTEX_POINT('',#1482);
#1482 = CARTESIAN_POINT('',(0.E+000,11.,5.));
#1483 = LINE('',#1484,#1485);
#1484 = CARTESIAN_POINT('',(-12.,11.,5.));
#1485 = VECTOR('',#1486,1.);
#1486 = DIRECTION('',(1.,0.E+000,0.E+000));
#1487 = ORIENTED_EDGE('',*,*,#1488,.F.);
#1488 = EDGE_CURVE('',#1489,#1481,#1491,.T.);
#1489 = VERTEX_POINT('',#1490);
#1490 = CARTESIAN_POINT('',(0.E+000,11.,0.E+000));
#1491 = LINE('',#1492,#1493);
#1492 = CARTESIAN_POINT('',(0.E+000,11.,0.E+000));
#1493 = VECTOR('',#1494,1.);
#1494 = DIRECTION('',(0.E+000,0.E+000,1.));
#1495 = ORIENTED_EDGE('',*,*,#1496,.F.);
#1496 = EDGE_CURVE('',#1471,#1489,#1497,.T.);
#1497 = LINE('',#1498,#1499);
#1498 = CARTESIAN_POINT('',(-12.,11.,0.E+000));
#1499 = VECTOR('',#1500,1.);
#1500 = DIRECTION('',(1.,0.E+000,0.E+000));
#1501 = PLANE('',#1502);
#1502 = AXIS2_PLACEMENT_3D('',#1503,#1504,#1505);
#1503 = CARTESIAN_POINT('',(-12.,11.,0.E+000));
#1504 = DIRECTION('',(0.E+000,1.,0.E+000));
#1505 = DIRECTION('',(1.,0.E+000,0.E+000));
#1506 = ADVANCED_FACE('',(#1507),#1532,.T.);
#1507 = FACE_BOUND('',#1508,.T.);
#1508 = EDGE_LOOP('',(#1509,#1510,#1518,#1526));
#1509 = ORIENTED_EDGE('',*,*,#1488,.T.);
#1510 = ORIENTED_EDGE('',*,*,#1511,.T.);
#1511 = EDGE_CURVE('',#1481,#1512,#1514,.T.);
#1512 = VERTEX_POINT('',#1513);
#1513 = CARTESIAN_POINT('',(0.E+000,0.E+000,5.));
#1514 = LINE('',#1515,#1516);
#1515 = CARTESIAN_POINT('',(0.E+000,11.,5.));
#1516 = VECTOR('',#1517,1.);
#1517 = DIRECTION('',(0.E+000,-1.,0.E+000));
#1518 = ORIENTED_EDGE('',*,*,#1519,.F.);
#1519 = EDGE_CURVE('',#1520,#1512,#1522,.T.);
#1520 = VERTEX_POINT('',#1521);
#1521 = CARTESIAN_POINT('',(0.E+000,0.E+000,0.E+000));
#1522 = LINE('',#1523,#1524);
#1523 = CARTESIAN_POINT('',(0.E+000,0.E+000,0.E+000));
#1524 = VECTOR('',#1525,1.);
#1525 = DIRECTION('',(0.E+000,0.E+000,1.));
#1526 = ORIENTED_EDGE('',*,*,#1527,.F.);
#1527 = EDGE_CURVE('',#1489,#1520,#1528,.T.);
#1528 = LINE('',#1529,#1530);
#1529 = CARTESIAN_POINT('',(0.E+000,11.,0.E+000));
#1530 = VECTOR('',#1531,1.);
#1531 = DIRECTION('',(0.E+000,-1.,0.E+000));
#1532 = PLANE('',#1533);
#1533 = AXIS2_PLACEMENT_3D('',#1534,#1535,#1536);
#1534 = CARTESIAN_POINT('',(0.E+000,11.,0.E+000));
#1535 = DIRECTION('',(1.,0.E+000,-0.E+000));
#1536 = DIRECTION('',(0.E+000,-1.,0.E+000));
#1537 = ADVANCED_FACE('',(#1538),#1563,.T.);
#1538 = FACE_BOUND('',#1539,.T.);
#1539 = EDGE_LOOP('',(#1540,#1541,#1549,#1557));
#1540 = ORIENTED_EDGE('',*,*,#1519,.T.);
#1541 = ORIENTED_EDGE('',*,*,#1542,.T.);
#1542 = EDGE_CURVE('',#1512,#1543,#1545,.T.);
#1543 = VERTEX_POINT('',#1544);
#1544 = CARTESIAN_POINT('',(-12.,0.E+000,5.));
#1545 = LINE('',#1546,#1547);
#1546 = CARTESIAN_POINT('',(0.E+000,0.E+000,5.));
#1547 = VECTOR('',#1548,1.);
#1548 = DIRECTION('',(-1.,0.E+000,0.E+000));
#1549 = ORIENTED_EDGE('',*,*,#1550,.F.);
#1550 = EDGE_CURVE('',#1551,#1543,#1553,.T.);
#1551 = VERTEX_POINT('',#1552);
#1552 = CARTESIAN_POINT('',(-12.,0.E+000,0.E+000));
#1553 = LINE('',#1554,#1555);
#1554 = CARTESIAN_POINT('',(-12.,0.E+000,0.E+000));
#1555 = VECTOR('',#1556,1.);
#1556 = DIRECTION('',(0.E+000,0.E+000,1.));
#1557 = ORIENTED_EDGE('',*,*,#1558,.F.);
#1558 = EDGE_CURVE('',#1520,#1551,#1559,.T.);
#1559 = LINE('',#1560,#1561);
#1560 = CARTESIAN_POINT('',(0.E+000,0.E+000,0.E+000));
#1561 = VECTOR('',#1562,1.);
#1562 = DIRECTION('',(-1.,0.E+000,0.E+000));
#1563 = PLANE('',#1564);
#1564 = AXIS2_PLACEMENT_3D('',#1565,#1566,#1567);
#1565 = CARTESIAN_POINT('',(0.E+000,0.E+000,0.E+000));
#1566 = DIRECTION('',(0.E+000,-1.,0.E+000));
#1567 = DIRECTION('',(-1.,0.E+000,0.E+000));
#1568 = ADVANCED_FACE('',(#1569),#1585,.T.);
#1569 = FACE_BOUND('',#1570,.T.);
#1570 = EDGE_LOOP('',(#1571,#1572,#1578,#1579));
#1571 = ORIENTED_EDGE('',*,*,#1550,.T.);
#1572 = ORIENTED_EDGE('',*,*,#1573,.T.);
#1573 = EDGE_CURVE('',#1543,#1473,#1574,.T.);
#1574 = LINE('',#1575,#1576);
#1575 = CARTESIAN_POINT('',(-12.,0.E+000,5.));
#1576 = VECTOR('',#1577,1.);
#1577 = DIRECTION('',(0.E+000,1.,0.E+000));
#1578 = ORIENTED_EDGE('',*,*,#1470,.F.);
#1579 = ORIENTED_EDGE('',*,*,#1580,.F.);
#1580 = EDGE_CURVE('',#1551,#1471,#1581,.T.);
#1581 = LINE('',#1582,#1583);
#1582 = CARTESIAN_POINT('',(-12.,0.E+000,0.E+000));
#1583 = VECTOR('',#1584,1.);
#1584 = DIRECTION('',(0.E+000,1.,0.E+000));
#1585 = PLANE('',#1586);
#1586 = AXIS2_PLACEMENT_3D('',#1587,#1588,#1589);
#1587 = CARTESIAN_POINT('',(-12.,0.E+000,0.E+000));
#1588 = DIRECTION('',(-1.,0.E+000,0.E+000));
#1589 = DIRECTION('',(0.E+000,1.,0.E+000));
#1590 = ADVANCED_FACE('',(#1591),#1597,.F.);
#1591 = FACE_BOUND('',#1592,.T.);
#1592 = EDGE_LOOP('',(#1593,#1594,#1595,#1596));
#1593 = ORIENTED_EDGE('',*,*,#1496,.T.);
#1594 = ORIENTED_EDGE('',*,*,#1527,.T.);
#1595 = ORIENTED_EDGE('',*,*,#1558,.T.);
#1596 = ORIENTED_EDGE('',*,*,#1580,.T.);
#1597 = PLANE('',#1598);
#1598 = AXIS2_PLACEMENT_3D('',#1599,#1600,#1601);
#1599 = CARTESIAN_POINT('',(-12.,11.,0.E+000));
#1600 = DIRECTION('',(0.E+000,0.E+000,1.));
#1601 = DIRECTION('',(1.,0.E+000,0.E+000));
#1602 = ADVANCED_FACE('',(#1603),#1609,.T.);
#1603 = FACE_BOUND('',#1604,.F.);
#1604 = EDGE_LOOP('',(#1605,#1606,#1607,#1608));
#1605 = ORIENTED_EDGE('',*,*,#1480,.T.);
#1606 = ORIENTED_EDGE('',*,*,#1511,.T.);
#1607 = ORIENTED_EDGE('',*,*,#1542,.T.);
#1608 = ORIENTED_EDGE('',*,*,#1573,.T.);
#1609 = PLANE('',#1610);
#1610 = AXIS2_PLACEMENT_3D('',#1611,#1612,#1613);
#1611 = CARTESIAN_POINT('',(-12.,11.,5.));
#1612 = DIRECTION('',(0.E+000,0.E+000,1.));
#1613 = DIRECTION('',(1.,0.E+000,0.E+000));
#1614 = ( GEOMETRIC_REPRESENTATION_CONTEXT(3) 
GLOBAL_UNCERTAINTY_ASSIGNED_CONTEXT((#1618)) 
GLOBAL_UNIT_ASSIGNED_CONTEXT((#1615,#1616,#1617)) REPRESENTATION_CONTEXT
('Context #1','3D Context with UNIT and UNCERTAINTY') );
#1615 = ( LENGTH_UNIT() NAMED_UNIT(*) SI_UNIT(.MILLI.,.METRE.) );
#1616 = ( NAMED_UNIT(*) PLANE_ANGLE_UNIT() SI_UNIT($,.RADIAN.) );
#1617 = ( NAMED_UNIT(*) SI_UNIT($,.STERADIAN.) SOLID_ANGLE_UNIT() );
#1618 = UNCERTAINTY_MEASURE_WITH_UNIT(LENGTH_MEASURE(1.E-007),#1615,
  'distance_accuracy_value','confusion accuracy');
#1619 = SHAPE_DEFINITION_REPRESENTATION(#1620,#1463);
#1620 = PRODUCT_DEFINITION_SHAPE('','',#1621);
#1621 = PRODUCT_DEFINITION('design','',#1622,#1625);
#1622 = PRODUCT_DEFINITION_FORMATION('','',#1623);
#1623 = PRODUCT('Pad','Pad','',(#1624));
#1624 = MECHANICAL_CONTEXT('',#2,'mechanical');
#1625 = PRODUCT_DEFINITION_CONTEXT('part definition',#2,'design');
#1626 = CONTEXT_DEPENDENT_SHAPE_REPRESENTATION(#1627,#1629);
#1627 = ( REPRESENTATION_RELATIONSHIP('','',#1463,#10) 
REPRESENTATION_RELATIONSHIP_WITH_TRANSFORMATION(#1628) 
SHAPE_REPRESENTATION_RELATIONSHIP() );
#1628 = ITEM_DEFINED_TRANSFORMATION('','',#11,#27);
#1629 = PRODUCT_DEFINITION_SHAPE('Placement','Placement of an item',
  #1630);
#1630 = NEXT_ASSEMBLY_USAGE_OCCURRENCE('4','=>[0:1:1:5]','',#5,#1621,$);
#1631 = PRODUCT_TYPE('part',$,(#1623));
#1632 = SHAPE_REPRESENTATION('',(#11,#1633,#1686,#1739,#1792,#1845),
  #1898);
#1633 = MANIFOLD_SOLID_BREP('',#1634);
#1634 = CLOSED_SHELL('',(#1635,#1668,#1677));
#1635 = ADVANCED_FACE('',(#1636),#1663,.T.);
#1636 = FACE_BOUND('',#1637,.F.);
#1637 = EDGE_LOOP('',(#1638,#1648,#1655,#1656));
#1638 = ORIENTED_EDGE('',*,*,#1639,.T.);
#1639 = EDGE_CURVE('',#1640,#1642,#1644,.T.);
#1640 = VERTEX_POINT('',#1641);
#1641 = CARTESIAN_POINT('',(-5.5,-8.5,-1.040949779275E-015));
#1642 = VERTEX_POINT('',#1643);
#1643 = CARTESIAN_POINT('',(-5.5,-8.5,1.));
#1644 = LINE('',#1645,#1646);
#1645 = CARTESIAN_POINT('',(-5.5,-8.5,-1.040949779275E-015));
#1646 = VECTOR('',#1647,1.);
#1647 = DIRECTION('',(0.E+000,-1.224646799147E-016,1.));
#1648 = ORIENTED_EDGE('',*,*,#1649,.T.);
#1649 = EDGE_CURVE('',#1642,#1642,#1650,.T.);
#1650 = CIRCLE('',#1651,0.5);
#1651 = AXIS2_PLACEMENT_3D('',#1652,#1653,#1654);
#1652 = CARTESIAN_POINT('',(-6.,-8.5,1.));
#1653 = DIRECTION('',(0.E+000,-1.224646799147E-016,1.));
#1654 = DIRECTION('',(1.,0.E+000,0.E+000));
#1655 = ORIENTED_EDGE('',*,*,#1639,.F.);
#1656 = ORIENTED_EDGE('',*,*,#1657,.F.);
#1657 = EDGE_CURVE('',#1640,#1640,#1658,.T.);
#1658 = CIRCLE('',#1659,0.5);
#1659 = AXIS2_PLACEMENT_3D('',#1660,#1661,#1662);
#1660 = CARTESIAN_POINT('',(-6.,-8.5,-1.040949779275E-015));
#1661 = DIRECTION('',(0.E+000,-1.224646799147E-016,1.));
#1662 = DIRECTION('',(1.,0.E+000,0.E+000));
#1663 = CYLINDRICAL_SURFACE('',#1664,0.5);
#1664 = AXIS2_PLACEMENT_3D('',#1665,#1666,#1667);
#1665 = CARTESIAN_POINT('',(-6.,-8.5,-1.040949779275E-015));
#1666 = DIRECTION('',(-0.E+000,1.224646799147E-016,-1.));
#1667 = DIRECTION('',(1.,0.E+000,0.E+000));
#1668 = ADVANCED_FACE('',(#1669),#1672,.T.);
#1669 = FACE_BOUND('',#1670,.F.);
#1670 = EDGE_LOOP('',(#1671));
#1671 = ORIENTED_EDGE('',*,*,#1657,.T.);
#1672 = PLANE('',#1673);
#1673 = AXIS2_PLACEMENT_3D('',#1674,#1675,#1676);
#1674 = CARTESIAN_POINT('',(-5.5,-8.5,-1.040949779275E-015));
#1675 = DIRECTION('',(0.E+000,1.224646799147E-016,-1.));
#1676 = DIRECTION('',(1.,0.E+000,0.E+000));
#1677 = ADVANCED_FACE('',(#1678),#1681,.F.);
#1678 = FACE_BOUND('',#1679,.T.);
#1679 = EDGE_LOOP('',(#1680));
#1680 = ORIENTED_EDGE('',*,*,#1649,.T.);
#1681 = PLANE('',#1682);
#1682 = AXIS2_PLACEMENT_3D('',#1683,#1684,#1685);
#1683 = CARTESIAN_POINT('',(-5.5,-8.5,1.));
#1684 = DIRECTION('',(0.E+000,1.224646799147E-016,-1.));
#1685 = DIRECTION('',(1.,0.E+000,0.E+000));
#1686 = MANIFOLD_SOLID_BREP('',#1687);
#1687 = CLOSED_SHELL('',(#1688,#1721,#1730));
#1688 = ADVANCED_FACE('',(#1689),#1716,.T.);
#1689 = FACE_BOUND('',#1690,.F.);
#1690 = EDGE_LOOP('',(#1691,#1701,#1708,#1709));
#1691 = ORIENTED_EDGE('',*,*,#1692,.T.);
#1692 = EDGE_CURVE('',#1693,#1695,#1697,.T.);
#1693 = VERTEX_POINT('',#1694);
#1694 = CARTESIAN_POINT('',(-0.5,-3.5,-4.286263797016E-016));
#1695 = VERTEX_POINT('',#1696);
#1696 = CARTESIAN_POINT('',(-0.5,-3.5,1.));
#1697 = LINE('',#1698,#1699);
#1698 = CARTESIAN_POINT('',(-0.5,-3.5,-4.286263797016E-016));
#1699 = VECTOR('',#1700,1.);
#1700 = DIRECTION('',(0.E+000,-1.224646799147E-016,1.));
#1701 = ORIENTED_EDGE('',*,*,#1702,.T.);
#1702 = EDGE_CURVE('',#1695,#1695,#1703,.T.);
#1703 = CIRCLE('',#1704,0.5);
#1704 = AXIS2_PLACEMENT_3D('',#1705,#1706,#1707);
#1705 = CARTESIAN_POINT('',(-1.,-3.5,1.));
#1706 = DIRECTION('',(0.E+000,-1.224646799147E-016,1.));
#1707 = DIRECTION('',(1.,0.E+000,0.E+000));
#1708 = ORIENTED_EDGE('',*,*,#1692,.F.);
#1709 = ORIENTED_EDGE('',*,*,#1710,.F.);
#1710 = EDGE_CURVE('',#1693,#1693,#1711,.T.);
#1711 = CIRCLE('',#1712,0.5);
#1712 = AXIS2_PLACEMENT_3D('',#1713,#1714,#1715);
#1713 = CARTESIAN_POINT('',(-1.,-3.5,-4.286263797016E-016));
#1714 = DIRECTION('',(0.E+000,-1.224646799147E-016,1.));
#1715 = DIRECTION('',(1.,0.E+000,0.E+000));
#1716 = CYLINDRICAL_SURFACE('',#1717,0.5);
#1717 = AXIS2_PLACEMENT_3D('',#1718,#1719,#1720);
#1718 = CARTESIAN_POINT('',(-1.,-3.5,-4.286263797016E-016));
#1719 = DIRECTION('',(-0.E+000,1.224646799147E-016,-1.));
#1720 = DIRECTION('',(1.,0.E+000,0.E+000));
#1721 = ADVANCED_FACE('',(#1722),#1725,.T.);
#1722 = FACE_BOUND('',#1723,.F.);
#1723 = EDGE_LOOP('',(#1724));
#1724 = ORIENTED_EDGE('',*,*,#1710,.T.);
#1725 = PLANE('',#1726);
#1726 = AXIS2_PLACEMENT_3D('',#1727,#1728,#1729);
#1727 = CARTESIAN_POINT('',(-0.5,-3.5,-4.286263797016E-016));
#1728 = DIRECTION('',(0.E+000,1.224646799147E-016,-1.));
#1729 = DIRECTION('',(1.,0.E+000,0.E+000));
#1730 = ADVANCED_FACE('',(#1731),#1734,.F.);
#1731 = FACE_BOUND('',#1732,.T.);
#1732 = EDGE_LOOP('',(#1733));
#1733 = ORIENTED_EDGE('',*,*,#1702,.T.);
#1734 = PLANE('',#1735);
#1735 = AXIS2_PLACEMENT_3D('',#1736,#1737,#1738);
#1736 = CARTESIAN_POINT('',(-0.5,-3.5,1.));
#1737 = DIRECTION('',(0.E+000,1.224646799147E-016,-1.));
#1738 = DIRECTION('',(1.,0.E+000,0.E+000));
#1739 = MANIFOLD_SOLID_BREP('',#1740);
#1740 = CLOSED_SHELL('',(#1741,#1774,#1783));
#1741 = ADVANCED_FACE('',(#1742),#1769,.T.);
#1742 = FACE_BOUND('',#1743,.F.);
#1743 = EDGE_LOOP('',(#1744,#1754,#1761,#1762));
#1744 = ORIENTED_EDGE('',*,*,#1745,.T.);
#1745 = EDGE_CURVE('',#1746,#1748,#1750,.T.);
#1746 = VERTEX_POINT('',#1747);
#1747 = CARTESIAN_POINT('',(-0.5,-1.,-1.224646799147E-016));
#1748 = VERTEX_POINT('',#1749);
#1749 = CARTESIAN_POINT('',(-0.5,-1.,1.));
#1750 = LINE('',#1751,#1752);
#1751 = CARTESIAN_POINT('',(-0.5,-1.,-1.224646799147E-016));
#1752 = VECTOR('',#1753,1.);
#1753 = DIRECTION('',(0.E+000,-1.224646799147E-016,1.));
#1754 = ORIENTED_EDGE('',*,*,#1755,.T.);
#1755 = EDGE_CURVE('',#1748,#1748,#1756,.T.);
#1756 = CIRCLE('',#1757,0.5);
#1757 = AXIS2_PLACEMENT_3D('',#1758,#1759,#1760);
#1758 = CARTESIAN_POINT('',(-1.,-1.,1.));
#1759 = DIRECTION('',(0.E+000,-1.224646799147E-016,1.));
#1760 = DIRECTION('',(1.,0.E+000,0.E+000));
#1761 = ORIENTED_EDGE('',*,*,#1745,.F.);
#1762 = ORIENTED_EDGE('',*,*,#1763,.F.);
#1763 = EDGE_CURVE('',#1746,#1746,#1764,.T.);
#1764 = CIRCLE('',#1765,0.5);
#1765 = AXIS2_PLACEMENT_3D('',#1766,#1767,#1768);
#1766 = CARTESIAN_POINT('',(-1.,-1.,-1.224646799147E-016));
#1767 = DIRECTION('',(0.E+000,-1.224646799147E-016,1.));
#1768 = DIRECTION('',(1.,0.E+000,0.E+000));
#1769 = CYLINDRICAL_SURFACE('',#1770,0.5);
#1770 = AXIS2_PLACEMENT_3D('',#1771,#1772,#1773);
#1771 = CARTESIAN_POINT('',(-1.,-1.,-1.224646799147E-016));
#1772 = DIRECTION('',(-0.E+000,1.224646799147E-016,-1.));
#1773 = DIRECTION('',(1.,0.E+000,0.E+000));
#1774 = ADVANCED_FACE('',(#1775),#1778,.T.);
#1775 = FACE_BOUND('',#1776,.F.);
#1776 = EDGE_LOOP('',(#1777));
#1777 = ORIENTED_EDGE('',*,*,#1763,.T.);
#1778 = PLANE('',#1779);
#1779 = AXIS2_PLACEMENT_3D('',#1780,#1781,#1782);
#1780 = CARTESIAN_POINT('',(-0.5,-1.,-1.224646799147E-016));
#1781 = DIRECTION('',(0.E+000,1.224646799147E-016,-1.));
#1782 = DIRECTION('',(1.,0.E+000,0.E+000));
#1783 = ADVANCED_FACE('',(#1784),#1787,.F.);
#1784 = FACE_BOUND('',#1785,.T.);
#1785 = EDGE_LOOP('',(#1786));
#1786 = ORIENTED_EDGE('',*,*,#1755,.T.);
#1787 = PLANE('',#1788);
#1788 = AXIS2_PLACEMENT_3D('',#1789,#1790,#1791);
#1789 = CARTESIAN_POINT('',(-0.5,-1.,1.));
#1790 = DIRECTION('',(0.E+000,1.224646799147E-016,-1.));
#1791 = DIRECTION('',(1.,0.E+000,0.E+000));
#1792 = MANIFOLD_SOLID_BREP('',#1793);
#1793 = CLOSED_SHELL('',(#1794,#1827,#1836));
#1794 = ADVANCED_FACE('',(#1795),#1822,.T.);
#1795 = FACE_BOUND('',#1796,.F.);
#1796 = EDGE_LOOP('',(#1797,#1807,#1814,#1815));
#1797 = ORIENTED_EDGE('',*,*,#1798,.T.);
#1798 = EDGE_CURVE('',#1799,#1801,#1803,.T.);
#1799 = VERTEX_POINT('',#1800);
#1800 = CARTESIAN_POINT('',(-10.5,-3.5,-4.286263797016E-016));
#1801 = VERTEX_POINT('',#1802);
#1802 = CARTESIAN_POINT('',(-10.5,-3.5,1.));
#1803 = LINE('',#1804,#1805);
#1804 = CARTESIAN_POINT('',(-10.5,-3.5,-4.286263797016E-016));
#1805 = VECTOR('',#1806,1.);
#1806 = DIRECTION('',(0.E+000,-1.224646799147E-016,1.));
#1807 = ORIENTED_EDGE('',*,*,#1808,.T.);
#1808 = EDGE_CURVE('',#1801,#1801,#1809,.T.);
#1809 = CIRCLE('',#1810,0.5);
#1810 = AXIS2_PLACEMENT_3D('',#1811,#1812,#1813);
#1811 = CARTESIAN_POINT('',(-11.,-3.5,1.));
#1812 = DIRECTION('',(0.E+000,-1.224646799147E-016,1.));
#1813 = DIRECTION('',(1.,0.E+000,0.E+000));
#1814 = ORIENTED_EDGE('',*,*,#1798,.F.);
#1815 = ORIENTED_EDGE('',*,*,#1816,.F.);
#1816 = EDGE_CURVE('',#1799,#1799,#1817,.T.);
#1817 = CIRCLE('',#1818,0.5);
#1818 = AXIS2_PLACEMENT_3D('',#1819,#1820,#1821);
#1819 = CARTESIAN_POINT('',(-11.,-3.5,-4.286263797016E-016));
#1820 = DIRECTION('',(0.E+000,-1.224646799147E-016,1.));
#1821 = DIRECTION('',(1.,0.E+000,0.E+000));
#1822 = CYLINDRICAL_SURFACE('',#1823,0.5);
#1823 = AXIS2_PLACEMENT_3D('',#1824,#1825,#1826);
#1824 = CARTESIAN_POINT('',(-11.,-3.5,-4.286263797016E-016));
#1825 = DIRECTION('',(-0.E+000,1.224646799147E-016,-1.));
#1826 = DIRECTION('',(1.,0.E+000,0.E+000));
#1827 = ADVANCED_FACE('',(#1828),#1831,.T.);
#1828 = FACE_BOUND('',#1829,.F.);
#1829 = EDGE_LOOP('',(#1830));
#1830 = ORIENTED_EDGE('',*,*,#1816,.T.);
#1831 = PLANE('',#1832);
#1832 = AXIS2_PLACEMENT_3D('',#1833,#1834,#1835);
#1833 = CARTESIAN_POINT('',(-10.5,-3.5,-4.286263797016E-016));
#1834 = DIRECTION('',(0.E+000,1.224646799147E-016,-1.));
#1835 = DIRECTION('',(1.,0.E+000,0.E+000));
#1836 = ADVANCED_FACE('',(#1837),#1840,.F.);
#1837 = FACE_BOUND('',#1838,.T.);
#1838 = EDGE_LOOP('',(#1839));
#1839 = ORIENTED_EDGE('',*,*,#1808,.T.);
#1840 = PLANE('',#1841);
#1841 = AXIS2_PLACEMENT_3D('',#1842,#1843,#1844);
#1842 = CARTESIAN_POINT('',(-10.5,-3.5,1.));
#1843 = DIRECTION('',(0.E+000,1.224646799147E-016,-1.));
#1844 = DIRECTION('',(1.,0.E+000,0.E+000));
#1845 = MANIFOLD_SOLID_BREP('',#1846);
#1846 = CLOSED_SHELL('',(#1847,#1880,#1889));
#1847 = ADVANCED_FACE('',(#1848),#1875,.T.);
#1848 = FACE_BOUND('',#1849,.F.);
#1849 = EDGE_LOOP('',(#1850,#1860,#1867,#1868));
#1850 = ORIENTED_EDGE('',*,*,#1851,.T.);
#1851 = EDGE_CURVE('',#1852,#1854,#1856,.T.);
#1852 = VERTEX_POINT('',#1853);
#1853 = CARTESIAN_POINT('',(-10.5,-1.,-1.224646799147E-016));
#1854 = VERTEX_POINT('',#1855);
#1855 = CARTESIAN_POINT('',(-10.5,-1.,1.));
#1856 = LINE('',#1857,#1858);
#1857 = CARTESIAN_POINT('',(-10.5,-1.,-1.224646799147E-016));
#1858 = VECTOR('',#1859,1.);
#1859 = DIRECTION('',(0.E+000,-1.224646799147E-016,1.));
#1860 = ORIENTED_EDGE('',*,*,#1861,.T.);
#1861 = EDGE_CURVE('',#1854,#1854,#1862,.T.);
#1862 = CIRCLE('',#1863,0.5);
#1863 = AXIS2_PLACEMENT_3D('',#1864,#1865,#1866);
#1864 = CARTESIAN_POINT('',(-11.,-1.,1.));
#1865 = DIRECTION('',(0.E+000,-1.224646799147E-016,1.));
#1866 = DIRECTION('',(1.,0.E+000,0.E+000));
#1867 = ORIENTED_EDGE('',*,*,#1851,.F.);
#1868 = ORIENTED_EDGE('',*,*,#1869,.F.);
#1869 = EDGE_CURVE('',#1852,#1852,#1870,.T.);
#1870 = CIRCLE('',#1871,0.5);
#1871 = AXIS2_PLACEMENT_3D('',#1872,#1873,#1874);
#1872 = CARTESIAN_POINT('',(-11.,-1.,-1.224646799147E-016));
#1873 = DIRECTION('',(0.E+000,-1.224646799147E-016,1.));
#1874 = DIRECTION('',(1.,0.E+000,0.E+000));
#1875 = CYLINDRICAL_SURFACE('',#1876,0.5);
#1876 = AXIS2_PLACEMENT_3D('',#1877,#1878,#1879);
#1877 = CARTESIAN_POINT('',(-11.,-1.,-1.224646799147E-016));
#1878 = DIRECTION('',(-0.E+000,1.224646799147E-016,-1.));
#1879 = DIRECTION('',(1.,0.E+000,0.E+000));
#1880 = ADVANCED_FACE('',(#1881),#1884,.T.);
#1881 = FACE_BOUND('',#1882,.F.);
#1882 = EDGE_LOOP('',(#1883));
#1883 = ORIENTED_EDGE('',*,*,#1869,.T.);
#1884 = PLANE('',#1885);
#1885 = AXIS2_PLACEMENT_3D('',#1886,#1887,#1888);
#1886 = CARTESIAN_POINT('',(-10.5,-1.,-1.224646799147E-016));
#1887 = DIRECTION('',(0.E+000,1.224646799147E-016,-1.));
#1888 = DIRECTION('',(1.,0.E+000,0.E+000));
#1889 = ADVANCED_FACE('',(#1890),#1893,.F.);
#1890 = FACE_BOUND('',#1891,.T.);
#1891 = EDGE_LOOP('',(#1892));
#1892 = ORIENTED_EDGE('',*,*,#1861,.T.);
#1893 = PLANE('',#1894);
#1894 = AXIS2_PLACEMENT_3D('',#1895,#1896,#1897);
#1895 = CARTESIAN_POINT('',(-10.5,-1.,1.));
#1896 = DIRECTION('',(0.E+000,1.224646799147E-016,-1.));
#1897 = DIRECTION('',(1.,0.E+000,0.E+000));
#1898 = ( GEOMETRIC_REPRESENTATION_CONTEXT(3) 
GLOBAL_UNCERTAINTY_ASSIGNED_CONTEXT((#1902)) 
GLOBAL_UNIT_ASSIGNED_CONTEXT((#1899,#1900,#1901)) REPRESENTATION_CONTEXT
('Context #1','3D Context with UNIT and UNCERTAINTY') );
#1899 = ( LENGTH_UNIT() NAMED_UNIT(*) SI_UNIT(.MILLI.,.METRE.) );
#1900 = ( NAMED_UNIT(*) PLANE_ANGLE_UNIT() SI_UNIT($,.RADIAN.) );
#1901 = ( NAMED_UNIT(*) SI_UNIT($,.STERADIAN.) SOLID_ANGLE_UNIT() );
#1902 = UNCERTAINTY_MEASURE_WITH_UNIT(LENGTH_MEASURE(1.E-007),#1899,
  'distance_accuracy_value','confusion accuracy');
#1903 = SHAPE_DEFINITION_REPRESENTATION(#1904,#1632);
#1904 = PRODUCT_DEFINITION_SHAPE('','',#1905);
#1905 = PRODUCT_DEFINITION('design','',#1906,#1909);
#1906 = PRODUCT_DEFINITION_FORMATION('','',#1907);
#1907 = PRODUCT('Pad002','Pad002','',(#1908));
#1908 = MECHANICAL_CONTEXT('',#2,'mechanical');
#1909 = PRODUCT_DEFINITION_CONTEXT('part definition',#2,'design');
#1910 = CONTEXT_DEPENDENT_SHAPE_REPRESENTATION(#1911,#1913);
#1911 = ( REPRESENTATION_RELATIONSHIP('','',#1632,#10) 
REPRESENTATION_RELATIONSHIP_WITH_TRANSFORMATION(#1912) 
SHAPE_REPRESENTATION_RELATIONSHIP() );
#1912 = ITEM_DEFINED_TRANSFORMATION('','',#11,#31);
#1913 = PRODUCT_DEFINITION_SHAPE('Placement','Placement of an item',
  #1914);
#1914 = NEXT_ASSEMBLY_USAGE_OCCURRENCE('5','=>[0:1:1:6]','',#5,#1905,$);
#1915 = PRODUCT_TYPE('part',$,(#1907));
#1916 = MECHANICAL_DESIGN_GEOMETRIC_PRESENTATION_REPRESENTATION('',(
    #1917),#327);
#1917 = STYLED_ITEM('color',(#1918),#42);
#1918 = PRESENTATION_STYLE_ASSIGNMENT((#1919,#1925));
#1919 = SURFACE_STYLE_USAGE(.BOTH.,#1920);
#1920 = SURFACE_SIDE_STYLE('',(#1921));
#1921 = SURFACE_STYLE_FILL_AREA(#1922);
#1922 = FILL_AREA_STYLE('',(#1923));
#1923 = FILL_AREA_STYLE_COLOUR('',#1924);
#1924 = COLOUR_RGB('',0.890196084976,0.890196084976,0.890196084976);
#1925 = CURVE_STYLE('',#1926,POSITIVE_LENGTH_MEASURE(0.1),#1924);
#1926 = DRAUGHTING_PRE_DEFINED_CURVE_FONT('continuous');
#1927 = MECHANICAL_DESIGN_GEOMETRIC_PRESENTATION_REPRESENTATION('',(
    #1928,#1936,#1943,#1950,#1957,#1964,#1971,#1978,#1985,#1992,#1999,
    #2006,#2013),#676);
#1928 = STYLED_ITEM('color',(#1929),#348);
#1929 = PRESENTATION_STYLE_ASSIGNMENT((#1930));
#1930 = SURFACE_STYLE_USAGE(.BOTH.,#1931);
#1931 = SURFACE_SIDE_STYLE('',(#1932));
#1932 = SURFACE_STYLE_FILL_AREA(#1933);
#1933 = FILL_AREA_STYLE('',(#1934));
#1934 = FILL_AREA_STYLE_COLOUR('',#1935);
#1935 = COLOUR_RGB('',7.843137532473E-002,7.843137532473E-002,
  7.843137532473E-002);
#1936 = STYLED_ITEM('color',(#1937),#388);
#1937 = PRESENTATION_STYLE_ASSIGNMENT((#1938));
#1938 = SURFACE_STYLE_USAGE(.BOTH.,#1939);
#1939 = SURFACE_SIDE_STYLE('',(#1940));
#1940 = SURFACE_STYLE_FILL_AREA(#1941);
#1941 = FILL_AREA_STYLE('',(#1942));
#1942 = FILL_AREA_STYLE_COLOUR('',#1935);
#1943 = STYLED_ITEM('color',(#1944),#419);
#1944 = PRESENTATION_STYLE_ASSIGNMENT((#1945));
#1945 = SURFACE_STYLE_USAGE(.BOTH.,#1946);
#1946 = SURFACE_SIDE_STYLE('',(#1947));
#1947 = SURFACE_STYLE_FILL_AREA(#1948);
#1948 = FILL_AREA_STYLE('',(#1949));
#1949 = FILL_AREA_STYLE_COLOUR('',#1935);
#1950 = STYLED_ITEM('color',(#1951),#450);
#1951 = PRESENTATION_STYLE_ASSIGNMENT((#1952));
#1952 = SURFACE_STYLE_USAGE(.BOTH.,#1953);
#1953 = SURFACE_SIDE_STYLE('',(#1954));
#1954 = SURFACE_STYLE_FILL_AREA(#1955);
#1955 = FILL_AREA_STYLE('',(#1956));
#1956 = FILL_AREA_STYLE_COLOUR('',#1935);
#1957 = STYLED_ITEM('color',(#1958),#483);
#1958 = PRESENTATION_STYLE_ASSIGNMENT((#1959));
#1959 = SURFACE_STYLE_USAGE(.BOTH.,#1960);
#1960 = SURFACE_SIDE_STYLE('',(#1961));
#1961 = SURFACE_STYLE_FILL_AREA(#1962);
#1962 = FILL_AREA_STYLE('',(#1963));
#1963 = FILL_AREA_STYLE_COLOUR('',#1935);
#1964 = STYLED_ITEM('color',(#1965),#516);
#1965 = PRESENTATION_STYLE_ASSIGNMENT((#1966));
#1966 = SURFACE_STYLE_USAGE(.BOTH.,#1967);
#1967 = SURFACE_SIDE_STYLE('',(#1968));
#1968 = SURFACE_STYLE_FILL_AREA(#1969);
#1969 = FILL_AREA_STYLE('',(#1970));
#1970 = FILL_AREA_STYLE_COLOUR('',#1935);
#1971 = STYLED_ITEM('color',(#1972),#534);
#1972 = PRESENTATION_STYLE_ASSIGNMENT((#1973));
#1973 = SURFACE_STYLE_USAGE(.BOTH.,#1974);
#1974 = SURFACE_SIDE_STYLE('',(#1975));
#1975 = SURFACE_STYLE_FILL_AREA(#1976);
#1976 = FILL_AREA_STYLE('',(#1977));
#1977 = FILL_AREA_STYLE_COLOUR('',#1935);
#1978 = STYLED_ITEM('color',(#1979),#561);
#1979 = PRESENTATION_STYLE_ASSIGNMENT((#1980));
#1980 = SURFACE_STYLE_USAGE(.BOTH.,#1981);
#1981 = SURFACE_SIDE_STYLE('',(#1982));
#1982 = SURFACE_STYLE_FILL_AREA(#1983);
#1983 = FILL_AREA_STYLE('',(#1984));
#1984 = FILL_AREA_STYLE_COLOUR('',#1924);
#1985 = STYLED_ITEM('color',(#1986),#577);
#1986 = PRESENTATION_STYLE_ASSIGNMENT((#1987));
#1987 = SURFACE_STYLE_USAGE(.BOTH.,#1988);
#1988 = SURFACE_SIDE_STYLE('',(#1989));
#1989 = SURFACE_STYLE_FILL_AREA(#1990);
#1990 = FILL_AREA_STYLE('',(#1991));
#1991 = FILL_AREA_STYLE_COLOUR('',#1924);
#1992 = STYLED_ITEM('color',(#1993),#593);
#1993 = PRESENTATION_STYLE_ASSIGNMENT((#1994));
#1994 = SURFACE_STYLE_USAGE(.BOTH.,#1995);
#1995 = SURFACE_SIDE_STYLE('',(#1996));
#1996 = SURFACE_STYLE_FILL_AREA(#1997);
#1997 = FILL_AREA_STYLE('',(#1998));
#1998 = FILL_AREA_STYLE_COLOUR('',#1924);
#1999 = STYLED_ITEM('color',(#2000),#622);
#2000 = PRESENTATION_STYLE_ASSIGNMENT((#2001));
#2001 = SURFACE_STYLE_USAGE(.BOTH.,#2002);
#2002 = SURFACE_SIDE_STYLE('',(#2003));
#2003 = SURFACE_STYLE_FILL_AREA(#2004);
#2004 = FILL_AREA_STYLE('',(#2005));
#2005 = FILL_AREA_STYLE_COLOUR('',#1924);
#2006 = STYLED_ITEM('color',(#2007),#642);
#2007 = PRESENTATION_STYLE_ASSIGNMENT((#2008));
#2008 = SURFACE_STYLE_USAGE(.BOTH.,#2009);
#2009 = SURFACE_SIDE_STYLE('',(#2010));
#2010 = SURFACE_STYLE_FILL_AREA(#2011);
#2011 = FILL_AREA_STYLE('',(#2012));
#2012 = FILL_AREA_STYLE_COLOUR('',#1924);
#2013 = STYLED_ITEM('color',(#2014),#667);
#2014 = PRESENTATION_STYLE_ASSIGNMENT((#2015));
#2015 = SURFACE_STYLE_USAGE(.BOTH.,#2016);
#2016 = SURFACE_SIDE_STYLE('',(#2017));
#2017 = SURFACE_STYLE_FILL_AREA(#2018);
#2018 = FILL_AREA_STYLE('',(#2019));
#2019 = FILL_AREA_STYLE_COLOUR('',#1924);
#2020 = MECHANICAL_DESIGN_GEOMETRIC_PRESENTATION_REPRESENTATION('',(
    #2021),#1614);
#2021 = STYLED_ITEM('color',(#2022),#1464);
#2022 = PRESENTATION_STYLE_ASSIGNMENT((#2023,#2028));
#2023 = SURFACE_STYLE_USAGE(.BOTH.,#2024);
#2024 = SURFACE_SIDE_STYLE('',(#2025));
#2025 = SURFACE_STYLE_FILL_AREA(#2026);
#2026 = FILL_AREA_STYLE('',(#2027));
#2027 = FILL_AREA_STYLE_COLOUR('',#1924);
#2028 = CURVE_STYLE('',#2029,POSITIVE_LENGTH_MEASURE(0.1),#1924);
#2029 = DRAUGHTING_PRE_DEFINED_CURVE_FONT('continuous');
#2030 = MECHANICAL_DESIGN_GEOMETRIC_PRESENTATION_REPRESENTATION('',(
    #2031,#2040,#2049,#2058,#2067),#1445);
#2031 = STYLED_ITEM('color',(#2032),#695);
#2032 = PRESENTATION_STYLE_ASSIGNMENT((#2033,#2038));
#2033 = SURFACE_STYLE_USAGE(.BOTH.,#2034);
#2034 = SURFACE_SIDE_STYLE('',(#2035));
#2035 = SURFACE_STYLE_FILL_AREA(#2036);
#2036 = FILL_AREA_STYLE('',(#2037));
#2037 = FILL_AREA_STYLE_COLOUR('',#1924);
#2038 = CURVE_STYLE('',#2039,POSITIVE_LENGTH_MEASURE(0.1),#1924);
#2039 = DRAUGHTING_PRE_DEFINED_CURVE_FONT('continuous');
#2040 = STYLED_ITEM('color',(#2041),#845);
#2041 = PRESENTATION_STYLE_ASSIGNMENT((#2042,#2047));
#2042 = SURFACE_STYLE_USAGE(.BOTH.,#2043);
#2043 = SURFACE_SIDE_STYLE('',(#2044));
#2044 = SURFACE_STYLE_FILL_AREA(#2045);
#2045 = FILL_AREA_STYLE('',(#2046));
#2046 = FILL_AREA_STYLE_COLOUR('',#1924);
#2047 = CURVE_STYLE('',#2048,POSITIVE_LENGTH_MEASURE(0.1),#1924);
#2048 = DRAUGHTING_PRE_DEFINED_CURVE_FONT('continuous');
#2049 = STYLED_ITEM('color',(#2050),#995);
#2050 = PRESENTATION_STYLE_ASSIGNMENT((#2051,#2056));
#2051 = SURFACE_STYLE_USAGE(.BOTH.,#2052);
#2052 = SURFACE_SIDE_STYLE('',(#2053));
#2053 = SURFACE_STYLE_FILL_AREA(#2054);
#2054 = FILL_AREA_STYLE('',(#2055));
#2055 = FILL_AREA_STYLE_COLOUR('',#1924);
#2056 = CURVE_STYLE('',#2057,POSITIVE_LENGTH_MEASURE(0.1),#1924);
#2057 = DRAUGHTING_PRE_DEFINED_CURVE_FONT('continuous');
#2058 = STYLED_ITEM('color',(#2059),#1145);
#2059 = PRESENTATION_STYLE_ASSIGNMENT((#2060,#2065));
#2060 = SURFACE_STYLE_USAGE(.BOTH.,#2061);
#2061 = SURFACE_SIDE_STYLE('',(#2062));
#2062 = SURFACE_STYLE_FILL_AREA(#2063);
#2063 = FILL_AREA_STYLE('',(#2064));
#2064 = FILL_AREA_STYLE_COLOUR('',#1924);
#2065 = CURVE_STYLE('',#2066,POSITIVE_LENGTH_MEASURE(0.1),#1924);
#2066 = DRAUGHTING_PRE_DEFINED_CURVE_FONT('continuous');
#2067 = STYLED_ITEM('color',(#2068),#1295);
#2068 = PRESENTATION_STYLE_ASSIGNMENT((#2069,#2074));
#2069 = SURFACE_STYLE_USAGE(.BOTH.,#2070);
#2070 = SURFACE_SIDE_STYLE('',(#2071));
#2071 = SURFACE_STYLE_FILL_AREA(#2072);
#2072 = FILL_AREA_STYLE('',(#2073));
#2073 = FILL_AREA_STYLE_COLOUR('',#1924);
#2074 = CURVE_STYLE('',#2075,POSITIVE_LENGTH_MEASURE(0.1),#1924);
#2075 = DRAUGHTING_PRE_DEFINED_CURVE_FONT('continuous');
#2076 = MECHANICAL_DESIGN_GEOMETRIC_PRESENTATION_REPRESENTATION('',(
    #2077,#2087,#2096,#2105,#2114),#1898);
#2077 = STYLED_ITEM('color',(#2078),#1633);
#2078 = PRESENTATION_STYLE_ASSIGNMENT((#2079,#2085));
#2079 = SURFACE_STYLE_USAGE(.BOTH.,#2080);
#2080 = SURFACE_SIDE_STYLE('',(#2081));
#2081 = SURFACE_STYLE_FILL_AREA(#2082);
#2082 = FILL_AREA_STYLE('',(#2083));
#2083 = FILL_AREA_STYLE_COLOUR('',#2084);
#2084 = COLOUR_RGB('',0.117647059262,0.117647059262,0.117647059262);
#2085 = CURVE_STYLE('',#2086,POSITIVE_LENGTH_MEASURE(0.1),#2084);
#2086 = DRAUGHTING_PRE_DEFINED_CURVE_FONT('continuous');
#2087 = STYLED_ITEM('color',(#2088),#1686);
#2088 = PRESENTATION_STYLE_ASSIGNMENT((#2089,#2094));
#2089 = SURFACE_STYLE_USAGE(.BOTH.,#2090);
#2090 = SURFACE_SIDE_STYLE('',(#2091));
#2091 = SURFACE_STYLE_FILL_AREA(#2092);
#2092 = FILL_AREA_STYLE('',(#2093));
#2093 = FILL_AREA_STYLE_COLOUR('',#2084);
#2094 = CURVE_STYLE('',#2095,POSITIVE_LENGTH_MEASURE(0.1),#2084);
#2095 = DRAUGHTING_PRE_DEFINED_CURVE_FONT('continuous');
#2096 = STYLED_ITEM('color',(#2097),#1739);
#2097 = PRESENTATION_STYLE_ASSIGNMENT((#2098,#2103));
#2098 = SURFACE_STYLE_USAGE(.BOTH.,#2099);
#2099 = SURFACE_SIDE_STYLE('',(#2100));
#2100 = SURFACE_STYLE_FILL_AREA(#2101);
#2101 = FILL_AREA_STYLE('',(#2102));
#2102 = FILL_AREA_STYLE_COLOUR('',#2084);
#2103 = CURVE_STYLE('',#2104,POSITIVE_LENGTH_MEASURE(0.1),#2084);
#2104 = DRAUGHTING_PRE_DEFINED_CURVE_FONT('continuous');
#2105 = STYLED_ITEM('color',(#2106),#1792);
#2106 = PRESENTATION_STYLE_ASSIGNMENT((#2107,#2112));
#2107 = SURFACE_STYLE_USAGE(.BOTH.,#2108);
#2108 = SURFACE_SIDE_STYLE('',(#2109));
#2109 = SURFACE_STYLE_FILL_AREA(#2110);
#2110 = FILL_AREA_STYLE('',(#2111));
#2111 = FILL_AREA_STYLE_COLOUR('',#2084);
#2112 = CURVE_STYLE('',#2113,POSITIVE_LENGTH_MEASURE(0.1),#2084);
#2113 = DRAUGHTING_PRE_DEFINED_CURVE_FONT('continuous');
#2114 = STYLED_ITEM('color',(#2115),#1845);
#2115 = PRESENTATION_STYLE_ASSIGNMENT((#2116,#2121));
#2116 = SURFACE_STYLE_USAGE(.BOTH.,#2117);
#2117 = SURFACE_SIDE_STYLE('',(#2118));
#2118 = SURFACE_STYLE_FILL_AREA(#2119);
#2119 = FILL_AREA_STYLE('',(#2120));
#2120 = FILL_AREA_STYLE_COLOUR('',#2084);
#2121 = CURVE_STYLE('',#2122,POSITIVE_LENGTH_MEASURE(0.1),#2084);
#2122 = DRAUGHTING_PRE_DEFINED_CURVE_FONT('continuous');
ENDSEC;
END-ISO-10303-21;
