(module FC68391 (layer F.Cu) (tedit 5B0BC2BF)
  (fp_text reference REF** (at 0 0.5) (layer F.SilkS)
    (effects (font (size 1 1) (thickness 0.15)))
  )
  (fp_text value FC68391 (at 0 -0.5) (layer F.Fab)
    (effects (font (size 1 1) (thickness 0.15)))
  )
  (fp_line (start -5.6 0) (end -5.6 -6.6) (layer F.SilkS) (width 0.15))
  (fp_line (start -5.6 -6.6) (end 5.6 -6.6) (layer F.SilkS) (width 0.15))
  (fp_line (start 5.6 -6.6) (end 5.6 0) (layer F.SilkS) (width 0.15))
  (fp_line (start 5.6 0) (end -5.6 0) (layer F.SilkS) (width 0.15))
  (fp_line (start -4.15 0) (end -4.15 9.1) (layer F.SilkS) (width 0.15))
  (fp_line (start -4.15 9.1) (end 4.15 9.1) (layer F.SilkS) (width 0.15))
  (fp_line (start 4.15 9.1) (end 4.15 0) (layer F.SilkS) (width 0.15))
  (pad 2 thru_hole circle (at 0 0) (size 4 4) (drill 2.8) (layers *.Cu *.Mask))
  (pad 1 thru_hole circle (at 0 -5.1) (size 3 3) (drill 1.6) (layers *.Cu *.Mask))
  (pad 2 thru_hole circle (at -5.1 -5.1) (size 4 4) (drill 2.8) (layers *.Cu *.Mask))
  (pad 2 thru_hole circle (at 5.1 -5.1) (size 4 4) (drill 2.8) (layers *.Cu *.Mask))
  (model ${KICADMPIO}/mpio.3dshapes/FC68391/FC68391.wrl
    (at (xyz 0 0 0))
    (scale (xyz 0.3937007874015748 0.3937007874015748 0.3937007874015748))
    (rotate (xyz -90 0 180))
  )
)
