(module kulka_szklana_16mm_fi1.3mm (layer F.Cu) (tedit 5A55D2EE)
  (fp_text reference REF** (at 0 0.5) (layer F.SilkS)
    (effects (font (size 1 1) (thickness 0.15)))
  )
  (fp_text value kulka_16mm (at 0 -0.5) (layer F.Fab)
    (effects (font (size 1 1) (thickness 0.15)))
  )
  (fp_circle (center 0 0) (end 8 0) (layer F.SilkS) (width 0.15))
)
