(module pin_1_3mm (layer F.Cu) (tedit 5B507C2F)
  (fp_text reference REF** (at 0 0.5) (layer F.SilkS) hide
    (effects (font (size 1 1) (thickness 0.15)))
  )
  (fp_text value pin_1_3mm (at 0 -0.5) (layer F.Fab) hide
    (effects (font (size 1 1) (thickness 0.15)))
  )
  (pad 1 thru_hole circle (at 0 0) (size 3 3) (drill 0.4) (layers *.Cu *.Mask))
)
