(module RFM73 (layer F.Cu) (tedit 58382719)
  (fp_text reference U1 (at 0 0.5) (layer F.SilkS)
    (effects (font (size 1 1) (thickness 0.15)))
  )
  (fp_text value RFM73 (at 0 -0.5) (layer F.Fab)
    (effects (font (size 1 1) (thickness 0.15)))
  )
  (fp_line (start -6.55 8.5) (end 6.55 8.5) (layer F.SilkS) (width 0.15))
  (fp_line (start 6.55 8.5) (end 6.55 -8.5) (layer F.SilkS) (width 0.15))
  (fp_line (start 6.55 -8.5) (end -6.55 -8.5) (layer F.SilkS) (width 0.15))
  (fp_line (start -6.55 -8.5) (end -6.55 8.5) (layer F.SilkS) (width 0.15))
  (pad 8 thru_hole rect (at 4.19 7.7) (size 0.8 1.524) (drill 0.4) (layers *.Cu *.Mask))
  (pad 7 thru_hole rect (at 2.92 7.7) (size 0.8 1.524) (drill 0.4) (layers *.Cu *.Mask))
  (pad 6 thru_hole rect (at 1.65 7.7) (size 0.8 1.524) (drill 0.4) (layers *.Cu *.Mask))
  (pad 5 thru_hole rect (at 0.38 7.7) (size 0.8 1.524) (drill 0.4) (layers *.Cu *.Mask))
  (pad 4 thru_hole rect (at -0.89 7.7) (size 0.8 1.524) (drill 0.4) (layers *.Cu *.Mask))
  (pad 3 thru_hole rect (at -2.16 7.7) (size 0.8 1.524) (drill 0.4) (layers *.Cu *.Mask))
  (pad 2 thru_hole rect (at -3.43 7.7) (size 0.8 1.524) (drill 0.4) (layers *.Cu *.Mask))
  (pad 1 thru_hole rect (at -4.7 7.7) (size 0.8 1.524) (drill 0.4) (layers *.Cu *.Mask))
  (model ${KICADMPIO}/mpio.3dshapes/RFM73.wrl
    (offset (xyz -0.2539999961853027 -7.746999883651733 -0.6349999904632568))
    (scale (xyz 1 1 0.97))
    (rotate (xyz 90 0 0))
  )
)
