(module SK48-50-SA-3 (layer F.Cu) (tedit 5B56D749)
  (fp_text reference MK1 (at 0 0.5) (layer F.SilkS)
    (effects (font (size 1 1) (thickness 0.15)))
  )
  (fp_text value SK48-50-SA-3 (at 0 -0.5) (layer F.Fab)
    (effects (font (size 1 1) (thickness 0.15)))
  )
  (fp_line (start -32.5 0) (end 32.5 0) (layer F.SilkS) (width 0.15))
  (fp_line (start 32.5 0) (end 32.5 4) (layer F.SilkS) (width 0.15))
  (fp_line (start 32.5 4) (end -32.5 4) (layer F.SilkS) (width 0.15))
  (fp_line (start -32.5 4) (end -32.5 0) (layer F.SilkS) (width 0.15))
  (fp_line (start 32.5 4) (end 32.5 20) (layer F.SilkS) (width 0.15))
  (fp_line (start 32.5 20) (end -32.5 20) (layer F.SilkS) (width 0.15))
  (fp_line (start -32.5 20) (end -32.5 4) (layer F.SilkS) (width 0.15))
  (pad "" np_thru_hole circle (at 23.05 4.9) (size 4.4 4.4) (drill 4.4) (layers *.Cu *.Mask))
  (pad "" np_thru_hole circle (at -23.05 4.9) (size 4.4 4.4) (drill 4.4) (layers *.Cu *.Mask))
  (model ${KICADMPIO}/mpio.3dshapes/SK48-50-SA-3/SK48-50-SA-3.wrl
    (at (xyz 0 0 0))
    (scale (xyz 0.3937007874015748 0.3937007874015748 0.3937007874015748))
    (rotate (xyz 0 0 0))
  )
)
