(module szescian_30x30x6 (layer F.Cu) (tedit 59FB0B81)
  (fp_text reference REF** (at 0 0.5) (layer F.SilkS) hide
    (effects (font (size 1 1) (thickness 0.15)))
  )
  (fp_text value szescian_30x30x6 (at 0 -0.5) (layer F.Fab)
    (effects (font (size 1 1) (thickness 0.15)))
  )
  (fp_line (start -15 -15) (end 15 -15) (layer F.SilkS) (width 0.15))
  (fp_line (start 15 -15) (end 15 15) (layer F.SilkS) (width 0.15))
  (fp_line (start 15 15) (end -15 15) (layer F.SilkS) (width 0.15))
  (fp_line (start -15 15) (end -15 -15) (layer F.SilkS) (width 0.15))
  (model ${KICADMPIO}/mpio.3dshapes/szescian_30x30x6.wrl
    (at (xyz 0 0 0))
    (scale (xyz 0.393701 0.393701 0.393701))
    (rotate (xyz 0 0 0))
  )
)
