(module VFBGA49C2 (layer F.Cu) (tedit 582A2124)
  (fp_text reference REF** (at 0 0.5) (layer F.SilkS)
    (effects (font (size 1 1) (thickness 0.15)))
  )
  (fp_text value VFBGA49C2 (at 0 -0.5) (layer F.Fab)
    (effects (font (size 1 1) (thickness 0.15)))
  )
  (fp_circle (center -2.2 -2.2) (end -2.1 -2.1) (layer F.SilkS) (width 0.15))
  (fp_line (start -2.55 -2.55) (end 2.55 -2.55) (layer F.SilkS) (width 0.15))
  (fp_line (start 2.55 -2.55) (end 2.55 2.55) (layer F.SilkS) (width 0.15))
  (fp_line (start 2.55 2.55) (end -2.55 2.55) (layer F.SilkS) (width 0.15))
  (fp_line (start -2.55 2.55) (end -2.55 -2.55) (layer F.SilkS) (width 0.15))
  (pad 1 smd circle (at -1.95 -1.95) (size 0.35 0.35) (layers F.Cu F.Paste F.Mask)
    (solder_mask_margin 0.05) (clearance 0.05))
  (pad 2 smd circle (at -1.3 -1.95) (size 0.35 0.35) (layers F.Cu F.Paste F.Mask)
    (solder_mask_margin 0.05) (clearance 0.05))
  (pad 3 smd circle (at -0.65 -1.95) (size 0.35 0.35) (layers F.Cu F.Paste F.Mask)
    (solder_mask_margin 0.05) (clearance 0.05))
  (pad 4 smd circle (at 0 -1.95) (size 0.35 0.35) (layers F.Cu F.Paste F.Mask)
    (solder_mask_margin 0.05) (clearance 0.05))
  (pad 5 smd circle (at 0.65 -1.95) (size 0.35 0.35) (layers F.Cu F.Paste F.Mask)
    (solder_mask_margin 0.05) (clearance 0.05))
  (pad 6 smd circle (at 1.3 -1.95) (size 0.35 0.35) (layers F.Cu F.Paste F.Mask)
    (solder_mask_margin 0.05) (clearance 0.05))
  (pad 7 smd circle (at 1.95 -1.95) (size 0.35 0.35) (layers F.Cu F.Paste F.Mask)
    (solder_mask_margin 0.05) (clearance 0.05))
  (pad 8 smd circle (at -1.95 -1.3) (size 0.35 0.35) (layers F.Cu F.Paste F.Mask)
    (solder_mask_margin 0.05) (clearance 0.05))
  (pad 9 smd circle (at -1.3 -1.3) (size 0.35 0.35) (layers F.Cu F.Paste F.Mask)
    (solder_mask_margin 0.05) (clearance 0.05))
  (pad 10 smd circle (at -0.65 -1.3) (size 0.35 0.35) (layers F.Cu F.Paste F.Mask)
    (solder_mask_margin 0.05) (clearance 0.05))
  (pad 11 smd circle (at 0 -1.3) (size 0.35 0.35) (layers F.Cu F.Paste F.Mask)
    (solder_mask_margin 0.05) (clearance 0.05))
  (pad 12 smd circle (at 0.65 -1.3) (size 0.35 0.35) (layers F.Cu F.Paste F.Mask)
    (solder_mask_margin 0.05) (clearance 0.05))
  (pad 13 smd circle (at 1.3 -1.3) (size 0.35 0.35) (layers F.Cu F.Paste F.Mask)
    (solder_mask_margin 0.05) (clearance 0.05))
  (pad 14 smd circle (at 1.95 -1.3) (size 0.35 0.35) (layers F.Cu F.Paste F.Mask)
    (solder_mask_margin 0.05) (clearance 0.05))
  (pad 15 smd circle (at -1.95 -0.65) (size 0.35 0.35) (layers F.Cu F.Paste F.Mask)
    (solder_mask_margin 0.05) (clearance 0.05))
  (pad 16 smd circle (at -1.3 -0.65) (size 0.35 0.35) (layers F.Cu F.Paste F.Mask)
    (solder_mask_margin 0.05) (clearance 0.05))
  (pad 17 smd circle (at -0.65 -0.65) (size 0.35 0.35) (layers F.Cu F.Paste F.Mask)
    (solder_mask_margin 0.05) (clearance 0.05))
  (pad 18 smd circle (at 0 -0.65) (size 0.35 0.35) (layers F.Cu F.Paste F.Mask)
    (solder_mask_margin 0.05) (clearance 0.05))
  (pad 19 smd circle (at 0.65 -0.65) (size 0.35 0.35) (layers F.Cu F.Paste F.Mask)
    (solder_mask_margin 0.05) (clearance 0.05))
  (pad 20 smd circle (at 1.3 -0.65) (size 0.35 0.35) (layers F.Cu F.Paste F.Mask)
    (solder_mask_margin 0.05) (clearance 0.05))
  (pad 21 smd circle (at 1.95 -0.65) (size 0.35 0.35) (layers F.Cu F.Paste F.Mask)
    (solder_mask_margin 0.05) (clearance 0.05))
  (pad 22 smd circle (at -1.95 0) (size 0.35 0.35) (layers F.Cu F.Paste F.Mask)
    (solder_mask_margin 0.05) (clearance 0.05))
  (pad 23 smd circle (at -1.3 0) (size 0.35 0.35) (layers F.Cu F.Paste F.Mask)
    (solder_mask_margin 0.05) (clearance 0.05))
  (pad 24 smd circle (at -0.65 0) (size 0.35 0.35) (layers F.Cu F.Paste F.Mask)
    (solder_mask_margin 0.05) (clearance 0.05))
  (pad 25 smd circle (at 0 0) (size 0.35 0.35) (layers F.Cu F.Paste F.Mask)
    (solder_mask_margin 0.05) (clearance 0.05))
  (pad 26 smd circle (at 0.65 0) (size 0.35 0.35) (layers F.Cu F.Paste F.Mask)
    (solder_mask_margin 0.05) (clearance 0.05))
  (pad 27 smd circle (at 1.3 0) (size 0.35 0.35) (layers F.Cu F.Paste F.Mask)
    (solder_mask_margin 0.05) (clearance 0.05))
  (pad 28 smd circle (at 1.95 0) (size 0.35 0.35) (layers F.Cu F.Paste F.Mask)
    (solder_mask_margin 0.05) (clearance 0.05))
  (pad 29 smd circle (at -1.95 0.65) (size 0.35 0.35) (layers F.Cu F.Paste F.Mask)
    (solder_mask_margin 0.05) (clearance 0.05))
  (pad 30 smd circle (at -1.3 0.65) (size 0.35 0.35) (layers F.Cu F.Paste F.Mask)
    (solder_mask_margin 0.05) (clearance 0.05))
  (pad 31 smd circle (at -0.65 0.65) (size 0.35 0.35) (layers F.Cu F.Paste F.Mask)
    (solder_mask_margin 0.05) (clearance 0.05))
  (pad 32 smd circle (at 0 0.65) (size 0.35 0.35) (layers F.Cu F.Paste F.Mask)
    (solder_mask_margin 0.05) (clearance 0.05))
  (pad 33 smd circle (at 0.65 0.65) (size 0.35 0.35) (layers F.Cu F.Paste F.Mask)
    (solder_mask_margin 0.05) (clearance 0.05))
  (pad 34 smd circle (at 1.3 0.65) (size 0.35 0.35) (layers F.Cu F.Paste F.Mask)
    (solder_mask_margin 0.05) (clearance 0.05))
  (pad 35 smd circle (at 1.95 0.65) (size 0.35 0.35) (layers F.Cu F.Paste F.Mask)
    (solder_mask_margin 0.05) (clearance 0.05))
  (pad 36 smd circle (at -1.95 1.3) (size 0.35 0.35) (layers F.Cu F.Paste F.Mask)
    (solder_mask_margin 0.05) (clearance 0.05))
  (pad 37 smd circle (at -1.3 1.3) (size 0.35 0.35) (layers F.Cu F.Paste F.Mask)
    (solder_mask_margin 0.05) (clearance 0.05))
  (pad 38 smd circle (at -0.65 1.3) (size 0.35 0.35) (layers F.Cu F.Paste F.Mask)
    (solder_mask_margin 0.05) (clearance 0.05))
  (pad 39 smd circle (at 0 1.3) (size 0.35 0.35) (layers F.Cu F.Paste F.Mask)
    (solder_mask_margin 0.05) (clearance 0.05))
  (pad 40 smd circle (at 0.65 1.3) (size 0.35 0.35) (layers F.Cu F.Paste F.Mask)
    (solder_mask_margin 0.05) (clearance 0.05))
  (pad 41 smd circle (at 1.3 1.3) (size 0.35 0.35) (layers F.Cu F.Paste F.Mask)
    (solder_mask_margin 0.05) (clearance 0.05))
  (pad 42 smd circle (at 1.95 1.3) (size 0.35 0.35) (layers F.Cu F.Paste F.Mask)
    (solder_mask_margin 0.05) (clearance 0.05))
  (pad 43 smd circle (at -1.95 1.95) (size 0.35 0.35) (layers F.Cu F.Paste F.Mask)
    (solder_mask_margin 0.05) (clearance 0.05))
  (pad 44 smd circle (at -1.3 1.95) (size 0.35 0.35) (layers F.Cu F.Paste F.Mask)
    (solder_mask_margin 0.05) (clearance 0.05))
  (pad 45 smd circle (at -0.65 1.95) (size 0.35 0.35) (layers F.Cu F.Paste F.Mask)
    (solder_mask_margin 0.05) (clearance 0.05))
  (pad 46 smd circle (at 0 1.95) (size 0.35 0.35) (layers F.Cu F.Paste F.Mask)
    (solder_mask_margin 0.05) (clearance 0.05))
  (pad 47 smd circle (at 0.65 1.95) (size 0.35 0.35) (layers F.Cu F.Paste F.Mask)
    (solder_mask_margin 0.05) (clearance 0.05))
  (pad 48 smd circle (at 1.3 1.95) (size 0.35 0.35) (layers F.Cu F.Paste F.Mask)
    (solder_mask_margin 0.05) (clearance 0.05))
  (pad 49 smd circle (at 1.95 1.95) (size 0.35 0.35) (layers F.Cu F.Paste F.Mask)
    (solder_mask_margin 0.05) (clearance 0.05))
)
