(module XLR-3 (layer F.Cu) (tedit 5A142325)
  (fp_text reference REF** (at 0 0.5) (layer F.SilkS)
    (effects (font (size 1 1) (thickness 0.15)))
  )
  (fp_text value XLR-3 (at 0 -0.5) (layer F.Fab)
    (effects (font (size 1 1) (thickness 0.15)))
  )
  (pad 1 thru_hole circle (at 3.81 0) (size 2.3 2.3) (drill 1.6) (layers *.Cu *.Mask))
  (pad 2 thru_hole circle (at -3.81 0) (size 2.3 2.3) (drill 1.6) (layers *.Cu *.Mask))
  (pad 3 thru_hole circle (at 0 3.81) (size 2.3 2.3) (drill 1.6) (layers *.Cu *.Mask))
  (pad 4 thru_hole circle (at 0 8.25) (size 1.9 1.9) (drill 1.2) (layers *.Cu *.Mask))
)
