ISO-10303-21;
HEADER;
FILE_DESCRIPTION(('FreeCAD Model'),'2;1');
FILE_NAME('C:/Git/Marek/kicad/mpio.3dshapes/Crystal HC49_US-SM.step',
  '2018-04-24T16:27:37',('kicad StepUp'),('ksu MCAD'),
  'Open CASCADE STEP processor 6.8','FreeCAD','Unknown');
FILE_SCHEMA(('AUTOMOTIVE_DESIGN_CC2 { 1 2 10303 214 -1 1 5 4 }'));
ENDSEC;
DATA;
#1 = APPLICATION_PROTOCOL_DEFINITION('committee draft',
  'automotive_design',1997,#2);
#2 = APPLICATION_CONTEXT(
  'core data for automotive mechanical design processes');
#3 = SHAPE_DEFINITION_REPRESENTATION(#4,#10);
#4 = PRODUCT_DEFINITION_SHAPE('','',#5);
#5 = PRODUCT_DEFINITION('design','',#6,#9);
#6 = PRODUCT_DEFINITION_FORMATION('','',#7);
#7 = PRODUCT('User_Library-Crystal_HC49_US-SM',
  'User_Library-Crystal_HC49_US-SM','',(#8));
#8 = MECHANICAL_CONTEXT('',#2,'mechanical');
#9 = PRODUCT_DEFINITION_CONTEXT('part definition',#2,'design');
#10 = ADVANCED_BREP_SHAPE_REPRESENTATION('',(#11,#15),#1519);
#11 = AXIS2_PLACEMENT_3D('',#12,#13,#14);
#12 = CARTESIAN_POINT('',(0.E+000,0.E+000,0.E+000));
#13 = DIRECTION('',(0.E+000,0.E+000,1.));
#14 = DIRECTION('',(1.,0.E+000,-0.E+000));
#15 = MANIFOLD_SOLID_BREP('',#16);
#16 = CLOSED_SHELL('',(#17,#61,#105,#147,#189,#300,#372,#444,#584,#627,
    #670,#692,#714,#736,#748,#760,#782,#794,#806,#837,#868,#893,#917,
    #935,#947,#987,#1017,#1041,#1064,#1076,#1088,#1113,#1137,#1161,#1178
    ,#1211,#1240,#1273,#1295,#1336,#1361,#1373,#1391,#1403,#1421,#1439,
    #1457,#1471,#1483,#1495,#1507));
#17 = ADVANCED_FACE('',(#18),#56,.F.);
#18 = FACE_BOUND('',#19,.F.);
#19 = EDGE_LOOP('',(#20,#31,#40,#49));
#20 = ORIENTED_EDGE('',*,*,#21,.T.);
#21 = EDGE_CURVE('',#22,#24,#26,.T.);
#22 = VERTEX_POINT('',#23);
#23 = CARTESIAN_POINT('',(3.2,1.9,1.5));
#24 = VERTEX_POINT('',#25);
#25 = CARTESIAN_POINT('',(3.2,2.35,1.05));
#26 = CIRCLE('',#27,0.45);
#27 = AXIS2_PLACEMENT_3D('',#28,#29,#30);
#28 = CARTESIAN_POINT('',(3.2,2.35,1.5));
#29 = DIRECTION('',(1.,-0.E+000,0.E+000));
#30 = DIRECTION('',(0.E+000,0.E+000,-1.));
#31 = ORIENTED_EDGE('',*,*,#32,.F.);
#32 = EDGE_CURVE('',#33,#24,#35,.T.);
#33 = VERTEX_POINT('',#34);
#34 = CARTESIAN_POINT('',(5.55,0.E+000,1.05));
#35 = CIRCLE('',#36,2.35);
#36 = AXIS2_PLACEMENT_3D('',#37,#38,#39);
#37 = CARTESIAN_POINT('',(3.2,0.E+000,1.05));
#38 = DIRECTION('',(0.E+000,0.E+000,1.));
#39 = DIRECTION('',(1.,0.E+000,0.E+000));
#40 = ORIENTED_EDGE('',*,*,#41,.F.);
#41 = EDGE_CURVE('',#42,#33,#44,.T.);
#42 = VERTEX_POINT('',#43);
#43 = CARTESIAN_POINT('',(5.1,0.E+000,1.5));
#44 = CIRCLE('',#45,0.45);
#45 = AXIS2_PLACEMENT_3D('',#46,#47,#48);
#46 = CARTESIAN_POINT('',(5.55,0.E+000,1.5));
#47 = DIRECTION('',(0.E+000,-1.,0.E+000));
#48 = DIRECTION('',(0.E+000,0.E+000,-1.));
#49 = ORIENTED_EDGE('',*,*,#50,.T.);
#50 = EDGE_CURVE('',#42,#22,#51,.T.);
#51 = CIRCLE('',#52,1.9);
#52 = AXIS2_PLACEMENT_3D('',#53,#54,#55);
#53 = CARTESIAN_POINT('',(3.2,0.E+000,1.5));
#54 = DIRECTION('',(0.E+000,0.E+000,1.));
#55 = DIRECTION('',(1.,0.E+000,0.E+000));
#56 = TOROIDAL_SURFACE('',#57,2.35,0.45);
#57 = AXIS2_PLACEMENT_3D('',#58,#59,#60);
#58 = CARTESIAN_POINT('',(3.2,0.E+000,1.5));
#59 = DIRECTION('',(0.E+000,0.E+000,1.));
#60 = DIRECTION('',(1.,0.E+000,0.E+000));
#61 = ADVANCED_FACE('',(#62),#100,.T.);
#62 = FACE_BOUND('',#63,.T.);
#63 = EDGE_LOOP('',(#64,#75,#84,#93));
#64 = ORIENTED_EDGE('',*,*,#65,.F.);
#65 = EDGE_CURVE('',#66,#68,#70,.T.);
#66 = VERTEX_POINT('',#67);
#67 = CARTESIAN_POINT('',(5.1,0.E+000,3.8));
#68 = VERTEX_POINT('',#69);
#69 = CARTESIAN_POINT('',(3.2,-1.9,3.8));
#70 = CIRCLE('',#71,1.9);
#71 = AXIS2_PLACEMENT_3D('',#72,#73,#74);
#72 = CARTESIAN_POINT('',(3.2,0.E+000,3.8));
#73 = DIRECTION('',(0.E+000,0.E+000,-1.));
#74 = DIRECTION('',(1.,0.E+000,0.E+000));
#75 = ORIENTED_EDGE('',*,*,#76,.T.);
#76 = EDGE_CURVE('',#66,#77,#79,.T.);
#77 = VERTEX_POINT('',#78);
#78 = CARTESIAN_POINT('',(4.6,0.E+000,4.3));
#79 = CIRCLE('',#80,0.5);
#80 = AXIS2_PLACEMENT_3D('',#81,#82,#83);
#81 = CARTESIAN_POINT('',(4.6,0.E+000,3.8));
#82 = DIRECTION('',(0.E+000,-1.,0.E+000));
#83 = DIRECTION('',(0.E+000,0.E+000,-1.));
#84 = ORIENTED_EDGE('',*,*,#85,.F.);
#85 = EDGE_CURVE('',#86,#77,#88,.T.);
#86 = VERTEX_POINT('',#87);
#87 = CARTESIAN_POINT('',(3.2,-1.4,4.3));
#88 = CIRCLE('',#89,1.4);
#89 = AXIS2_PLACEMENT_3D('',#90,#91,#92);
#90 = CARTESIAN_POINT('',(3.2,0.E+000,4.3));
#91 = DIRECTION('',(0.E+000,0.E+000,1.));
#92 = DIRECTION('',(1.,0.E+000,0.E+000));
#93 = ORIENTED_EDGE('',*,*,#94,.T.);
#94 = EDGE_CURVE('',#86,#68,#95,.T.);
#95 = CIRCLE('',#96,0.5);
#96 = AXIS2_PLACEMENT_3D('',#97,#98,#99);
#97 = CARTESIAN_POINT('',(3.2,-1.4,3.8));
#98 = DIRECTION('',(1.,-0.E+000,0.E+000));
#99 = DIRECTION('',(0.E+000,0.E+000,-1.));
#100 = TOROIDAL_SURFACE('',#101,1.4,0.5);
#101 = AXIS2_PLACEMENT_3D('',#102,#103,#104);
#102 = CARTESIAN_POINT('',(3.2,0.E+000,3.8));
#103 = DIRECTION('',(0.E+000,0.E+000,1.));
#104 = DIRECTION('',(1.,0.E+000,0.E+000));
#105 = ADVANCED_FACE('',(#106),#142,.T.);
#106 = FACE_BOUND('',#107,.T.);
#107 = EDGE_LOOP('',(#108,#119,#127,#136));
#108 = ORIENTED_EDGE('',*,*,#109,.T.);
#109 = EDGE_CURVE('',#110,#112,#114,.T.);
#110 = VERTEX_POINT('',#111);
#111 = CARTESIAN_POINT('',(-3.2,-1.9,3.8));
#112 = VERTEX_POINT('',#113);
#113 = CARTESIAN_POINT('',(-5.1,-1.175660927181E-015,3.8));
#114 = CIRCLE('',#115,1.9);
#115 = AXIS2_PLACEMENT_3D('',#116,#117,#118);
#116 = CARTESIAN_POINT('',(-3.2,-1.175660927181E-015,3.8));
#117 = DIRECTION('',(0.E+000,0.E+000,-1.));
#118 = DIRECTION('',(1.,0.E+000,0.E+000));
#119 = ORIENTED_EDGE('',*,*,#120,.T.);
#120 = EDGE_CURVE('',#112,#121,#123,.T.);
#121 = VERTEX_POINT('',#122);
#122 = CARTESIAN_POINT('',(-5.1,-1.175660927181E-015,1.5));
#123 = LINE('',#124,#125);
#124 = CARTESIAN_POINT('',(-5.1,-1.175660927181E-015,19.48485185935));
#125 = VECTOR('',#126,1.);
#126 = DIRECTION('',(-0.E+000,-0.E+000,-1.));
#127 = ORIENTED_EDGE('',*,*,#128,.T.);
#128 = EDGE_CURVE('',#121,#129,#131,.T.);
#129 = VERTEX_POINT('',#130);
#130 = CARTESIAN_POINT('',(-3.2,-1.9,1.5));
#131 = CIRCLE('',#132,1.9);
#132 = AXIS2_PLACEMENT_3D('',#133,#134,#135);
#133 = CARTESIAN_POINT('',(-3.2,-1.175660927181E-015,1.5));
#134 = DIRECTION('',(0.E+000,0.E+000,1.));
#135 = DIRECTION('',(1.,0.E+000,0.E+000));
#136 = ORIENTED_EDGE('',*,*,#137,.F.);
#137 = EDGE_CURVE('',#110,#129,#138,.T.);
#138 = LINE('',#139,#140);
#139 = CARTESIAN_POINT('',(-3.2,-1.9,19.48485185935));
#140 = VECTOR('',#141,1.);
#141 = DIRECTION('',(-0.E+000,-0.E+000,-1.));
#142 = CYLINDRICAL_SURFACE('',#143,1.9);
#143 = AXIS2_PLACEMENT_3D('',#144,#145,#146);
#144 = CARTESIAN_POINT('',(-3.2,-1.175660927181E-015,19.48485185935));
#145 = DIRECTION('',(-0.E+000,-0.E+000,-1.));
#146 = DIRECTION('',(-1.,0.E+000,0.E+000));
#147 = ADVANCED_FACE('',(#148),#184,.T.);
#148 = FACE_BOUND('',#149,.T.);
#149 = EDGE_LOOP('',(#150,#161,#169,#178));
#150 = ORIENTED_EDGE('',*,*,#151,.F.);
#151 = EDGE_CURVE('',#152,#154,#156,.T.);
#152 = VERTEX_POINT('',#153);
#153 = CARTESIAN_POINT('',(-5.55,0.E+000,1.05));
#154 = VERTEX_POINT('',#155);
#155 = CARTESIAN_POINT('',(-3.2,-2.35,1.05));
#156 = CIRCLE('',#157,2.35);
#157 = AXIS2_PLACEMENT_3D('',#158,#159,#160);
#158 = CARTESIAN_POINT('',(-3.2,0.E+000,1.05));
#159 = DIRECTION('',(0.E+000,0.E+000,1.));
#160 = DIRECTION('',(1.,0.E+000,0.E+000));
#161 = ORIENTED_EDGE('',*,*,#162,.T.);
#162 = EDGE_CURVE('',#152,#163,#165,.T.);
#163 = VERTEX_POINT('',#164);
#164 = CARTESIAN_POINT('',(-5.55,0.E+000,0.7));
#165 = LINE('',#166,#167);
#166 = CARTESIAN_POINT('',(-5.55,0.E+000,1.05));
#167 = VECTOR('',#168,1.);
#168 = DIRECTION('',(-0.E+000,-0.E+000,-1.));
#169 = ORIENTED_EDGE('',*,*,#170,.T.);
#170 = EDGE_CURVE('',#163,#171,#173,.T.);
#171 = VERTEX_POINT('',#172);
#172 = CARTESIAN_POINT('',(-3.2,-2.35,0.7));
#173 = CIRCLE('',#174,2.35);
#174 = AXIS2_PLACEMENT_3D('',#175,#176,#177);
#175 = CARTESIAN_POINT('',(-3.2,0.E+000,0.7));
#176 = DIRECTION('',(0.E+000,0.E+000,1.));
#177 = DIRECTION('',(1.,0.E+000,0.E+000));
#178 = ORIENTED_EDGE('',*,*,#179,.F.);
#179 = EDGE_CURVE('',#154,#171,#180,.T.);
#180 = LINE('',#181,#182);
#181 = CARTESIAN_POINT('',(-3.2,-2.35,1.05));
#182 = VECTOR('',#183,1.);
#183 = DIRECTION('',(-0.E+000,-0.E+000,-1.));
#184 = CYLINDRICAL_SURFACE('',#185,2.35);
#185 = AXIS2_PLACEMENT_3D('',#186,#187,#188);
#186 = CARTESIAN_POINT('',(-3.2,0.E+000,1.05));
#187 = DIRECTION('',(-0.E+000,-0.E+000,-1.));
#188 = DIRECTION('',(-1.,0.E+000,0.E+000));
#189 = ADVANCED_FACE('',(#190,#260),#295,.T.);
#190 = FACE_BOUND('',#191,.T.);
#191 = EDGE_LOOP('',(#192,#202,#211,#219,#228,#236,#245,#253));
#192 = ORIENTED_EDGE('',*,*,#193,.T.);
#193 = EDGE_CURVE('',#194,#196,#198,.T.);
#194 = VERTEX_POINT('',#195);
#195 = CARTESIAN_POINT('',(5.8,-2.165,0.7));
#196 = VERTEX_POINT('',#197);
#197 = CARTESIAN_POINT('',(5.8,2.165,0.7));
#198 = LINE('',#199,#200);
#199 = CARTESIAN_POINT('',(5.8,0.E+000,0.7));
#200 = VECTOR('',#201,1.);
#201 = DIRECTION('',(0.E+000,1.,0.E+000));
#202 = ORIENTED_EDGE('',*,*,#203,.T.);
#203 = EDGE_CURVE('',#196,#204,#206,.T.);
#204 = VERTEX_POINT('',#205);
#205 = CARTESIAN_POINT('',(5.55,2.415,0.7));
#206 = CIRCLE('',#207,0.25);
#207 = AXIS2_PLACEMENT_3D('',#208,#209,#210);
#208 = CARTESIAN_POINT('',(5.55,2.165,0.7));
#209 = DIRECTION('',(0.E+000,0.E+000,1.));
#210 = DIRECTION('',(1.,0.E+000,0.E+000));
#211 = ORIENTED_EDGE('',*,*,#212,.F.);
#212 = EDGE_CURVE('',#213,#204,#215,.T.);
#213 = VERTEX_POINT('',#214);
#214 = CARTESIAN_POINT('',(-5.55,2.415,0.7));
#215 = LINE('',#216,#217);
#216 = CARTESIAN_POINT('',(0.E+000,2.415,0.7));
#217 = VECTOR('',#218,1.);
#218 = DIRECTION('',(1.,0.E+000,0.E+000));
#219 = ORIENTED_EDGE('',*,*,#220,.T.);
#220 = EDGE_CURVE('',#213,#221,#223,.T.);
#221 = VERTEX_POINT('',#222);
#222 = CARTESIAN_POINT('',(-5.8,2.165,0.7));
#223 = CIRCLE('',#224,0.25);
#224 = AXIS2_PLACEMENT_3D('',#225,#226,#227);
#225 = CARTESIAN_POINT('',(-5.55,2.165,0.7));
#226 = DIRECTION('',(0.E+000,0.E+000,1.));
#227 = DIRECTION('',(1.,0.E+000,0.E+000));
#228 = ORIENTED_EDGE('',*,*,#229,.F.);
#229 = EDGE_CURVE('',#230,#221,#232,.T.);
#230 = VERTEX_POINT('',#231);
#231 = CARTESIAN_POINT('',(-5.8,-2.165,0.7));
#232 = LINE('',#233,#234);
#233 = CARTESIAN_POINT('',(-5.8,0.E+000,0.7));
#234 = VECTOR('',#235,1.);
#235 = DIRECTION('',(0.E+000,1.,0.E+000));
#236 = ORIENTED_EDGE('',*,*,#237,.T.);
#237 = EDGE_CURVE('',#230,#238,#240,.T.);
#238 = VERTEX_POINT('',#239);
#239 = CARTESIAN_POINT('',(-5.55,-2.415,0.7));
#240 = CIRCLE('',#241,0.25);
#241 = AXIS2_PLACEMENT_3D('',#242,#243,#244);
#242 = CARTESIAN_POINT('',(-5.55,-2.165,0.7));
#243 = DIRECTION('',(0.E+000,0.E+000,1.));
#244 = DIRECTION('',(1.,0.E+000,0.E+000));
#245 = ORIENTED_EDGE('',*,*,#246,.T.);
#246 = EDGE_CURVE('',#238,#247,#249,.T.);
#247 = VERTEX_POINT('',#248);
#248 = CARTESIAN_POINT('',(5.55,-2.415,0.7));
#249 = LINE('',#250,#251);
#250 = CARTESIAN_POINT('',(0.E+000,-2.415,0.7));
#251 = VECTOR('',#252,1.);
#252 = DIRECTION('',(1.,0.E+000,0.E+000));
#253 = ORIENTED_EDGE('',*,*,#254,.T.);
#254 = EDGE_CURVE('',#247,#194,#255,.T.);
#255 = CIRCLE('',#256,0.25);
#256 = AXIS2_PLACEMENT_3D('',#257,#258,#259);
#257 = CARTESIAN_POINT('',(5.55,-2.165,0.7));
#258 = DIRECTION('',(0.E+000,0.E+000,1.));
#259 = DIRECTION('',(1.,0.E+000,0.E+000));
#260 = FACE_BOUND('',#261,.T.);
#261 = EDGE_LOOP('',(#262,#270,#271,#280,#288));
#262 = ORIENTED_EDGE('',*,*,#263,.F.);
#263 = EDGE_CURVE('',#171,#264,#266,.T.);
#264 = VERTEX_POINT('',#265);
#265 = CARTESIAN_POINT('',(3.2,-2.35,0.7));
#266 = LINE('',#267,#268);
#267 = CARTESIAN_POINT('',(-3.2,-2.35,0.7));
#268 = VECTOR('',#269,1.);
#269 = DIRECTION('',(1.,0.E+000,0.E+000));
#270 = ORIENTED_EDGE('',*,*,#170,.F.);
#271 = ORIENTED_EDGE('',*,*,#272,.F.);
#272 = EDGE_CURVE('',#273,#163,#275,.T.);
#273 = VERTEX_POINT('',#274);
#274 = CARTESIAN_POINT('',(-3.2,2.35,0.7));
#275 = CIRCLE('',#276,2.35);
#276 = AXIS2_PLACEMENT_3D('',#277,#278,#279);
#277 = CARTESIAN_POINT('',(-3.2,0.E+000,0.7));
#278 = DIRECTION('',(0.E+000,0.E+000,1.));
#279 = DIRECTION('',(1.,0.E+000,0.E+000));
#280 = ORIENTED_EDGE('',*,*,#281,.F.);
#281 = EDGE_CURVE('',#282,#273,#284,.T.);
#282 = VERTEX_POINT('',#283);
#283 = CARTESIAN_POINT('',(3.2,2.35,0.7));
#284 = LINE('',#285,#286);
#285 = CARTESIAN_POINT('',(-3.2,2.35,0.7));
#286 = VECTOR('',#287,1.);
#287 = DIRECTION('',(-1.,-0.E+000,-0.E+000));
#288 = ORIENTED_EDGE('',*,*,#289,.F.);
#289 = EDGE_CURVE('',#264,#282,#290,.T.);
#290 = CIRCLE('',#291,2.35);
#291 = AXIS2_PLACEMENT_3D('',#292,#293,#294);
#292 = CARTESIAN_POINT('',(3.2,0.E+000,0.7));
#293 = DIRECTION('',(0.E+000,0.E+000,1.));
#294 = DIRECTION('',(1.,0.E+000,0.E+000));
#295 = PLANE('',#296);
#296 = AXIS2_PLACEMENT_3D('',#297,#298,#299);
#297 = CARTESIAN_POINT('',(0.E+000,0.E+000,0.7));
#298 = DIRECTION('',(0.E+000,0.E+000,1.));
#299 = DIRECTION('',(1.,0.E+000,0.E+000));
#300 = ADVANCED_FACE('',(#301),#367,.F.);
#301 = FACE_BOUND('',#302,.T.);
#302 = EDGE_LOOP('',(#303,#313,#321,#329,#337,#345,#353,#361));
#303 = ORIENTED_EDGE('',*,*,#304,.F.);
#304 = EDGE_CURVE('',#305,#307,#309,.T.);
#305 = VERTEX_POINT('',#306);
#306 = CARTESIAN_POINT('',(-2.45,-0.45,0.35));
#307 = VERTEX_POINT('',#308);
#308 = CARTESIAN_POINT('',(-5.8,-0.45,0.35));
#309 = LINE('',#310,#311);
#310 = CARTESIAN_POINT('',(0.E+000,-0.45,0.35));
#311 = VECTOR('',#312,1.);
#312 = DIRECTION('',(-1.,0.E+000,0.E+000));
#313 = ORIENTED_EDGE('',*,*,#314,.T.);
#314 = EDGE_CURVE('',#305,#315,#317,.T.);
#315 = VERTEX_POINT('',#316);
#316 = CARTESIAN_POINT('',(-2.45,0.45,0.35));
#317 = LINE('',#318,#319);
#318 = CARTESIAN_POINT('',(-2.45,-0.45,0.35));
#319 = VECTOR('',#320,1.);
#320 = DIRECTION('',(0.E+000,1.,0.E+000));
#321 = ORIENTED_EDGE('',*,*,#322,.T.);
#322 = EDGE_CURVE('',#315,#323,#325,.T.);
#323 = VERTEX_POINT('',#324);
#324 = CARTESIAN_POINT('',(-5.8,0.45,0.35));
#325 = LINE('',#326,#327);
#326 = CARTESIAN_POINT('',(-2.45,0.45,0.35));
#327 = VECTOR('',#328,1.);
#328 = DIRECTION('',(-1.,1.372407813273E-017,0.E+000));
#329 = ORIENTED_EDGE('',*,*,#330,.T.);
#330 = EDGE_CURVE('',#323,#331,#333,.T.);
#331 = VERTEX_POINT('',#332);
#332 = CARTESIAN_POINT('',(-5.8,0.55,0.35));
#333 = LINE('',#334,#335);
#334 = CARTESIAN_POINT('',(-5.8,0.E+000,0.35));
#335 = VECTOR('',#336,1.);
#336 = DIRECTION('',(0.E+000,1.,0.E+000));
#337 = ORIENTED_EDGE('',*,*,#338,.F.);
#338 = EDGE_CURVE('',#339,#331,#341,.T.);
#339 = VERTEX_POINT('',#340);
#340 = CARTESIAN_POINT('',(-2.35,0.55,0.35));
#341 = LINE('',#342,#343);
#342 = CARTESIAN_POINT('',(0.E+000,0.55,0.35));
#343 = VECTOR('',#344,1.);
#344 = DIRECTION('',(-1.,0.E+000,0.E+000));
#345 = ORIENTED_EDGE('',*,*,#346,.F.);
#346 = EDGE_CURVE('',#347,#339,#349,.T.);
#347 = VERTEX_POINT('',#348);
#348 = CARTESIAN_POINT('',(-2.35,-0.55,0.35));
#349 = LINE('',#350,#351);
#350 = CARTESIAN_POINT('',(-2.35,3.706000153223E-015,0.35));
#351 = VECTOR('',#352,1.);
#352 = DIRECTION('',(1.577021341797E-015,1.,0.E+000));
#353 = ORIENTED_EDGE('',*,*,#354,.F.);
#354 = EDGE_CURVE('',#355,#347,#357,.T.);
#355 = VERTEX_POINT('',#356);
#356 = CARTESIAN_POINT('',(-5.8,-0.55,0.35));
#357 = LINE('',#358,#359);
#358 = CARTESIAN_POINT('',(0.E+000,-0.55,0.35));
#359 = VECTOR('',#360,1.);
#360 = DIRECTION('',(1.,0.E+000,0.E+000));
#361 = ORIENTED_EDGE('',*,*,#362,.T.);
#362 = EDGE_CURVE('',#355,#307,#363,.T.);
#363 = LINE('',#364,#365);
#364 = CARTESIAN_POINT('',(-5.8,0.E+000,0.35));
#365 = VECTOR('',#366,1.);
#366 = DIRECTION('',(0.E+000,1.,0.E+000));
#367 = PLANE('',#368);
#368 = AXIS2_PLACEMENT_3D('',#369,#370,#371);
#369 = CARTESIAN_POINT('',(0.E+000,0.E+000,0.35));
#370 = DIRECTION('',(0.E+000,0.E+000,1.));
#371 = DIRECTION('',(1.,0.E+000,0.E+000));
#372 = ADVANCED_FACE('',(#373),#439,.F.);
#373 = FACE_BOUND('',#374,.T.);
#374 = EDGE_LOOP('',(#375,#385,#393,#401,#409,#417,#425,#433));
#375 = ORIENTED_EDGE('',*,*,#376,.F.);
#376 = EDGE_CURVE('',#377,#379,#381,.T.);
#377 = VERTEX_POINT('',#378);
#378 = CARTESIAN_POINT('',(2.45,0.45,0.35));
#379 = VERTEX_POINT('',#380);
#380 = CARTESIAN_POINT('',(5.8,0.45,0.35));
#381 = LINE('',#382,#383);
#382 = CARTESIAN_POINT('',(0.E+000,0.45,0.35));
#383 = VECTOR('',#384,1.);
#384 = DIRECTION('',(1.,0.E+000,0.E+000));
#385 = ORIENTED_EDGE('',*,*,#386,.T.);
#386 = EDGE_CURVE('',#377,#387,#389,.T.);
#387 = VERTEX_POINT('',#388);
#388 = CARTESIAN_POINT('',(2.45,-0.45,0.35));
#389 = LINE('',#390,#391);
#390 = CARTESIAN_POINT('',(2.45,-0.45,0.35));
#391 = VECTOR('',#392,1.);
#392 = DIRECTION('',(-0.E+000,-1.,-0.E+000));
#393 = ORIENTED_EDGE('',*,*,#394,.T.);
#394 = EDGE_CURVE('',#387,#395,#397,.T.);
#395 = VERTEX_POINT('',#396);
#396 = CARTESIAN_POINT('',(5.8,-0.45,0.35));
#397 = LINE('',#398,#399);
#398 = CARTESIAN_POINT('',(2.45,-0.45,0.35));
#399 = VECTOR('',#400,1.);
#400 = DIRECTION('',(1.,-1.372407813273E-017,0.E+000));
#401 = ORIENTED_EDGE('',*,*,#402,.F.);
#402 = EDGE_CURVE('',#403,#395,#405,.T.);
#403 = VERTEX_POINT('',#404);
#404 = CARTESIAN_POINT('',(5.8,-0.55,0.35));
#405 = LINE('',#406,#407);
#406 = CARTESIAN_POINT('',(5.8,0.E+000,0.35));
#407 = VECTOR('',#408,1.);
#408 = DIRECTION('',(0.E+000,1.,0.E+000));
#409 = ORIENTED_EDGE('',*,*,#410,.F.);
#410 = EDGE_CURVE('',#411,#403,#413,.T.);
#411 = VERTEX_POINT('',#412);
#412 = CARTESIAN_POINT('',(2.35,-0.55,0.35));
#413 = LINE('',#414,#415);
#414 = CARTESIAN_POINT('',(0.E+000,-0.55,0.35));
#415 = VECTOR('',#416,1.);
#416 = DIRECTION('',(1.,0.E+000,0.E+000));
#417 = ORIENTED_EDGE('',*,*,#418,.F.);
#418 = EDGE_CURVE('',#419,#411,#421,.T.);
#419 = VERTEX_POINT('',#420);
#420 = CARTESIAN_POINT('',(2.35,0.55,0.35));
#421 = LINE('',#422,#423);
#422 = CARTESIAN_POINT('',(2.35,0.E+000,0.35));
#423 = VECTOR('',#424,1.);
#424 = DIRECTION('',(0.E+000,-1.,0.E+000));
#425 = ORIENTED_EDGE('',*,*,#426,.F.);
#426 = EDGE_CURVE('',#427,#419,#429,.T.);
#427 = VERTEX_POINT('',#428);
#428 = CARTESIAN_POINT('',(5.8,0.55,0.35));
#429 = LINE('',#430,#431);
#430 = CARTESIAN_POINT('',(0.E+000,0.55,0.35));
#431 = VECTOR('',#432,1.);
#432 = DIRECTION('',(-1.,0.E+000,0.E+000));
#433 = ORIENTED_EDGE('',*,*,#434,.F.);
#434 = EDGE_CURVE('',#379,#427,#435,.T.);
#435 = LINE('',#436,#437);
#436 = CARTESIAN_POINT('',(5.8,0.E+000,0.35));
#437 = VECTOR('',#438,1.);
#438 = DIRECTION('',(0.E+000,1.,0.E+000));
#439 = PLANE('',#440);
#440 = AXIS2_PLACEMENT_3D('',#441,#442,#443);
#441 = CARTESIAN_POINT('',(0.E+000,0.E+000,0.35));
#442 = DIRECTION('',(0.E+000,0.E+000,1.));
#443 = DIRECTION('',(1.,0.E+000,0.E+000));
#444 = ADVANCED_FACE('',(#445),#579,.F.);
#445 = FACE_BOUND('',#446,.T.);
#446 = EDGE_LOOP('',(#447,#457,#466,#474,#482,#490,#498,#506,#515,#523,
    #532,#540,#548,#556,#564,#572));
#447 = ORIENTED_EDGE('',*,*,#448,.T.);
#448 = EDGE_CURVE('',#449,#451,#453,.T.);
#449 = VERTEX_POINT('',#450);
#450 = CARTESIAN_POINT('',(-5.55,2.415,0.E+000));
#451 = VERTEX_POINT('',#452);
#452 = CARTESIAN_POINT('',(5.55,2.415,0.E+000));
#453 = LINE('',#454,#455);
#454 = CARTESIAN_POINT('',(0.E+000,2.415,0.E+000));
#455 = VECTOR('',#456,1.);
#456 = DIRECTION('',(1.,0.E+000,0.E+000));
#457 = ORIENTED_EDGE('',*,*,#458,.T.);
#458 = EDGE_CURVE('',#451,#459,#461,.T.);
#459 = VERTEX_POINT('',#460);
#460 = CARTESIAN_POINT('',(5.8,2.165,0.E+000));
#461 = CIRCLE('',#462,0.25);
#462 = AXIS2_PLACEMENT_3D('',#463,#464,#465);
#463 = CARTESIAN_POINT('',(5.55,2.165,0.E+000));
#464 = DIRECTION('',(0.E+000,0.E+000,-1.));
#465 = DIRECTION('',(1.,0.E+000,0.E+000));
#466 = ORIENTED_EDGE('',*,*,#467,.F.);
#467 = EDGE_CURVE('',#468,#459,#470,.T.);
#468 = VERTEX_POINT('',#469);
#469 = CARTESIAN_POINT('',(5.8,0.55,0.E+000));
#470 = LINE('',#471,#472);
#471 = CARTESIAN_POINT('',(5.8,0.E+000,0.E+000));
#472 = VECTOR('',#473,1.);
#473 = DIRECTION('',(0.E+000,1.,0.E+000));
#474 = ORIENTED_EDGE('',*,*,#475,.T.);
#475 = EDGE_CURVE('',#468,#476,#478,.T.);
#476 = VERTEX_POINT('',#477);
#477 = CARTESIAN_POINT('',(2.35,0.55,0.E+000));
#478 = LINE('',#479,#480);
#479 = CARTESIAN_POINT('',(0.E+000,0.55,0.E+000));
#480 = VECTOR('',#481,1.);
#481 = DIRECTION('',(-1.,0.E+000,0.E+000));
#482 = ORIENTED_EDGE('',*,*,#483,.T.);
#483 = EDGE_CURVE('',#476,#484,#486,.T.);
#484 = VERTEX_POINT('',#485);
#485 = CARTESIAN_POINT('',(2.35,-0.55,0.E+000));
#486 = LINE('',#487,#488);
#487 = CARTESIAN_POINT('',(2.35,0.E+000,0.E+000));
#488 = VECTOR('',#489,1.);
#489 = DIRECTION('',(0.E+000,-1.,0.E+000));
#490 = ORIENTED_EDGE('',*,*,#491,.T.);
#491 = EDGE_CURVE('',#484,#492,#494,.T.);
#492 = VERTEX_POINT('',#493);
#493 = CARTESIAN_POINT('',(5.8,-0.55,0.E+000));
#494 = LINE('',#495,#496);
#495 = CARTESIAN_POINT('',(0.E+000,-0.55,0.E+000));
#496 = VECTOR('',#497,1.);
#497 = DIRECTION('',(1.,0.E+000,0.E+000));
#498 = ORIENTED_EDGE('',*,*,#499,.F.);
#499 = EDGE_CURVE('',#500,#492,#502,.T.);
#500 = VERTEX_POINT('',#501);
#501 = CARTESIAN_POINT('',(5.8,-2.165,0.E+000));
#502 = LINE('',#503,#504);
#503 = CARTESIAN_POINT('',(5.8,0.E+000,0.E+000));
#504 = VECTOR('',#505,1.);
#505 = DIRECTION('',(0.E+000,1.,0.E+000));
#506 = ORIENTED_EDGE('',*,*,#507,.T.);
#507 = EDGE_CURVE('',#500,#508,#510,.T.);
#508 = VERTEX_POINT('',#509);
#509 = CARTESIAN_POINT('',(5.55,-2.415,0.E+000));
#510 = CIRCLE('',#511,0.25);
#511 = AXIS2_PLACEMENT_3D('',#512,#513,#514);
#512 = CARTESIAN_POINT('',(5.55,-2.165,0.E+000));
#513 = DIRECTION('',(0.E+000,0.E+000,-1.));
#514 = DIRECTION('',(1.,0.E+000,0.E+000));
#515 = ORIENTED_EDGE('',*,*,#516,.F.);
#516 = EDGE_CURVE('',#517,#508,#519,.T.);
#517 = VERTEX_POINT('',#518);
#518 = CARTESIAN_POINT('',(-5.55,-2.415,0.E+000));
#519 = LINE('',#520,#521);
#520 = CARTESIAN_POINT('',(0.E+000,-2.415,0.E+000));
#521 = VECTOR('',#522,1.);
#522 = DIRECTION('',(1.,0.E+000,0.E+000));
#523 = ORIENTED_EDGE('',*,*,#524,.T.);
#524 = EDGE_CURVE('',#517,#525,#527,.T.);
#525 = VERTEX_POINT('',#526);
#526 = CARTESIAN_POINT('',(-5.8,-2.165,0.E+000));
#527 = CIRCLE('',#528,0.25);
#528 = AXIS2_PLACEMENT_3D('',#529,#530,#531);
#529 = CARTESIAN_POINT('',(-5.55,-2.165,0.E+000));
#530 = DIRECTION('',(0.E+000,0.E+000,-1.));
#531 = DIRECTION('',(1.,0.E+000,0.E+000));
#532 = ORIENTED_EDGE('',*,*,#533,.T.);
#533 = EDGE_CURVE('',#525,#534,#536,.T.);
#534 = VERTEX_POINT('',#535);
#535 = CARTESIAN_POINT('',(-5.8,-0.55,0.E+000));
#536 = LINE('',#537,#538);
#537 = CARTESIAN_POINT('',(-5.8,0.E+000,0.E+000));
#538 = VECTOR('',#539,1.);
#539 = DIRECTION('',(0.E+000,1.,0.E+000));
#540 = ORIENTED_EDGE('',*,*,#541,.T.);
#541 = EDGE_CURVE('',#534,#542,#544,.T.);
#542 = VERTEX_POINT('',#543);
#543 = CARTESIAN_POINT('',(-2.35,-0.55,0.E+000));
#544 = LINE('',#545,#546);
#545 = CARTESIAN_POINT('',(0.E+000,-0.55,0.E+000));
#546 = VECTOR('',#547,1.);
#547 = DIRECTION('',(1.,0.E+000,0.E+000));
#548 = ORIENTED_EDGE('',*,*,#549,.T.);
#549 = EDGE_CURVE('',#542,#550,#552,.T.);
#550 = VERTEX_POINT('',#551);
#551 = CARTESIAN_POINT('',(-2.35,0.55,0.E+000));
#552 = LINE('',#553,#554);
#553 = CARTESIAN_POINT('',(-2.35,3.706000153223E-015,0.E+000));
#554 = VECTOR('',#555,1.);
#555 = DIRECTION('',(1.577021341797E-015,1.,0.E+000));
#556 = ORIENTED_EDGE('',*,*,#557,.T.);
#557 = EDGE_CURVE('',#550,#558,#560,.T.);
#558 = VERTEX_POINT('',#559);
#559 = CARTESIAN_POINT('',(-5.8,0.55,0.E+000));
#560 = LINE('',#561,#562);
#561 = CARTESIAN_POINT('',(0.E+000,0.55,0.E+000));
#562 = VECTOR('',#563,1.);
#563 = DIRECTION('',(-1.,0.E+000,0.E+000));
#564 = ORIENTED_EDGE('',*,*,#565,.T.);
#565 = EDGE_CURVE('',#558,#566,#568,.T.);
#566 = VERTEX_POINT('',#567);
#567 = CARTESIAN_POINT('',(-5.8,2.165,0.E+000));
#568 = LINE('',#569,#570);
#569 = CARTESIAN_POINT('',(-5.8,0.E+000,0.E+000));
#570 = VECTOR('',#571,1.);
#571 = DIRECTION('',(0.E+000,1.,0.E+000));
#572 = ORIENTED_EDGE('',*,*,#573,.T.);
#573 = EDGE_CURVE('',#566,#449,#574,.T.);
#574 = CIRCLE('',#575,0.25);
#575 = AXIS2_PLACEMENT_3D('',#576,#577,#578);
#576 = CARTESIAN_POINT('',(-5.55,2.165,0.E+000));
#577 = DIRECTION('',(0.E+000,0.E+000,-1.));
#578 = DIRECTION('',(1.,0.E+000,0.E+000));
#579 = PLANE('',#580);
#580 = AXIS2_PLACEMENT_3D('',#581,#582,#583);
#581 = CARTESIAN_POINT('',(0.E+000,0.E+000,0.E+000));
#582 = DIRECTION('',(0.E+000,0.E+000,1.));
#583 = DIRECTION('',(1.,0.E+000,0.E+000));
#584 = ADVANCED_FACE('',(#585),#622,.T.);
#585 = FACE_BOUND('',#586,.T.);
#586 = EDGE_LOOP('',(#587,#588,#594,#595,#601,#602,#608,#609,#615,#616)
  );
#587 = ORIENTED_EDGE('',*,*,#229,.T.);
#588 = ORIENTED_EDGE('',*,*,#589,.T.);
#589 = EDGE_CURVE('',#221,#566,#590,.T.);
#590 = LINE('',#591,#592);
#591 = CARTESIAN_POINT('',(-5.8,2.165,0.7));
#592 = VECTOR('',#593,1.);
#593 = DIRECTION('',(0.E+000,0.E+000,-1.));
#594 = ORIENTED_EDGE('',*,*,#565,.F.);
#595 = ORIENTED_EDGE('',*,*,#596,.F.);
#596 = EDGE_CURVE('',#331,#558,#597,.T.);
#597 = LINE('',#598,#599);
#598 = CARTESIAN_POINT('',(-5.8,0.55,0.35));
#599 = VECTOR('',#600,1.);
#600 = DIRECTION('',(0.E+000,0.E+000,-1.));
#601 = ORIENTED_EDGE('',*,*,#330,.F.);
#602 = ORIENTED_EDGE('',*,*,#603,.F.);
#603 = EDGE_CURVE('',#307,#323,#604,.T.);
#604 = LINE('',#605,#606);
#605 = CARTESIAN_POINT('',(-5.8,0.E+000,0.35));
#606 = VECTOR('',#607,1.);
#607 = DIRECTION('',(0.E+000,1.,0.E+000));
#608 = ORIENTED_EDGE('',*,*,#362,.F.);
#609 = ORIENTED_EDGE('',*,*,#610,.T.);
#610 = EDGE_CURVE('',#355,#534,#611,.T.);
#611 = LINE('',#612,#613);
#612 = CARTESIAN_POINT('',(-5.8,-0.55,0.35));
#613 = VECTOR('',#614,1.);
#614 = DIRECTION('',(0.E+000,0.E+000,-1.));
#615 = ORIENTED_EDGE('',*,*,#533,.F.);
#616 = ORIENTED_EDGE('',*,*,#617,.T.);
#617 = EDGE_CURVE('',#525,#230,#618,.T.);
#618 = LINE('',#619,#620);
#619 = CARTESIAN_POINT('',(-5.8,-2.165,0.7));
#620 = VECTOR('',#621,1.);
#621 = DIRECTION('',(0.E+000,0.E+000,1.));
#622 = PLANE('',#623);
#623 = AXIS2_PLACEMENT_3D('',#624,#625,#626);
#624 = CARTESIAN_POINT('',(-5.8,0.E+000,0.7));
#625 = DIRECTION('',(-1.,0.E+000,0.E+000));
#626 = DIRECTION('',(0.E+000,0.E+000,1.));
#627 = ADVANCED_FACE('',(#628),#665,.F.);
#628 = FACE_BOUND('',#629,.T.);
#629 = EDGE_LOOP('',(#630,#631,#637,#638,#644,#645,#651,#652,#658,#659)
  );
#630 = ORIENTED_EDGE('',*,*,#467,.T.);
#631 = ORIENTED_EDGE('',*,*,#632,.T.);
#632 = EDGE_CURVE('',#459,#196,#633,.T.);
#633 = LINE('',#634,#635);
#634 = CARTESIAN_POINT('',(5.8,2.165,0.7));
#635 = VECTOR('',#636,1.);
#636 = DIRECTION('',(0.E+000,0.E+000,1.));
#637 = ORIENTED_EDGE('',*,*,#193,.F.);
#638 = ORIENTED_EDGE('',*,*,#639,.T.);
#639 = EDGE_CURVE('',#194,#500,#640,.T.);
#640 = LINE('',#641,#642);
#641 = CARTESIAN_POINT('',(5.8,-2.165,0.7));
#642 = VECTOR('',#643,1.);
#643 = DIRECTION('',(0.E+000,0.E+000,-1.));
#644 = ORIENTED_EDGE('',*,*,#499,.T.);
#645 = ORIENTED_EDGE('',*,*,#646,.F.);
#646 = EDGE_CURVE('',#403,#492,#647,.T.);
#647 = LINE('',#648,#649);
#648 = CARTESIAN_POINT('',(5.8,-0.55,0.35));
#649 = VECTOR('',#650,1.);
#650 = DIRECTION('',(0.E+000,0.E+000,-1.));
#651 = ORIENTED_EDGE('',*,*,#402,.T.);
#652 = ORIENTED_EDGE('',*,*,#653,.T.);
#653 = EDGE_CURVE('',#395,#379,#654,.T.);
#654 = LINE('',#655,#656);
#655 = CARTESIAN_POINT('',(5.8,0.E+000,0.35));
#656 = VECTOR('',#657,1.);
#657 = DIRECTION('',(0.E+000,1.,0.E+000));
#658 = ORIENTED_EDGE('',*,*,#434,.T.);
#659 = ORIENTED_EDGE('',*,*,#660,.T.);
#660 = EDGE_CURVE('',#427,#468,#661,.T.);
#661 = LINE('',#662,#663);
#662 = CARTESIAN_POINT('',(5.8,0.55,0.35));
#663 = VECTOR('',#664,1.);
#664 = DIRECTION('',(0.E+000,0.E+000,-1.));
#665 = PLANE('',#666);
#666 = AXIS2_PLACEMENT_3D('',#667,#668,#669);
#667 = CARTESIAN_POINT('',(5.8,0.E+000,0.7));
#668 = DIRECTION('',(-1.,0.E+000,0.E+000));
#669 = DIRECTION('',(0.E+000,0.E+000,1.));
#670 = ADVANCED_FACE('',(#671),#687,.F.);
#671 = FACE_BOUND('',#672,.T.);
#672 = EDGE_LOOP('',(#673,#674,#680,#681));
#673 = ORIENTED_EDGE('',*,*,#516,.T.);
#674 = ORIENTED_EDGE('',*,*,#675,.T.);
#675 = EDGE_CURVE('',#508,#247,#676,.T.);
#676 = LINE('',#677,#678);
#677 = CARTESIAN_POINT('',(5.55,-2.415,0.7));
#678 = VECTOR('',#679,1.);
#679 = DIRECTION('',(0.E+000,0.E+000,1.));
#680 = ORIENTED_EDGE('',*,*,#246,.F.);
#681 = ORIENTED_EDGE('',*,*,#682,.T.);
#682 = EDGE_CURVE('',#238,#517,#683,.T.);
#683 = LINE('',#684,#685);
#684 = CARTESIAN_POINT('',(-5.55,-2.415,0.E+000));
#685 = VECTOR('',#686,1.);
#686 = DIRECTION('',(0.E+000,0.E+000,-1.));
#687 = PLANE('',#688);
#688 = AXIS2_PLACEMENT_3D('',#689,#690,#691);
#689 = CARTESIAN_POINT('',(0.E+000,-2.415,0.7));
#690 = DIRECTION('',(0.E+000,1.,0.E+000));
#691 = DIRECTION('',(0.E+000,0.E+000,1.));
#692 = ADVANCED_FACE('',(#693),#709,.T.);
#693 = FACE_BOUND('',#694,.T.);
#694 = EDGE_LOOP('',(#695,#696,#702,#703));
#695 = ORIENTED_EDGE('',*,*,#212,.T.);
#696 = ORIENTED_EDGE('',*,*,#697,.T.);
#697 = EDGE_CURVE('',#204,#451,#698,.T.);
#698 = LINE('',#699,#700);
#699 = CARTESIAN_POINT('',(5.55,2.415,0.E+000));
#700 = VECTOR('',#701,1.);
#701 = DIRECTION('',(0.E+000,0.E+000,-1.));
#702 = ORIENTED_EDGE('',*,*,#448,.F.);
#703 = ORIENTED_EDGE('',*,*,#704,.T.);
#704 = EDGE_CURVE('',#449,#213,#705,.T.);
#705 = LINE('',#706,#707);
#706 = CARTESIAN_POINT('',(-5.55,2.415,0.7));
#707 = VECTOR('',#708,1.);
#708 = DIRECTION('',(0.E+000,0.E+000,1.));
#709 = PLANE('',#710);
#710 = AXIS2_PLACEMENT_3D('',#711,#712,#713);
#711 = CARTESIAN_POINT('',(0.E+000,2.415,0.7));
#712 = DIRECTION('',(0.E+000,1.,0.E+000));
#713 = DIRECTION('',(0.E+000,0.E+000,1.));
#714 = ADVANCED_FACE('',(#715),#731,.T.);
#715 = FACE_BOUND('',#716,.T.);
#716 = EDGE_LOOP('',(#717,#718,#724,#725));
#717 = ORIENTED_EDGE('',*,*,#483,.F.);
#718 = ORIENTED_EDGE('',*,*,#719,.F.);
#719 = EDGE_CURVE('',#419,#476,#720,.T.);
#720 = LINE('',#721,#722);
#721 = CARTESIAN_POINT('',(2.35,0.55,0.35));
#722 = VECTOR('',#723,1.);
#723 = DIRECTION('',(0.E+000,0.E+000,-1.));
#724 = ORIENTED_EDGE('',*,*,#418,.T.);
#725 = ORIENTED_EDGE('',*,*,#726,.T.);
#726 = EDGE_CURVE('',#411,#484,#727,.T.);
#727 = LINE('',#728,#729);
#728 = CARTESIAN_POINT('',(2.35,-0.55,0.35));
#729 = VECTOR('',#730,1.);
#730 = DIRECTION('',(0.E+000,0.E+000,-1.));
#731 = PLANE('',#732);
#732 = AXIS2_PLACEMENT_3D('',#733,#734,#735);
#733 = CARTESIAN_POINT('',(2.35,0.E+000,0.35));
#734 = DIRECTION('',(1.,0.E+000,0.E+000));
#735 = DIRECTION('',(0.E+000,0.E+000,-1.));
#736 = ADVANCED_FACE('',(#737),#743,.T.);
#737 = FACE_BOUND('',#738,.T.);
#738 = EDGE_LOOP('',(#739,#740,#741,#742));
#739 = ORIENTED_EDGE('',*,*,#491,.F.);
#740 = ORIENTED_EDGE('',*,*,#726,.F.);
#741 = ORIENTED_EDGE('',*,*,#410,.T.);
#742 = ORIENTED_EDGE('',*,*,#646,.T.);
#743 = PLANE('',#744);
#744 = AXIS2_PLACEMENT_3D('',#745,#746,#747);
#745 = CARTESIAN_POINT('',(0.E+000,-0.55,0.35));
#746 = DIRECTION('',(0.E+000,1.,0.E+000));
#747 = DIRECTION('',(0.E+000,0.E+000,1.));
#748 = ADVANCED_FACE('',(#749),#755,.T.);
#749 = FACE_BOUND('',#750,.T.);
#750 = EDGE_LOOP('',(#751,#752,#753,#754));
#751 = ORIENTED_EDGE('',*,*,#475,.F.);
#752 = ORIENTED_EDGE('',*,*,#660,.F.);
#753 = ORIENTED_EDGE('',*,*,#426,.T.);
#754 = ORIENTED_EDGE('',*,*,#719,.T.);
#755 = PLANE('',#756);
#756 = AXIS2_PLACEMENT_3D('',#757,#758,#759);
#757 = CARTESIAN_POINT('',(0.E+000,0.55,0.35));
#758 = DIRECTION('',(0.E+000,-1.,0.E+000));
#759 = DIRECTION('',(0.E+000,0.E+000,-1.));
#760 = ADVANCED_FACE('',(#761),#777,.T.);
#761 = FACE_BOUND('',#762,.T.);
#762 = EDGE_LOOP('',(#763,#764,#770,#771));
#763 = ORIENTED_EDGE('',*,*,#549,.F.);
#764 = ORIENTED_EDGE('',*,*,#765,.F.);
#765 = EDGE_CURVE('',#347,#542,#766,.T.);
#766 = LINE('',#767,#768);
#767 = CARTESIAN_POINT('',(-2.35,-0.55,0.35));
#768 = VECTOR('',#769,1.);
#769 = DIRECTION('',(0.E+000,0.E+000,-1.));
#770 = ORIENTED_EDGE('',*,*,#346,.T.);
#771 = ORIENTED_EDGE('',*,*,#772,.T.);
#772 = EDGE_CURVE('',#339,#550,#773,.T.);
#773 = LINE('',#774,#775);
#774 = CARTESIAN_POINT('',(-2.35,0.55,0.35));
#775 = VECTOR('',#776,1.);
#776 = DIRECTION('',(0.E+000,0.E+000,-1.));
#777 = PLANE('',#778);
#778 = AXIS2_PLACEMENT_3D('',#779,#780,#781);
#779 = CARTESIAN_POINT('',(-2.35,3.706000153223E-015,0.35));
#780 = DIRECTION('',(-1.,1.577021341797E-015,0.E+000));
#781 = DIRECTION('',(-1.577021341797E-015,-1.,0.E+000));
#782 = ADVANCED_FACE('',(#783),#789,.T.);
#783 = FACE_BOUND('',#784,.T.);
#784 = EDGE_LOOP('',(#785,#786,#787,#788));
#785 = ORIENTED_EDGE('',*,*,#557,.F.);
#786 = ORIENTED_EDGE('',*,*,#772,.F.);
#787 = ORIENTED_EDGE('',*,*,#338,.T.);
#788 = ORIENTED_EDGE('',*,*,#596,.T.);
#789 = PLANE('',#790);
#790 = AXIS2_PLACEMENT_3D('',#791,#792,#793);
#791 = CARTESIAN_POINT('',(0.E+000,0.55,0.35));
#792 = DIRECTION('',(0.E+000,-1.,0.E+000));
#793 = DIRECTION('',(0.E+000,0.E+000,-1.));
#794 = ADVANCED_FACE('',(#795),#801,.T.);
#795 = FACE_BOUND('',#796,.T.);
#796 = EDGE_LOOP('',(#797,#798,#799,#800));
#797 = ORIENTED_EDGE('',*,*,#541,.F.);
#798 = ORIENTED_EDGE('',*,*,#610,.F.);
#799 = ORIENTED_EDGE('',*,*,#354,.T.);
#800 = ORIENTED_EDGE('',*,*,#765,.T.);
#801 = PLANE('',#802);
#802 = AXIS2_PLACEMENT_3D('',#803,#804,#805);
#803 = CARTESIAN_POINT('',(0.E+000,-0.55,0.35));
#804 = DIRECTION('',(0.E+000,1.,0.E+000));
#805 = DIRECTION('',(0.E+000,0.E+000,1.));
#806 = ADVANCED_FACE('',(#807),#832,.F.);
#807 = FACE_BOUND('',#808,.T.);
#808 = EDGE_LOOP('',(#809,#817,#818,#826));
#809 = ORIENTED_EDGE('',*,*,#810,.T.);
#810 = EDGE_CURVE('',#811,#379,#813,.T.);
#811 = VERTEX_POINT('',#812);
#812 = CARTESIAN_POINT('',(6.4,0.45,0.35));
#813 = LINE('',#814,#815);
#814 = CARTESIAN_POINT('',(2.45,0.45,0.35));
#815 = VECTOR('',#816,1.);
#816 = DIRECTION('',(-1.,-0.E+000,-0.E+000));
#817 = ORIENTED_EDGE('',*,*,#653,.F.);
#818 = ORIENTED_EDGE('',*,*,#819,.T.);
#819 = EDGE_CURVE('',#395,#820,#822,.T.);
#820 = VERTEX_POINT('',#821);
#821 = CARTESIAN_POINT('',(6.4,-0.45,0.35));
#822 = LINE('',#823,#824);
#823 = CARTESIAN_POINT('',(2.45,-0.45,0.35));
#824 = VECTOR('',#825,1.);
#825 = DIRECTION('',(1.,-1.372407813273E-017,0.E+000));
#826 = ORIENTED_EDGE('',*,*,#827,.T.);
#827 = EDGE_CURVE('',#820,#811,#828,.T.);
#828 = LINE('',#829,#830);
#829 = CARTESIAN_POINT('',(6.4,-0.45,0.35));
#830 = VECTOR('',#831,1.);
#831 = DIRECTION('',(0.E+000,1.,0.E+000));
#832 = PLANE('',#833);
#833 = AXIS2_PLACEMENT_3D('',#834,#835,#836);
#834 = CARTESIAN_POINT('',(0.E+000,0.E+000,0.35));
#835 = DIRECTION('',(0.E+000,0.E+000,-1.));
#836 = DIRECTION('',(-1.,0.E+000,0.E+000));
#837 = ADVANCED_FACE('',(#838),#863,.F.);
#838 = FACE_BOUND('',#839,.T.);
#839 = EDGE_LOOP('',(#840,#850,#856,#857));
#840 = ORIENTED_EDGE('',*,*,#841,.T.);
#841 = EDGE_CURVE('',#842,#844,#846,.T.);
#842 = VERTEX_POINT('',#843);
#843 = CARTESIAN_POINT('',(6.4,-0.45,0.E+000));
#844 = VERTEX_POINT('',#845);
#845 = CARTESIAN_POINT('',(6.4,0.45,0.E+000));
#846 = LINE('',#847,#848);
#847 = CARTESIAN_POINT('',(6.4,-0.45,0.E+000));
#848 = VECTOR('',#849,1.);
#849 = DIRECTION('',(0.E+000,1.,0.E+000));
#850 = ORIENTED_EDGE('',*,*,#851,.F.);
#851 = EDGE_CURVE('',#811,#844,#852,.T.);
#852 = LINE('',#853,#854);
#853 = CARTESIAN_POINT('',(6.4,0.45,0.35));
#854 = VECTOR('',#855,1.);
#855 = DIRECTION('',(-0.E+000,-0.E+000,-1.));
#856 = ORIENTED_EDGE('',*,*,#827,.F.);
#857 = ORIENTED_EDGE('',*,*,#858,.T.);
#858 = EDGE_CURVE('',#820,#842,#859,.T.);
#859 = LINE('',#860,#861);
#860 = CARTESIAN_POINT('',(6.4,-0.45,0.35));
#861 = VECTOR('',#862,1.);
#862 = DIRECTION('',(-0.E+000,-0.E+000,-1.));
#863 = PLANE('',#864);
#864 = AXIS2_PLACEMENT_3D('',#865,#866,#867);
#865 = CARTESIAN_POINT('',(6.4,-0.45,0.35));
#866 = DIRECTION('',(-1.,0.E+000,0.E+000));
#867 = DIRECTION('',(0.E+000,0.E+000,1.));
#868 = ADVANCED_FACE('',(#869),#888,.F.);
#869 = FACE_BOUND('',#870,.T.);
#870 = EDGE_LOOP('',(#871,#879,#885,#886,#887));
#871 = ORIENTED_EDGE('',*,*,#872,.T.);
#872 = EDGE_CURVE('',#844,#873,#875,.T.);
#873 = VERTEX_POINT('',#874);
#874 = CARTESIAN_POINT('',(2.45,0.45,0.E+000));
#875 = LINE('',#876,#877);
#876 = CARTESIAN_POINT('',(2.45,0.45,0.E+000));
#877 = VECTOR('',#878,1.);
#878 = DIRECTION('',(-1.,-0.E+000,-0.E+000));
#879 = ORIENTED_EDGE('',*,*,#880,.F.);
#880 = EDGE_CURVE('',#377,#873,#881,.T.);
#881 = LINE('',#882,#883);
#882 = CARTESIAN_POINT('',(2.45,0.45,0.35));
#883 = VECTOR('',#884,1.);
#884 = DIRECTION('',(-0.E+000,-0.E+000,-1.));
#885 = ORIENTED_EDGE('',*,*,#376,.T.);
#886 = ORIENTED_EDGE('',*,*,#810,.F.);
#887 = ORIENTED_EDGE('',*,*,#851,.T.);
#888 = PLANE('',#889);
#889 = AXIS2_PLACEMENT_3D('',#890,#891,#892);
#890 = CARTESIAN_POINT('',(2.45,0.45,0.35));
#891 = DIRECTION('',(0.E+000,-1.,0.E+000));
#892 = DIRECTION('',(0.E+000,0.E+000,-1.));
#893 = ADVANCED_FACE('',(#894),#912,.F.);
#894 = FACE_BOUND('',#895,.T.);
#895 = EDGE_LOOP('',(#896,#904,#910,#911));
#896 = ORIENTED_EDGE('',*,*,#897,.T.);
#897 = EDGE_CURVE('',#873,#898,#900,.T.);
#898 = VERTEX_POINT('',#899);
#899 = CARTESIAN_POINT('',(2.45,-0.45,0.E+000));
#900 = LINE('',#901,#902);
#901 = CARTESIAN_POINT('',(2.45,-0.45,0.E+000));
#902 = VECTOR('',#903,1.);
#903 = DIRECTION('',(-0.E+000,-1.,-0.E+000));
#904 = ORIENTED_EDGE('',*,*,#905,.F.);
#905 = EDGE_CURVE('',#387,#898,#906,.T.);
#906 = LINE('',#907,#908);
#907 = CARTESIAN_POINT('',(2.45,-0.45,0.35));
#908 = VECTOR('',#909,1.);
#909 = DIRECTION('',(-0.E+000,-0.E+000,-1.));
#910 = ORIENTED_EDGE('',*,*,#386,.F.);
#911 = ORIENTED_EDGE('',*,*,#880,.T.);
#912 = PLANE('',#913);
#913 = AXIS2_PLACEMENT_3D('',#914,#915,#916);
#914 = CARTESIAN_POINT('',(2.45,-0.45,0.35));
#915 = DIRECTION('',(1.,0.E+000,0.E+000));
#916 = DIRECTION('',(0.E+000,0.E+000,-1.));
#917 = ADVANCED_FACE('',(#918),#930,.F.);
#918 = FACE_BOUND('',#919,.T.);
#919 = EDGE_LOOP('',(#920,#926,#927,#928,#929));
#920 = ORIENTED_EDGE('',*,*,#921,.T.);
#921 = EDGE_CURVE('',#898,#842,#922,.T.);
#922 = LINE('',#923,#924);
#923 = CARTESIAN_POINT('',(2.45,-0.45,0.E+000));
#924 = VECTOR('',#925,1.);
#925 = DIRECTION('',(1.,-1.372407813273E-017,0.E+000));
#926 = ORIENTED_EDGE('',*,*,#858,.F.);
#927 = ORIENTED_EDGE('',*,*,#819,.F.);
#928 = ORIENTED_EDGE('',*,*,#394,.F.);
#929 = ORIENTED_EDGE('',*,*,#905,.T.);
#930 = PLANE('',#931);
#931 = AXIS2_PLACEMENT_3D('',#932,#933,#934);
#932 = CARTESIAN_POINT('',(2.45,-0.45,0.35));
#933 = DIRECTION('',(1.372407813273E-017,1.,0.E+000));
#934 = DIRECTION('',(-1.,1.372407813273E-017,0.E+000));
#935 = ADVANCED_FACE('',(#936),#942,.T.);
#936 = FACE_BOUND('',#937,.T.);
#937 = EDGE_LOOP('',(#938,#939,#940,#941));
#938 = ORIENTED_EDGE('',*,*,#841,.F.);
#939 = ORIENTED_EDGE('',*,*,#921,.F.);
#940 = ORIENTED_EDGE('',*,*,#897,.F.);
#941 = ORIENTED_EDGE('',*,*,#872,.F.);
#942 = PLANE('',#943);
#943 = AXIS2_PLACEMENT_3D('',#944,#945,#946);
#944 = CARTESIAN_POINT('',(0.E+000,0.E+000,0.E+000));
#945 = DIRECTION('',(0.E+000,0.E+000,-1.));
#946 = DIRECTION('',(-1.,0.E+000,0.E+000));
#947 = ADVANCED_FACE('',(#948),#982,.F.);
#948 = FACE_BOUND('',#949,.T.);
#949 = EDGE_LOOP('',(#950,#960,#968,#976));
#950 = ORIENTED_EDGE('',*,*,#951,.T.);
#951 = EDGE_CURVE('',#952,#954,#956,.T.);
#952 = VERTEX_POINT('',#953);
#953 = CARTESIAN_POINT('',(-6.4,0.45,0.E+000));
#954 = VERTEX_POINT('',#955);
#955 = CARTESIAN_POINT('',(-6.4,-0.45,0.E+000));
#956 = LINE('',#957,#958);
#957 = CARTESIAN_POINT('',(-6.4,-0.45,0.E+000));
#958 = VECTOR('',#959,1.);
#959 = DIRECTION('',(-0.E+000,-1.,-0.E+000));
#960 = ORIENTED_EDGE('',*,*,#961,.F.);
#961 = EDGE_CURVE('',#962,#954,#964,.T.);
#962 = VERTEX_POINT('',#963);
#963 = CARTESIAN_POINT('',(-6.4,-0.45,0.35));
#964 = LINE('',#965,#966);
#965 = CARTESIAN_POINT('',(-6.4,-0.45,0.35));
#966 = VECTOR('',#967,1.);
#967 = DIRECTION('',(-0.E+000,-0.E+000,-1.));
#968 = ORIENTED_EDGE('',*,*,#969,.F.);
#969 = EDGE_CURVE('',#970,#962,#972,.T.);
#970 = VERTEX_POINT('',#971);
#971 = CARTESIAN_POINT('',(-6.4,0.45,0.35));
#972 = LINE('',#973,#974);
#973 = CARTESIAN_POINT('',(-6.4,-0.45,0.35));
#974 = VECTOR('',#975,1.);
#975 = DIRECTION('',(-0.E+000,-1.,-0.E+000));
#976 = ORIENTED_EDGE('',*,*,#977,.T.);
#977 = EDGE_CURVE('',#970,#952,#978,.T.);
#978 = LINE('',#979,#980);
#979 = CARTESIAN_POINT('',(-6.4,0.45,0.35));
#980 = VECTOR('',#981,1.);
#981 = DIRECTION('',(-0.E+000,-0.E+000,-1.));
#982 = PLANE('',#983);
#983 = AXIS2_PLACEMENT_3D('',#984,#985,#986);
#984 = CARTESIAN_POINT('',(-6.4,-0.45,0.35));
#985 = DIRECTION('',(1.,0.E+000,0.E+000));
#986 = DIRECTION('',(0.E+000,0.E+000,-1.));
#987 = ADVANCED_FACE('',(#988),#1012,.F.);
#988 = FACE_BOUND('',#989,.T.);
#989 = EDGE_LOOP('',(#990,#998,#1004,#1005,#1011));
#990 = ORIENTED_EDGE('',*,*,#991,.T.);
#991 = EDGE_CURVE('',#954,#992,#994,.T.);
#992 = VERTEX_POINT('',#993);
#993 = CARTESIAN_POINT('',(-2.45,-0.45,0.E+000));
#994 = LINE('',#995,#996);
#995 = CARTESIAN_POINT('',(-2.45,-0.45,0.E+000));
#996 = VECTOR('',#997,1.);
#997 = DIRECTION('',(1.,0.E+000,0.E+000));
#998 = ORIENTED_EDGE('',*,*,#999,.F.);
#999 = EDGE_CURVE('',#305,#992,#1000,.T.);
#1000 = LINE('',#1001,#1002);
#1001 = CARTESIAN_POINT('',(-2.45,-0.45,0.35));
#1002 = VECTOR('',#1003,1.);
#1003 = DIRECTION('',(-0.E+000,-0.E+000,-1.));
#1004 = ORIENTED_EDGE('',*,*,#304,.T.);
#1005 = ORIENTED_EDGE('',*,*,#1006,.F.);
#1006 = EDGE_CURVE('',#962,#307,#1007,.T.);
#1007 = LINE('',#1008,#1009);
#1008 = CARTESIAN_POINT('',(-2.45,-0.45,0.35));
#1009 = VECTOR('',#1010,1.);
#1010 = DIRECTION('',(1.,0.E+000,0.E+000));
#1011 = ORIENTED_EDGE('',*,*,#961,.T.);
#1012 = PLANE('',#1013);
#1013 = AXIS2_PLACEMENT_3D('',#1014,#1015,#1016);
#1014 = CARTESIAN_POINT('',(-2.45,-0.45,0.35));
#1015 = DIRECTION('',(0.E+000,1.,0.E+000));
#1016 = DIRECTION('',(0.E+000,0.E+000,1.));
#1017 = ADVANCED_FACE('',(#1018),#1036,.F.);
#1018 = FACE_BOUND('',#1019,.T.);
#1019 = EDGE_LOOP('',(#1020,#1028,#1034,#1035));
#1020 = ORIENTED_EDGE('',*,*,#1021,.T.);
#1021 = EDGE_CURVE('',#992,#1022,#1024,.T.);
#1022 = VERTEX_POINT('',#1023);
#1023 = CARTESIAN_POINT('',(-2.45,0.45,0.E+000));
#1024 = LINE('',#1025,#1026);
#1025 = CARTESIAN_POINT('',(-2.45,-0.45,0.E+000));
#1026 = VECTOR('',#1027,1.);
#1027 = DIRECTION('',(0.E+000,1.,0.E+000));
#1028 = ORIENTED_EDGE('',*,*,#1029,.F.);
#1029 = EDGE_CURVE('',#315,#1022,#1030,.T.);
#1030 = LINE('',#1031,#1032);
#1031 = CARTESIAN_POINT('',(-2.45,0.45,0.35));
#1032 = VECTOR('',#1033,1.);
#1033 = DIRECTION('',(-0.E+000,-0.E+000,-1.));
#1034 = ORIENTED_EDGE('',*,*,#314,.F.);
#1035 = ORIENTED_EDGE('',*,*,#999,.T.);
#1036 = PLANE('',#1037);
#1037 = AXIS2_PLACEMENT_3D('',#1038,#1039,#1040);
#1038 = CARTESIAN_POINT('',(-2.45,-0.45,0.35));
#1039 = DIRECTION('',(-1.,0.E+000,0.E+000));
#1040 = DIRECTION('',(0.E+000,0.E+000,1.));
#1041 = ADVANCED_FACE('',(#1042),#1059,.F.);
#1042 = FACE_BOUND('',#1043,.T.);
#1043 = EDGE_LOOP('',(#1044,#1050,#1051,#1057,#1058));
#1044 = ORIENTED_EDGE('',*,*,#1045,.T.);
#1045 = EDGE_CURVE('',#1022,#952,#1046,.T.);
#1046 = LINE('',#1047,#1048);
#1047 = CARTESIAN_POINT('',(-2.45,0.45,0.E+000));
#1048 = VECTOR('',#1049,1.);
#1049 = DIRECTION('',(-1.,1.372407813273E-017,0.E+000));
#1050 = ORIENTED_EDGE('',*,*,#977,.F.);
#1051 = ORIENTED_EDGE('',*,*,#1052,.F.);
#1052 = EDGE_CURVE('',#323,#970,#1053,.T.);
#1053 = LINE('',#1054,#1055);
#1054 = CARTESIAN_POINT('',(-2.45,0.45,0.35));
#1055 = VECTOR('',#1056,1.);
#1056 = DIRECTION('',(-1.,1.372407813273E-017,0.E+000));
#1057 = ORIENTED_EDGE('',*,*,#322,.F.);
#1058 = ORIENTED_EDGE('',*,*,#1029,.T.);
#1059 = PLANE('',#1060);
#1060 = AXIS2_PLACEMENT_3D('',#1061,#1062,#1063);
#1061 = CARTESIAN_POINT('',(-2.45,0.45,0.35));
#1062 = DIRECTION('',(-1.372407813273E-017,-1.,0.E+000));
#1063 = DIRECTION('',(1.,-1.372407813273E-017,0.E+000));
#1064 = ADVANCED_FACE('',(#1065),#1071,.T.);
#1065 = FACE_BOUND('',#1066,.T.);
#1066 = EDGE_LOOP('',(#1067,#1068,#1069,#1070));
#1067 = ORIENTED_EDGE('',*,*,#1006,.T.);
#1068 = ORIENTED_EDGE('',*,*,#603,.T.);
#1069 = ORIENTED_EDGE('',*,*,#1052,.T.);
#1070 = ORIENTED_EDGE('',*,*,#969,.T.);
#1071 = PLANE('',#1072);
#1072 = AXIS2_PLACEMENT_3D('',#1073,#1074,#1075);
#1073 = CARTESIAN_POINT('',(0.E+000,0.E+000,0.35));
#1074 = DIRECTION('',(0.E+000,0.E+000,1.));
#1075 = DIRECTION('',(1.,0.E+000,0.E+000));
#1076 = ADVANCED_FACE('',(#1077),#1083,.F.);
#1077 = FACE_BOUND('',#1078,.T.);
#1078 = EDGE_LOOP('',(#1079,#1080,#1081,#1082));
#1079 = ORIENTED_EDGE('',*,*,#951,.F.);
#1080 = ORIENTED_EDGE('',*,*,#1045,.F.);
#1081 = ORIENTED_EDGE('',*,*,#1021,.F.);
#1082 = ORIENTED_EDGE('',*,*,#991,.F.);
#1083 = PLANE('',#1084);
#1084 = AXIS2_PLACEMENT_3D('',#1085,#1086,#1087);
#1085 = CARTESIAN_POINT('',(0.E+000,0.E+000,0.E+000));
#1086 = DIRECTION('',(0.E+000,0.E+000,1.));
#1087 = DIRECTION('',(1.,0.E+000,0.E+000));
#1088 = ADVANCED_FACE('',(#1089),#1108,.T.);
#1089 = FACE_BOUND('',#1090,.T.);
#1090 = EDGE_LOOP('',(#1091,#1092,#1101,#1107));
#1091 = ORIENTED_EDGE('',*,*,#162,.F.);
#1092 = ORIENTED_EDGE('',*,*,#1093,.F.);
#1093 = EDGE_CURVE('',#1094,#152,#1096,.T.);
#1094 = VERTEX_POINT('',#1095);
#1095 = CARTESIAN_POINT('',(-3.2,2.35,1.05));
#1096 = CIRCLE('',#1097,2.35);
#1097 = AXIS2_PLACEMENT_3D('',#1098,#1099,#1100);
#1098 = CARTESIAN_POINT('',(-3.2,0.E+000,1.05));
#1099 = DIRECTION('',(0.E+000,0.E+000,1.));
#1100 = DIRECTION('',(1.,0.E+000,0.E+000));
#1101 = ORIENTED_EDGE('',*,*,#1102,.T.);
#1102 = EDGE_CURVE('',#1094,#273,#1103,.T.);
#1103 = LINE('',#1104,#1105);
#1104 = CARTESIAN_POINT('',(-3.2,2.35,1.05));
#1105 = VECTOR('',#1106,1.);
#1106 = DIRECTION('',(-0.E+000,-0.E+000,-1.));
#1107 = ORIENTED_EDGE('',*,*,#272,.T.);
#1108 = CYLINDRICAL_SURFACE('',#1109,2.35);
#1109 = AXIS2_PLACEMENT_3D('',#1110,#1111,#1112);
#1110 = CARTESIAN_POINT('',(-3.2,0.E+000,1.05));
#1111 = DIRECTION('',(-0.E+000,-0.E+000,-1.));
#1112 = DIRECTION('',(-1.,0.E+000,0.E+000));
#1113 = ADVANCED_FACE('',(#1114),#1132,.F.);
#1114 = FACE_BOUND('',#1115,.T.);
#1115 = EDGE_LOOP('',(#1116,#1117,#1125,#1131));
#1116 = ORIENTED_EDGE('',*,*,#263,.T.);
#1117 = ORIENTED_EDGE('',*,*,#1118,.F.);
#1118 = EDGE_CURVE('',#1119,#264,#1121,.T.);
#1119 = VERTEX_POINT('',#1120);
#1120 = CARTESIAN_POINT('',(3.2,-2.35,1.05));
#1121 = LINE('',#1122,#1123);
#1122 = CARTESIAN_POINT('',(3.2,-2.35,1.05));
#1123 = VECTOR('',#1124,1.);
#1124 = DIRECTION('',(-0.E+000,-0.E+000,-1.));
#1125 = ORIENTED_EDGE('',*,*,#1126,.F.);
#1126 = EDGE_CURVE('',#154,#1119,#1127,.T.);
#1127 = LINE('',#1128,#1129);
#1128 = CARTESIAN_POINT('',(-3.2,-2.35,1.05));
#1129 = VECTOR('',#1130,1.);
#1130 = DIRECTION('',(1.,0.E+000,0.E+000));
#1131 = ORIENTED_EDGE('',*,*,#179,.T.);
#1132 = PLANE('',#1133);
#1133 = AXIS2_PLACEMENT_3D('',#1134,#1135,#1136);
#1134 = CARTESIAN_POINT('',(-3.2,-2.35,1.05));
#1135 = DIRECTION('',(0.E+000,1.,0.E+000));
#1136 = DIRECTION('',(0.E+000,0.E+000,1.));
#1137 = ADVANCED_FACE('',(#1138),#1156,.T.);
#1138 = FACE_BOUND('',#1139,.T.);
#1139 = EDGE_LOOP('',(#1140,#1141,#1147,#1148,#1155));
#1140 = ORIENTED_EDGE('',*,*,#289,.T.);
#1141 = ORIENTED_EDGE('',*,*,#1142,.F.);
#1142 = EDGE_CURVE('',#24,#282,#1143,.T.);
#1143 = LINE('',#1144,#1145);
#1144 = CARTESIAN_POINT('',(3.2,2.35,1.05));
#1145 = VECTOR('',#1146,1.);
#1146 = DIRECTION('',(-0.E+000,-0.E+000,-1.));
#1147 = ORIENTED_EDGE('',*,*,#32,.F.);
#1148 = ORIENTED_EDGE('',*,*,#1149,.F.);
#1149 = EDGE_CURVE('',#1119,#33,#1150,.T.);
#1150 = CIRCLE('',#1151,2.35);
#1151 = AXIS2_PLACEMENT_3D('',#1152,#1153,#1154);
#1152 = CARTESIAN_POINT('',(3.2,0.E+000,1.05));
#1153 = DIRECTION('',(0.E+000,0.E+000,1.));
#1154 = DIRECTION('',(1.,0.E+000,0.E+000));
#1155 = ORIENTED_EDGE('',*,*,#1118,.T.);
#1156 = CYLINDRICAL_SURFACE('',#1157,2.35);
#1157 = AXIS2_PLACEMENT_3D('',#1158,#1159,#1160);
#1158 = CARTESIAN_POINT('',(3.2,0.E+000,1.05));
#1159 = DIRECTION('',(-0.E+000,-0.E+000,-1.));
#1160 = DIRECTION('',(-1.,0.E+000,0.E+000));
#1161 = ADVANCED_FACE('',(#1162),#1173,.F.);
#1162 = FACE_BOUND('',#1163,.T.);
#1163 = EDGE_LOOP('',(#1164,#1165,#1166,#1172));
#1164 = ORIENTED_EDGE('',*,*,#281,.T.);
#1165 = ORIENTED_EDGE('',*,*,#1102,.F.);
#1166 = ORIENTED_EDGE('',*,*,#1167,.F.);
#1167 = EDGE_CURVE('',#24,#1094,#1168,.T.);
#1168 = LINE('',#1169,#1170);
#1169 = CARTESIAN_POINT('',(-3.2,2.35,1.05));
#1170 = VECTOR('',#1171,1.);
#1171 = DIRECTION('',(-1.,-0.E+000,-0.E+000));
#1172 = ORIENTED_EDGE('',*,*,#1142,.T.);
#1173 = PLANE('',#1174);
#1174 = AXIS2_PLACEMENT_3D('',#1175,#1176,#1177);
#1175 = CARTESIAN_POINT('',(-3.2,2.35,1.05));
#1176 = DIRECTION('',(0.E+000,-1.,0.E+000));
#1177 = DIRECTION('',(0.E+000,0.E+000,-1.));
#1178 = ADVANCED_FACE('',(#1179),#1206,.T.);
#1179 = FACE_BOUND('',#1180,.T.);
#1180 = EDGE_LOOP('',(#1181,#1182,#1191,#1199));
#1181 = ORIENTED_EDGE('',*,*,#120,.F.);
#1182 = ORIENTED_EDGE('',*,*,#1183,.T.);
#1183 = EDGE_CURVE('',#112,#1184,#1186,.T.);
#1184 = VERTEX_POINT('',#1185);
#1185 = CARTESIAN_POINT('',(-3.2,1.9,3.8));
#1186 = CIRCLE('',#1187,1.9);
#1187 = AXIS2_PLACEMENT_3D('',#1188,#1189,#1190);
#1188 = CARTESIAN_POINT('',(-3.2,-1.175660927181E-015,3.8));
#1189 = DIRECTION('',(0.E+000,0.E+000,-1.));
#1190 = DIRECTION('',(1.,0.E+000,0.E+000));
#1191 = ORIENTED_EDGE('',*,*,#1192,.T.);
#1192 = EDGE_CURVE('',#1184,#1193,#1195,.T.);
#1193 = VERTEX_POINT('',#1194);
#1194 = CARTESIAN_POINT('',(-3.2,1.9,1.5));
#1195 = LINE('',#1196,#1197);
#1196 = CARTESIAN_POINT('',(-3.2,1.9,19.48485185935));
#1197 = VECTOR('',#1198,1.);
#1198 = DIRECTION('',(-0.E+000,-0.E+000,-1.));
#1199 = ORIENTED_EDGE('',*,*,#1200,.T.);
#1200 = EDGE_CURVE('',#1193,#121,#1201,.T.);
#1201 = CIRCLE('',#1202,1.9);
#1202 = AXIS2_PLACEMENT_3D('',#1203,#1204,#1205);
#1203 = CARTESIAN_POINT('',(-3.2,-1.175660927181E-015,1.5));
#1204 = DIRECTION('',(0.E+000,0.E+000,1.));
#1205 = DIRECTION('',(1.,0.E+000,0.E+000));
#1206 = CYLINDRICAL_SURFACE('',#1207,1.9);
#1207 = AXIS2_PLACEMENT_3D('',#1208,#1209,#1210);
#1208 = CARTESIAN_POINT('',(-3.2,-1.175660927181E-015,19.48485185935));
#1209 = DIRECTION('',(-0.E+000,-0.E+000,-1.));
#1210 = DIRECTION('',(-1.,0.E+000,0.E+000));
#1211 = ADVANCED_FACE('',(#1212),#1235,.F.);
#1212 = FACE_BOUND('',#1213,.T.);
#1213 = EDGE_LOOP('',(#1214,#1215,#1223,#1229));
#1214 = ORIENTED_EDGE('',*,*,#137,.T.);
#1215 = ORIENTED_EDGE('',*,*,#1216,.T.);
#1216 = EDGE_CURVE('',#129,#1217,#1219,.T.);
#1217 = VERTEX_POINT('',#1218);
#1218 = CARTESIAN_POINT('',(3.2,-1.9,1.5));
#1219 = LINE('',#1220,#1221);
#1220 = CARTESIAN_POINT('',(-3.2,-1.9,1.5));
#1221 = VECTOR('',#1222,1.);
#1222 = DIRECTION('',(1.,1.694065894509E-016,0.E+000));
#1223 = ORIENTED_EDGE('',*,*,#1224,.F.);
#1224 = EDGE_CURVE('',#68,#1217,#1225,.T.);
#1225 = LINE('',#1226,#1227);
#1226 = CARTESIAN_POINT('',(3.2,-1.9,19.48485185935));
#1227 = VECTOR('',#1228,1.);
#1228 = DIRECTION('',(-0.E+000,-0.E+000,-1.));
#1229 = ORIENTED_EDGE('',*,*,#1230,.T.);
#1230 = EDGE_CURVE('',#68,#110,#1231,.T.);
#1231 = LINE('',#1232,#1233);
#1232 = CARTESIAN_POINT('',(-3.2,-1.9,3.8));
#1233 = VECTOR('',#1234,1.);
#1234 = DIRECTION('',(-1.,-1.694065894509E-016,-0.E+000));
#1235 = PLANE('',#1236);
#1236 = AXIS2_PLACEMENT_3D('',#1237,#1238,#1239);
#1237 = CARTESIAN_POINT('',(-3.2,-1.9,19.48485185935));
#1238 = DIRECTION('',(-1.694065894509E-016,1.,0.E+000));
#1239 = DIRECTION('',(-1.,-1.694065894509E-016,0.E+000));
#1240 = ADVANCED_FACE('',(#1241),#1268,.T.);
#1241 = FACE_BOUND('',#1242,.T.);
#1242 = EDGE_LOOP('',(#1243,#1244,#1251,#1252,#1260,#1267));
#1243 = ORIENTED_EDGE('',*,*,#1224,.T.);
#1244 = ORIENTED_EDGE('',*,*,#1245,.T.);
#1245 = EDGE_CURVE('',#1217,#42,#1246,.T.);
#1246 = CIRCLE('',#1247,1.9);
#1247 = AXIS2_PLACEMENT_3D('',#1248,#1249,#1250);
#1248 = CARTESIAN_POINT('',(3.2,0.E+000,1.5));
#1249 = DIRECTION('',(0.E+000,0.E+000,1.));
#1250 = DIRECTION('',(1.,0.E+000,0.E+000));
#1251 = ORIENTED_EDGE('',*,*,#50,.T.);
#1252 = ORIENTED_EDGE('',*,*,#1253,.F.);
#1253 = EDGE_CURVE('',#1254,#22,#1256,.T.);
#1254 = VERTEX_POINT('',#1255);
#1255 = CARTESIAN_POINT('',(3.2,1.9,3.8));
#1256 = LINE('',#1257,#1258);
#1257 = CARTESIAN_POINT('',(3.2,1.9,19.48485185935));
#1258 = VECTOR('',#1259,1.);
#1259 = DIRECTION('',(-0.E+000,-0.E+000,-1.));
#1260 = ORIENTED_EDGE('',*,*,#1261,.T.);
#1261 = EDGE_CURVE('',#1254,#66,#1262,.T.);
#1262 = CIRCLE('',#1263,1.9);
#1263 = AXIS2_PLACEMENT_3D('',#1264,#1265,#1266);
#1264 = CARTESIAN_POINT('',(3.2,0.E+000,3.8));
#1265 = DIRECTION('',(0.E+000,0.E+000,-1.));
#1266 = DIRECTION('',(1.,1.7763568394E-015,0.E+000));
#1267 = ORIENTED_EDGE('',*,*,#65,.T.);
#1268 = CYLINDRICAL_SURFACE('',#1269,1.9);
#1269 = AXIS2_PLACEMENT_3D('',#1270,#1271,#1272);
#1270 = CARTESIAN_POINT('',(3.2,0.E+000,19.48485185935));
#1271 = DIRECTION('',(-0.E+000,-0.E+000,-1.));
#1272 = DIRECTION('',(-1.,0.E+000,0.E+000));
#1273 = ADVANCED_FACE('',(#1274),#1290,.F.);
#1274 = FACE_BOUND('',#1275,.T.);
#1275 = EDGE_LOOP('',(#1276,#1277,#1283,#1284));
#1276 = ORIENTED_EDGE('',*,*,#1253,.T.);
#1277 = ORIENTED_EDGE('',*,*,#1278,.T.);
#1278 = EDGE_CURVE('',#22,#1193,#1279,.T.);
#1279 = LINE('',#1280,#1281);
#1280 = CARTESIAN_POINT('',(-3.2,1.9,1.5));
#1281 = VECTOR('',#1282,1.);
#1282 = DIRECTION('',(-1.,-1.694065894509E-016,0.E+000));
#1283 = ORIENTED_EDGE('',*,*,#1192,.F.);
#1284 = ORIENTED_EDGE('',*,*,#1285,.T.);
#1285 = EDGE_CURVE('',#1184,#1254,#1286,.T.);
#1286 = LINE('',#1287,#1288);
#1287 = CARTESIAN_POINT('',(3.2,1.9,3.8));
#1288 = VECTOR('',#1289,1.);
#1289 = DIRECTION('',(1.,1.694065894509E-016,0.E+000));
#1290 = PLANE('',#1291);
#1291 = AXIS2_PLACEMENT_3D('',#1292,#1293,#1294);
#1292 = CARTESIAN_POINT('',(-3.2,1.9,19.48485185935));
#1293 = DIRECTION('',(1.694065894509E-016,-1.,0.E+000));
#1294 = DIRECTION('',(1.,1.694065894509E-016,0.E+000));
#1295 = ADVANCED_FACE('',(#1296),#1331,.T.);
#1296 = FACE_BOUND('',#1297,.T.);
#1297 = EDGE_LOOP('',(#1298,#1306,#1307,#1316,#1324));
#1298 = ORIENTED_EDGE('',*,*,#1299,.T.);
#1299 = EDGE_CURVE('',#1300,#86,#1302,.T.);
#1300 = VERTEX_POINT('',#1301);
#1301 = CARTESIAN_POINT('',(-3.2,-1.4,4.3));
#1302 = LINE('',#1303,#1304);
#1303 = CARTESIAN_POINT('',(3.2,-1.4,4.3));
#1304 = VECTOR('',#1305,1.);
#1305 = DIRECTION('',(1.,1.694065894509E-016,0.E+000));
#1306 = ORIENTED_EDGE('',*,*,#85,.T.);
#1307 = ORIENTED_EDGE('',*,*,#1308,.T.);
#1308 = EDGE_CURVE('',#77,#1309,#1311,.T.);
#1309 = VERTEX_POINT('',#1310);
#1310 = CARTESIAN_POINT('',(3.2,1.4,4.3));
#1311 = CIRCLE('',#1312,1.4);
#1312 = AXIS2_PLACEMENT_3D('',#1313,#1314,#1315);
#1313 = CARTESIAN_POINT('',(3.2,0.E+000,4.3));
#1314 = DIRECTION('',(0.E+000,0.E+000,1.));
#1315 = DIRECTION('',(1.,0.E+000,0.E+000));
#1316 = ORIENTED_EDGE('',*,*,#1317,.T.);
#1317 = EDGE_CURVE('',#1309,#1318,#1320,.T.);
#1318 = VERTEX_POINT('',#1319);
#1319 = CARTESIAN_POINT('',(-3.2,1.4,4.3));
#1320 = LINE('',#1321,#1322);
#1321 = CARTESIAN_POINT('',(-3.2,1.4,4.3));
#1322 = VECTOR('',#1323,1.);
#1323 = DIRECTION('',(-1.,-1.694065894509E-016,0.E+000));
#1324 = ORIENTED_EDGE('',*,*,#1325,.T.);
#1325 = EDGE_CURVE('',#1318,#1300,#1326,.T.);
#1326 = CIRCLE('',#1327,1.4);
#1327 = AXIS2_PLACEMENT_3D('',#1328,#1329,#1330);
#1328 = CARTESIAN_POINT('',(-3.2,-1.175660927181E-015,4.3));
#1329 = DIRECTION('',(0.E+000,0.E+000,1.));
#1330 = DIRECTION('',(1.,0.E+000,0.E+000));
#1331 = PLANE('',#1332);
#1332 = AXIS2_PLACEMENT_3D('',#1333,#1334,#1335);
#1333 = CARTESIAN_POINT('',(0.E+000,0.E+000,4.3));
#1334 = DIRECTION('',(0.E+000,0.E+000,1.));
#1335 = DIRECTION('',(1.,0.E+000,0.E+000));
#1336 = ADVANCED_FACE('',(#1337),#1356,.T.);
#1337 = FACE_BOUND('',#1338,.T.);
#1338 = EDGE_LOOP('',(#1339,#1346,#1347,#1348,#1355));
#1339 = ORIENTED_EDGE('',*,*,#1340,.F.);
#1340 = EDGE_CURVE('',#1184,#1318,#1341,.T.);
#1341 = CIRCLE('',#1342,0.5);
#1342 = AXIS2_PLACEMENT_3D('',#1343,#1344,#1345);
#1343 = CARTESIAN_POINT('',(-3.2,1.4,3.8));
#1344 = DIRECTION('',(1.,-0.E+000,0.E+000));
#1345 = DIRECTION('',(0.E+000,0.E+000,-1.));
#1346 = ORIENTED_EDGE('',*,*,#1183,.F.);
#1347 = ORIENTED_EDGE('',*,*,#109,.F.);
#1348 = ORIENTED_EDGE('',*,*,#1349,.F.);
#1349 = EDGE_CURVE('',#1300,#110,#1350,.T.);
#1350 = CIRCLE('',#1351,0.5);
#1351 = AXIS2_PLACEMENT_3D('',#1352,#1353,#1354);
#1352 = CARTESIAN_POINT('',(-3.2,-1.4,3.8));
#1353 = DIRECTION('',(1.,-0.E+000,0.E+000));
#1354 = DIRECTION('',(0.E+000,0.E+000,-1.));
#1355 = ORIENTED_EDGE('',*,*,#1325,.F.);
#1356 = TOROIDAL_SURFACE('',#1357,1.4,0.5);
#1357 = AXIS2_PLACEMENT_3D('',#1358,#1359,#1360);
#1358 = CARTESIAN_POINT('',(-3.2,-1.175660927181E-015,3.8));
#1359 = DIRECTION('',(0.E+000,0.E+000,1.));
#1360 = DIRECTION('',(1.,0.E+000,0.E+000));
#1361 = ADVANCED_FACE('',(#1362),#1368,.T.);
#1362 = FACE_BOUND('',#1363,.T.);
#1363 = EDGE_LOOP('',(#1364,#1365,#1366,#1367));
#1364 = ORIENTED_EDGE('',*,*,#1349,.T.);
#1365 = ORIENTED_EDGE('',*,*,#1230,.F.);
#1366 = ORIENTED_EDGE('',*,*,#94,.F.);
#1367 = ORIENTED_EDGE('',*,*,#1299,.F.);
#1368 = CYLINDRICAL_SURFACE('',#1369,0.5);
#1369 = AXIS2_PLACEMENT_3D('',#1370,#1371,#1372);
#1370 = CARTESIAN_POINT('',(2.371692252312E-016,-1.4,3.8));
#1371 = DIRECTION('',(-1.,-1.694065894509E-016,0.E+000));
#1372 = DIRECTION('',(1.694065894509E-016,-1.,0.E+000));
#1373 = ADVANCED_FACE('',(#1374),#1386,.T.);
#1374 = FACE_BOUND('',#1375,.T.);
#1375 = EDGE_LOOP('',(#1376,#1377,#1378,#1385));
#1376 = ORIENTED_EDGE('',*,*,#1340,.T.);
#1377 = ORIENTED_EDGE('',*,*,#1317,.F.);
#1378 = ORIENTED_EDGE('',*,*,#1379,.F.);
#1379 = EDGE_CURVE('',#1254,#1309,#1380,.T.);
#1380 = CIRCLE('',#1381,0.5);
#1381 = AXIS2_PLACEMENT_3D('',#1382,#1383,#1384);
#1382 = CARTESIAN_POINT('',(3.2,1.4,3.8));
#1383 = DIRECTION('',(1.,0.E+000,-8.673617379884E-016));
#1384 = DIRECTION('',(-8.673617379884E-016,0.E+000,-1.));
#1385 = ORIENTED_EDGE('',*,*,#1285,.F.);
#1386 = CYLINDRICAL_SURFACE('',#1387,0.5);
#1387 = AXIS2_PLACEMENT_3D('',#1388,#1389,#1390);
#1388 = CARTESIAN_POINT('',(-2.371692252312E-016,1.4,3.8));
#1389 = DIRECTION('',(1.,1.694065894509E-016,0.E+000));
#1390 = DIRECTION('',(-1.694065894509E-016,1.,0.E+000));
#1391 = ADVANCED_FACE('',(#1392),#1398,.T.);
#1392 = FACE_BOUND('',#1393,.T.);
#1393 = EDGE_LOOP('',(#1394,#1395,#1396,#1397));
#1394 = ORIENTED_EDGE('',*,*,#76,.F.);
#1395 = ORIENTED_EDGE('',*,*,#1261,.F.);
#1396 = ORIENTED_EDGE('',*,*,#1379,.T.);
#1397 = ORIENTED_EDGE('',*,*,#1308,.F.);
#1398 = TOROIDAL_SURFACE('',#1399,1.4,0.5);
#1399 = AXIS2_PLACEMENT_3D('',#1400,#1401,#1402);
#1400 = CARTESIAN_POINT('',(3.2,0.E+000,3.8));
#1401 = DIRECTION('',(0.E+000,0.E+000,1.));
#1402 = DIRECTION('',(1.,0.E+000,0.E+000));
#1403 = ADVANCED_FACE('',(#1404),#1416,.F.);
#1404 = FACE_BOUND('',#1405,.F.);
#1405 = EDGE_LOOP('',(#1406,#1407,#1414,#1415));
#1406 = ORIENTED_EDGE('',*,*,#1149,.F.);
#1407 = ORIENTED_EDGE('',*,*,#1408,.T.);
#1408 = EDGE_CURVE('',#1119,#1217,#1409,.T.);
#1409 = CIRCLE('',#1410,0.45);
#1410 = AXIS2_PLACEMENT_3D('',#1411,#1412,#1413);
#1411 = CARTESIAN_POINT('',(3.2,-2.35,1.5));
#1412 = DIRECTION('',(1.,-0.E+000,0.E+000));
#1413 = DIRECTION('',(0.E+000,0.E+000,-1.));
#1414 = ORIENTED_EDGE('',*,*,#1245,.T.);
#1415 = ORIENTED_EDGE('',*,*,#41,.T.);
#1416 = TOROIDAL_SURFACE('',#1417,2.35,0.45);
#1417 = AXIS2_PLACEMENT_3D('',#1418,#1419,#1420);
#1418 = CARTESIAN_POINT('',(3.2,0.E+000,1.5));
#1419 = DIRECTION('',(0.E+000,0.E+000,1.));
#1420 = DIRECTION('',(1.,0.E+000,0.E+000));
#1421 = ADVANCED_FACE('',(#1422),#1434,.F.);
#1422 = FACE_BOUND('',#1423,.F.);
#1423 = EDGE_LOOP('',(#1424,#1425,#1432,#1433));
#1424 = ORIENTED_EDGE('',*,*,#1278,.T.);
#1425 = ORIENTED_EDGE('',*,*,#1426,.T.);
#1426 = EDGE_CURVE('',#1193,#1094,#1427,.T.);
#1427 = CIRCLE('',#1428,0.45);
#1428 = AXIS2_PLACEMENT_3D('',#1429,#1430,#1431);
#1429 = CARTESIAN_POINT('',(-3.2,2.35,1.5));
#1430 = DIRECTION('',(1.,-0.E+000,0.E+000));
#1431 = DIRECTION('',(0.E+000,0.E+000,-1.));
#1432 = ORIENTED_EDGE('',*,*,#1167,.F.);
#1433 = ORIENTED_EDGE('',*,*,#21,.F.);
#1434 = CYLINDRICAL_SURFACE('',#1435,0.45);
#1435 = AXIS2_PLACEMENT_3D('',#1436,#1437,#1438);
#1436 = CARTESIAN_POINT('',(-3.2,2.35,1.5));
#1437 = DIRECTION('',(-1.,-1.694065894509E-016,0.E+000));
#1438 = DIRECTION('',(1.694065894509E-016,-1.,0.E+000));
#1439 = ADVANCED_FACE('',(#1440),#1452,.F.);
#1440 = FACE_BOUND('',#1441,.F.);
#1441 = EDGE_LOOP('',(#1442,#1443,#1450,#1451));
#1442 = ORIENTED_EDGE('',*,*,#1126,.F.);
#1443 = ORIENTED_EDGE('',*,*,#1444,.T.);
#1444 = EDGE_CURVE('',#154,#129,#1445,.T.);
#1445 = CIRCLE('',#1446,0.45);
#1446 = AXIS2_PLACEMENT_3D('',#1447,#1448,#1449);
#1447 = CARTESIAN_POINT('',(-3.2,-2.35,1.5));
#1448 = DIRECTION('',(1.,-0.E+000,0.E+000));
#1449 = DIRECTION('',(0.E+000,0.E+000,-1.));
#1450 = ORIENTED_EDGE('',*,*,#1216,.T.);
#1451 = ORIENTED_EDGE('',*,*,#1408,.F.);
#1452 = CYLINDRICAL_SURFACE('',#1453,0.45);
#1453 = AXIS2_PLACEMENT_3D('',#1454,#1455,#1456);
#1454 = CARTESIAN_POINT('',(-3.2,-2.35,1.5));
#1455 = DIRECTION('',(1.,1.694065894509E-016,0.E+000));
#1456 = DIRECTION('',(-1.694065894509E-016,1.,0.E+000));
#1457 = ADVANCED_FACE('',(#1458),#1466,.F.);
#1458 = FACE_BOUND('',#1459,.F.);
#1459 = EDGE_LOOP('',(#1460,#1461,#1462,#1463,#1464,#1465));
#1460 = ORIENTED_EDGE('',*,*,#1200,.T.);
#1461 = ORIENTED_EDGE('',*,*,#128,.T.);
#1462 = ORIENTED_EDGE('',*,*,#1444,.F.);
#1463 = ORIENTED_EDGE('',*,*,#151,.F.);
#1464 = ORIENTED_EDGE('',*,*,#1093,.F.);
#1465 = ORIENTED_EDGE('',*,*,#1426,.F.);
#1466 = TOROIDAL_SURFACE('',#1467,2.35,0.45);
#1467 = AXIS2_PLACEMENT_3D('',#1468,#1469,#1470);
#1468 = CARTESIAN_POINT('',(-3.2,-1.175660927181E-015,1.5));
#1469 = DIRECTION('',(0.E+000,0.E+000,1.));
#1470 = DIRECTION('',(1.,0.E+000,0.E+000));
#1471 = ADVANCED_FACE('',(#1472),#1478,.T.);
#1472 = FACE_BOUND('',#1473,.T.);
#1473 = EDGE_LOOP('',(#1474,#1475,#1476,#1477));
#1474 = ORIENTED_EDGE('',*,*,#203,.F.);
#1475 = ORIENTED_EDGE('',*,*,#632,.F.);
#1476 = ORIENTED_EDGE('',*,*,#458,.F.);
#1477 = ORIENTED_EDGE('',*,*,#697,.F.);
#1478 = CYLINDRICAL_SURFACE('',#1479,0.25);
#1479 = AXIS2_PLACEMENT_3D('',#1480,#1481,#1482);
#1480 = CARTESIAN_POINT('',(5.55,2.165,0.7));
#1481 = DIRECTION('',(0.E+000,0.E+000,1.));
#1482 = DIRECTION('',(1.,0.E+000,0.E+000));
#1483 = ADVANCED_FACE('',(#1484),#1490,.T.);
#1484 = FACE_BOUND('',#1485,.T.);
#1485 = EDGE_LOOP('',(#1486,#1487,#1488,#1489));
#1486 = ORIENTED_EDGE('',*,*,#254,.F.);
#1487 = ORIENTED_EDGE('',*,*,#675,.F.);
#1488 = ORIENTED_EDGE('',*,*,#507,.F.);
#1489 = ORIENTED_EDGE('',*,*,#639,.F.);
#1490 = CYLINDRICAL_SURFACE('',#1491,0.25);
#1491 = AXIS2_PLACEMENT_3D('',#1492,#1493,#1494);
#1492 = CARTESIAN_POINT('',(5.55,-2.165,0.7));
#1493 = DIRECTION('',(0.E+000,0.E+000,-1.));
#1494 = DIRECTION('',(-1.,0.E+000,0.E+000));
#1495 = ADVANCED_FACE('',(#1496),#1502,.T.);
#1496 = FACE_BOUND('',#1497,.T.);
#1497 = EDGE_LOOP('',(#1498,#1499,#1500,#1501));
#1498 = ORIENTED_EDGE('',*,*,#220,.F.);
#1499 = ORIENTED_EDGE('',*,*,#704,.F.);
#1500 = ORIENTED_EDGE('',*,*,#573,.F.);
#1501 = ORIENTED_EDGE('',*,*,#589,.F.);
#1502 = CYLINDRICAL_SURFACE('',#1503,0.25);
#1503 = AXIS2_PLACEMENT_3D('',#1504,#1505,#1506);
#1504 = CARTESIAN_POINT('',(-5.55,2.165,0.7));
#1505 = DIRECTION('',(0.E+000,0.E+000,-1.));
#1506 = DIRECTION('',(-1.,0.E+000,0.E+000));
#1507 = ADVANCED_FACE('',(#1508),#1514,.T.);
#1508 = FACE_BOUND('',#1509,.T.);
#1509 = EDGE_LOOP('',(#1510,#1511,#1512,#1513));
#1510 = ORIENTED_EDGE('',*,*,#237,.F.);
#1511 = ORIENTED_EDGE('',*,*,#617,.F.);
#1512 = ORIENTED_EDGE('',*,*,#524,.F.);
#1513 = ORIENTED_EDGE('',*,*,#682,.F.);
#1514 = CYLINDRICAL_SURFACE('',#1515,0.25);
#1515 = AXIS2_PLACEMENT_3D('',#1516,#1517,#1518);
#1516 = CARTESIAN_POINT('',(-5.55,-2.165,0.7));
#1517 = DIRECTION('',(0.E+000,0.E+000,1.));
#1518 = DIRECTION('',(1.,0.E+000,0.E+000));
#1519 = ( GEOMETRIC_REPRESENTATION_CONTEXT(3) 
GLOBAL_UNCERTAINTY_ASSIGNED_CONTEXT((#1523)) 
GLOBAL_UNIT_ASSIGNED_CONTEXT((#1520,#1521,#1522)) REPRESENTATION_CONTEXT
('Context #1','3D Context with UNIT and UNCERTAINTY') );
#1520 = ( LENGTH_UNIT() NAMED_UNIT(*) SI_UNIT(.MILLI.,.METRE.) );
#1521 = ( NAMED_UNIT(*) PLANE_ANGLE_UNIT() SI_UNIT($,.RADIAN.) );
#1522 = ( NAMED_UNIT(*) SI_UNIT($,.STERADIAN.) SOLID_ANGLE_UNIT() );
#1523 = UNCERTAINTY_MEASURE_WITH_UNIT(LENGTH_MEASURE(1.E-007),#1520,
  'distance_accuracy_value','confusion accuracy');
#1524 = PRODUCT_TYPE('part',$,(#7));
#1525 = MECHANICAL_DESIGN_GEOMETRIC_PRESENTATION_REPRESENTATION('',(
    #1526,#1534,#1541,#1548,#1555,#1563,#1570,#1577,#1584,#1591,#1598,
    #1605,#1612,#1619,#1626,#1633,#1640,#1647,#1654,#1662,#1669,#1676,
    #1683,#1690,#1697,#1704,#1711,#1718,#1725,#1732,#1739,#1746,#1753,
    #1760,#1767,#1774,#1781,#1788,#1795,#1802,#1809,#1816,#1823,#1830,
    #1837,#1844,#1851,#1858,#1865,#1872,#1879),#1519);
#1526 = STYLED_ITEM('color',(#1527),#17);
#1527 = PRESENTATION_STYLE_ASSIGNMENT((#1528));
#1528 = SURFACE_STYLE_USAGE(.BOTH.,#1529);
#1529 = SURFACE_SIDE_STYLE('',(#1530));
#1530 = SURFACE_STYLE_FILL_AREA(#1531);
#1531 = FILL_AREA_STYLE('',(#1532));
#1532 = FILL_AREA_STYLE_COLOUR('',#1533);
#1533 = COLOUR_RGB('',0.776470601559,0.75686275959,0.737254917622);
#1534 = STYLED_ITEM('color',(#1535),#61);
#1535 = PRESENTATION_STYLE_ASSIGNMENT((#1536));
#1536 = SURFACE_STYLE_USAGE(.BOTH.,#1537);
#1537 = SURFACE_SIDE_STYLE('',(#1538));
#1538 = SURFACE_STYLE_FILL_AREA(#1539);
#1539 = FILL_AREA_STYLE('',(#1540));
#1540 = FILL_AREA_STYLE_COLOUR('',#1533);
#1541 = STYLED_ITEM('color',(#1542),#105);
#1542 = PRESENTATION_STYLE_ASSIGNMENT((#1543));
#1543 = SURFACE_STYLE_USAGE(.BOTH.,#1544);
#1544 = SURFACE_SIDE_STYLE('',(#1545));
#1545 = SURFACE_STYLE_FILL_AREA(#1546);
#1546 = FILL_AREA_STYLE('',(#1547));
#1547 = FILL_AREA_STYLE_COLOUR('',#1533);
#1548 = STYLED_ITEM('color',(#1549),#147);
#1549 = PRESENTATION_STYLE_ASSIGNMENT((#1550));
#1550 = SURFACE_STYLE_USAGE(.BOTH.,#1551);
#1551 = SURFACE_SIDE_STYLE('',(#1552));
#1552 = SURFACE_STYLE_FILL_AREA(#1553);
#1553 = FILL_AREA_STYLE('',(#1554));
#1554 = FILL_AREA_STYLE_COLOUR('',#1533);
#1555 = STYLED_ITEM('color',(#1556),#189);
#1556 = PRESENTATION_STYLE_ASSIGNMENT((#1557));
#1557 = SURFACE_STYLE_USAGE(.BOTH.,#1558);
#1558 = SURFACE_SIDE_STYLE('',(#1559));
#1559 = SURFACE_STYLE_FILL_AREA(#1560);
#1560 = FILL_AREA_STYLE('',(#1561));
#1561 = FILL_AREA_STYLE_COLOUR('',#1562);
#1562 = COLOUR_RGB('',0.109803922474,0.109803922474,0.109803922474);
#1563 = STYLED_ITEM('color',(#1564),#300);
#1564 = PRESENTATION_STYLE_ASSIGNMENT((#1565));
#1565 = SURFACE_STYLE_USAGE(.BOTH.,#1566);
#1566 = SURFACE_SIDE_STYLE('',(#1567));
#1567 = SURFACE_STYLE_FILL_AREA(#1568);
#1568 = FILL_AREA_STYLE('',(#1569));
#1569 = FILL_AREA_STYLE_COLOUR('',#1562);
#1570 = STYLED_ITEM('color',(#1571),#372);
#1571 = PRESENTATION_STYLE_ASSIGNMENT((#1572));
#1572 = SURFACE_STYLE_USAGE(.BOTH.,#1573);
#1573 = SURFACE_SIDE_STYLE('',(#1574));
#1574 = SURFACE_STYLE_FILL_AREA(#1575);
#1575 = FILL_AREA_STYLE('',(#1576));
#1576 = FILL_AREA_STYLE_COLOUR('',#1562);
#1577 = STYLED_ITEM('color',(#1578),#444);
#1578 = PRESENTATION_STYLE_ASSIGNMENT((#1579));
#1579 = SURFACE_STYLE_USAGE(.BOTH.,#1580);
#1580 = SURFACE_SIDE_STYLE('',(#1581));
#1581 = SURFACE_STYLE_FILL_AREA(#1582);
#1582 = FILL_AREA_STYLE('',(#1583));
#1583 = FILL_AREA_STYLE_COLOUR('',#1562);
#1584 = STYLED_ITEM('color',(#1585),#584);
#1585 = PRESENTATION_STYLE_ASSIGNMENT((#1586));
#1586 = SURFACE_STYLE_USAGE(.BOTH.,#1587);
#1587 = SURFACE_SIDE_STYLE('',(#1588));
#1588 = SURFACE_STYLE_FILL_AREA(#1589);
#1589 = FILL_AREA_STYLE('',(#1590));
#1590 = FILL_AREA_STYLE_COLOUR('',#1562);
#1591 = STYLED_ITEM('color',(#1592),#627);
#1592 = PRESENTATION_STYLE_ASSIGNMENT((#1593));
#1593 = SURFACE_STYLE_USAGE(.BOTH.,#1594);
#1594 = SURFACE_SIDE_STYLE('',(#1595));
#1595 = SURFACE_STYLE_FILL_AREA(#1596);
#1596 = FILL_AREA_STYLE('',(#1597));
#1597 = FILL_AREA_STYLE_COLOUR('',#1562);
#1598 = STYLED_ITEM('color',(#1599),#670);
#1599 = PRESENTATION_STYLE_ASSIGNMENT((#1600));
#1600 = SURFACE_STYLE_USAGE(.BOTH.,#1601);
#1601 = SURFACE_SIDE_STYLE('',(#1602));
#1602 = SURFACE_STYLE_FILL_AREA(#1603);
#1603 = FILL_AREA_STYLE('',(#1604));
#1604 = FILL_AREA_STYLE_COLOUR('',#1562);
#1605 = STYLED_ITEM('color',(#1606),#692);
#1606 = PRESENTATION_STYLE_ASSIGNMENT((#1607));
#1607 = SURFACE_STYLE_USAGE(.BOTH.,#1608);
#1608 = SURFACE_SIDE_STYLE('',(#1609));
#1609 = SURFACE_STYLE_FILL_AREA(#1610);
#1610 = FILL_AREA_STYLE('',(#1611));
#1611 = FILL_AREA_STYLE_COLOUR('',#1562);
#1612 = STYLED_ITEM('color',(#1613),#714);
#1613 = PRESENTATION_STYLE_ASSIGNMENT((#1614));
#1614 = SURFACE_STYLE_USAGE(.BOTH.,#1615);
#1615 = SURFACE_SIDE_STYLE('',(#1616));
#1616 = SURFACE_STYLE_FILL_AREA(#1617);
#1617 = FILL_AREA_STYLE('',(#1618));
#1618 = FILL_AREA_STYLE_COLOUR('',#1562);
#1619 = STYLED_ITEM('color',(#1620),#736);
#1620 = PRESENTATION_STYLE_ASSIGNMENT((#1621));
#1621 = SURFACE_STYLE_USAGE(.BOTH.,#1622);
#1622 = SURFACE_SIDE_STYLE('',(#1623));
#1623 = SURFACE_STYLE_FILL_AREA(#1624);
#1624 = FILL_AREA_STYLE('',(#1625));
#1625 = FILL_AREA_STYLE_COLOUR('',#1562);
#1626 = STYLED_ITEM('color',(#1627),#748);
#1627 = PRESENTATION_STYLE_ASSIGNMENT((#1628));
#1628 = SURFACE_STYLE_USAGE(.BOTH.,#1629);
#1629 = SURFACE_SIDE_STYLE('',(#1630));
#1630 = SURFACE_STYLE_FILL_AREA(#1631);
#1631 = FILL_AREA_STYLE('',(#1632));
#1632 = FILL_AREA_STYLE_COLOUR('',#1562);
#1633 = STYLED_ITEM('color',(#1634),#760);
#1634 = PRESENTATION_STYLE_ASSIGNMENT((#1635));
#1635 = SURFACE_STYLE_USAGE(.BOTH.,#1636);
#1636 = SURFACE_SIDE_STYLE('',(#1637));
#1637 = SURFACE_STYLE_FILL_AREA(#1638);
#1638 = FILL_AREA_STYLE('',(#1639));
#1639 = FILL_AREA_STYLE_COLOUR('',#1562);
#1640 = STYLED_ITEM('color',(#1641),#782);
#1641 = PRESENTATION_STYLE_ASSIGNMENT((#1642));
#1642 = SURFACE_STYLE_USAGE(.BOTH.,#1643);
#1643 = SURFACE_SIDE_STYLE('',(#1644));
#1644 = SURFACE_STYLE_FILL_AREA(#1645);
#1645 = FILL_AREA_STYLE('',(#1646));
#1646 = FILL_AREA_STYLE_COLOUR('',#1562);
#1647 = STYLED_ITEM('color',(#1648),#794);
#1648 = PRESENTATION_STYLE_ASSIGNMENT((#1649));
#1649 = SURFACE_STYLE_USAGE(.BOTH.,#1650);
#1650 = SURFACE_SIDE_STYLE('',(#1651));
#1651 = SURFACE_STYLE_FILL_AREA(#1652);
#1652 = FILL_AREA_STYLE('',(#1653));
#1653 = FILL_AREA_STYLE_COLOUR('',#1562);
#1654 = STYLED_ITEM('color',(#1655),#806);
#1655 = PRESENTATION_STYLE_ASSIGNMENT((#1656));
#1656 = SURFACE_STYLE_USAGE(.BOTH.,#1657);
#1657 = SURFACE_SIDE_STYLE('',(#1658));
#1658 = SURFACE_STYLE_FILL_AREA(#1659);
#1659 = FILL_AREA_STYLE('',(#1660));
#1660 = FILL_AREA_STYLE_COLOUR('',#1661);
#1661 = COLOUR_RGB('',0.768627464771,0.768627464771,0.768627464771);
#1662 = STYLED_ITEM('color',(#1663),#837);
#1663 = PRESENTATION_STYLE_ASSIGNMENT((#1664));
#1664 = SURFACE_STYLE_USAGE(.BOTH.,#1665);
#1665 = SURFACE_SIDE_STYLE('',(#1666));
#1666 = SURFACE_STYLE_FILL_AREA(#1667);
#1667 = FILL_AREA_STYLE('',(#1668));
#1668 = FILL_AREA_STYLE_COLOUR('',#1661);
#1669 = STYLED_ITEM('color',(#1670),#868);
#1670 = PRESENTATION_STYLE_ASSIGNMENT((#1671));
#1671 = SURFACE_STYLE_USAGE(.BOTH.,#1672);
#1672 = SURFACE_SIDE_STYLE('',(#1673));
#1673 = SURFACE_STYLE_FILL_AREA(#1674);
#1674 = FILL_AREA_STYLE('',(#1675));
#1675 = FILL_AREA_STYLE_COLOUR('',#1661);
#1676 = STYLED_ITEM('color',(#1677),#893);
#1677 = PRESENTATION_STYLE_ASSIGNMENT((#1678));
#1678 = SURFACE_STYLE_USAGE(.BOTH.,#1679);
#1679 = SURFACE_SIDE_STYLE('',(#1680));
#1680 = SURFACE_STYLE_FILL_AREA(#1681);
#1681 = FILL_AREA_STYLE('',(#1682));
#1682 = FILL_AREA_STYLE_COLOUR('',#1661);
#1683 = STYLED_ITEM('color',(#1684),#917);
#1684 = PRESENTATION_STYLE_ASSIGNMENT((#1685));
#1685 = SURFACE_STYLE_USAGE(.BOTH.,#1686);
#1686 = SURFACE_SIDE_STYLE('',(#1687));
#1687 = SURFACE_STYLE_FILL_AREA(#1688);
#1688 = FILL_AREA_STYLE('',(#1689));
#1689 = FILL_AREA_STYLE_COLOUR('',#1661);
#1690 = STYLED_ITEM('color',(#1691),#935);
#1691 = PRESENTATION_STYLE_ASSIGNMENT((#1692));
#1692 = SURFACE_STYLE_USAGE(.BOTH.,#1693);
#1693 = SURFACE_SIDE_STYLE('',(#1694));
#1694 = SURFACE_STYLE_FILL_AREA(#1695);
#1695 = FILL_AREA_STYLE('',(#1696));
#1696 = FILL_AREA_STYLE_COLOUR('',#1661);
#1697 = STYLED_ITEM('color',(#1698),#947);
#1698 = PRESENTATION_STYLE_ASSIGNMENT((#1699));
#1699 = SURFACE_STYLE_USAGE(.BOTH.,#1700);
#1700 = SURFACE_SIDE_STYLE('',(#1701));
#1701 = SURFACE_STYLE_FILL_AREA(#1702);
#1702 = FILL_AREA_STYLE('',(#1703));
#1703 = FILL_AREA_STYLE_COLOUR('',#1661);
#1704 = STYLED_ITEM('color',(#1705),#987);
#1705 = PRESENTATION_STYLE_ASSIGNMENT((#1706));
#1706 = SURFACE_STYLE_USAGE(.BOTH.,#1707);
#1707 = SURFACE_SIDE_STYLE('',(#1708));
#1708 = SURFACE_STYLE_FILL_AREA(#1709);
#1709 = FILL_AREA_STYLE('',(#1710));
#1710 = FILL_AREA_STYLE_COLOUR('',#1661);
#1711 = STYLED_ITEM('color',(#1712),#1017);
#1712 = PRESENTATION_STYLE_ASSIGNMENT((#1713));
#1713 = SURFACE_STYLE_USAGE(.BOTH.,#1714);
#1714 = SURFACE_SIDE_STYLE('',(#1715));
#1715 = SURFACE_STYLE_FILL_AREA(#1716);
#1716 = FILL_AREA_STYLE('',(#1717));
#1717 = FILL_AREA_STYLE_COLOUR('',#1661);
#1718 = STYLED_ITEM('color',(#1719),#1041);
#1719 = PRESENTATION_STYLE_ASSIGNMENT((#1720));
#1720 = SURFACE_STYLE_USAGE(.BOTH.,#1721);
#1721 = SURFACE_SIDE_STYLE('',(#1722));
#1722 = SURFACE_STYLE_FILL_AREA(#1723);
#1723 = FILL_AREA_STYLE('',(#1724));
#1724 = FILL_AREA_STYLE_COLOUR('',#1661);
#1725 = STYLED_ITEM('color',(#1726),#1064);
#1726 = PRESENTATION_STYLE_ASSIGNMENT((#1727));
#1727 = SURFACE_STYLE_USAGE(.BOTH.,#1728);
#1728 = SURFACE_SIDE_STYLE('',(#1729));
#1729 = SURFACE_STYLE_FILL_AREA(#1730);
#1730 = FILL_AREA_STYLE('',(#1731));
#1731 = FILL_AREA_STYLE_COLOUR('',#1661);
#1732 = STYLED_ITEM('color',(#1733),#1076);
#1733 = PRESENTATION_STYLE_ASSIGNMENT((#1734));
#1734 = SURFACE_STYLE_USAGE(.BOTH.,#1735);
#1735 = SURFACE_SIDE_STYLE('',(#1736));
#1736 = SURFACE_STYLE_FILL_AREA(#1737);
#1737 = FILL_AREA_STYLE('',(#1738));
#1738 = FILL_AREA_STYLE_COLOUR('',#1661);
#1739 = STYLED_ITEM('color',(#1740),#1088);
#1740 = PRESENTATION_STYLE_ASSIGNMENT((#1741));
#1741 = SURFACE_STYLE_USAGE(.BOTH.,#1742);
#1742 = SURFACE_SIDE_STYLE('',(#1743));
#1743 = SURFACE_STYLE_FILL_AREA(#1744);
#1744 = FILL_AREA_STYLE('',(#1745));
#1745 = FILL_AREA_STYLE_COLOUR('',#1533);
#1746 = STYLED_ITEM('color',(#1747),#1113);
#1747 = PRESENTATION_STYLE_ASSIGNMENT((#1748));
#1748 = SURFACE_STYLE_USAGE(.BOTH.,#1749);
#1749 = SURFACE_SIDE_STYLE('',(#1750));
#1750 = SURFACE_STYLE_FILL_AREA(#1751);
#1751 = FILL_AREA_STYLE('',(#1752));
#1752 = FILL_AREA_STYLE_COLOUR('',#1533);
#1753 = STYLED_ITEM('color',(#1754),#1137);
#1754 = PRESENTATION_STYLE_ASSIGNMENT((#1755));
#1755 = SURFACE_STYLE_USAGE(.BOTH.,#1756);
#1756 = SURFACE_SIDE_STYLE('',(#1757));
#1757 = SURFACE_STYLE_FILL_AREA(#1758);
#1758 = FILL_AREA_STYLE('',(#1759));
#1759 = FILL_AREA_STYLE_COLOUR('',#1533);
#1760 = STYLED_ITEM('color',(#1761),#1161);
#1761 = PRESENTATION_STYLE_ASSIGNMENT((#1762));
#1762 = SURFACE_STYLE_USAGE(.BOTH.,#1763);
#1763 = SURFACE_SIDE_STYLE('',(#1764));
#1764 = SURFACE_STYLE_FILL_AREA(#1765);
#1765 = FILL_AREA_STYLE('',(#1766));
#1766 = FILL_AREA_STYLE_COLOUR('',#1533);
#1767 = STYLED_ITEM('color',(#1768),#1178);
#1768 = PRESENTATION_STYLE_ASSIGNMENT((#1769));
#1769 = SURFACE_STYLE_USAGE(.BOTH.,#1770);
#1770 = SURFACE_SIDE_STYLE('',(#1771));
#1771 = SURFACE_STYLE_FILL_AREA(#1772);
#1772 = FILL_AREA_STYLE('',(#1773));
#1773 = FILL_AREA_STYLE_COLOUR('',#1533);
#1774 = STYLED_ITEM('color',(#1775),#1211);
#1775 = PRESENTATION_STYLE_ASSIGNMENT((#1776));
#1776 = SURFACE_STYLE_USAGE(.BOTH.,#1777);
#1777 = SURFACE_SIDE_STYLE('',(#1778));
#1778 = SURFACE_STYLE_FILL_AREA(#1779);
#1779 = FILL_AREA_STYLE('',(#1780));
#1780 = FILL_AREA_STYLE_COLOUR('',#1533);
#1781 = STYLED_ITEM('color',(#1782),#1240);
#1782 = PRESENTATION_STYLE_ASSIGNMENT((#1783));
#1783 = SURFACE_STYLE_USAGE(.BOTH.,#1784);
#1784 = SURFACE_SIDE_STYLE('',(#1785));
#1785 = SURFACE_STYLE_FILL_AREA(#1786);
#1786 = FILL_AREA_STYLE('',(#1787));
#1787 = FILL_AREA_STYLE_COLOUR('',#1533);
#1788 = STYLED_ITEM('color',(#1789),#1273);
#1789 = PRESENTATION_STYLE_ASSIGNMENT((#1790));
#1790 = SURFACE_STYLE_USAGE(.BOTH.,#1791);
#1791 = SURFACE_SIDE_STYLE('',(#1792));
#1792 = SURFACE_STYLE_FILL_AREA(#1793);
#1793 = FILL_AREA_STYLE('',(#1794));
#1794 = FILL_AREA_STYLE_COLOUR('',#1533);
#1795 = STYLED_ITEM('color',(#1796),#1295);
#1796 = PRESENTATION_STYLE_ASSIGNMENT((#1797));
#1797 = SURFACE_STYLE_USAGE(.BOTH.,#1798);
#1798 = SURFACE_SIDE_STYLE('',(#1799));
#1799 = SURFACE_STYLE_FILL_AREA(#1800);
#1800 = FILL_AREA_STYLE('',(#1801));
#1801 = FILL_AREA_STYLE_COLOUR('',#1533);
#1802 = STYLED_ITEM('color',(#1803),#1336);
#1803 = PRESENTATION_STYLE_ASSIGNMENT((#1804));
#1804 = SURFACE_STYLE_USAGE(.BOTH.,#1805);
#1805 = SURFACE_SIDE_STYLE('',(#1806));
#1806 = SURFACE_STYLE_FILL_AREA(#1807);
#1807 = FILL_AREA_STYLE('',(#1808));
#1808 = FILL_AREA_STYLE_COLOUR('',#1533);
#1809 = STYLED_ITEM('color',(#1810),#1361);
#1810 = PRESENTATION_STYLE_ASSIGNMENT((#1811));
#1811 = SURFACE_STYLE_USAGE(.BOTH.,#1812);
#1812 = SURFACE_SIDE_STYLE('',(#1813));
#1813 = SURFACE_STYLE_FILL_AREA(#1814);
#1814 = FILL_AREA_STYLE('',(#1815));
#1815 = FILL_AREA_STYLE_COLOUR('',#1533);
#1816 = STYLED_ITEM('color',(#1817),#1373);
#1817 = PRESENTATION_STYLE_ASSIGNMENT((#1818));
#1818 = SURFACE_STYLE_USAGE(.BOTH.,#1819);
#1819 = SURFACE_SIDE_STYLE('',(#1820));
#1820 = SURFACE_STYLE_FILL_AREA(#1821);
#1821 = FILL_AREA_STYLE('',(#1822));
#1822 = FILL_AREA_STYLE_COLOUR('',#1533);
#1823 = STYLED_ITEM('color',(#1824),#1391);
#1824 = PRESENTATION_STYLE_ASSIGNMENT((#1825));
#1825 = SURFACE_STYLE_USAGE(.BOTH.,#1826);
#1826 = SURFACE_SIDE_STYLE('',(#1827));
#1827 = SURFACE_STYLE_FILL_AREA(#1828);
#1828 = FILL_AREA_STYLE('',(#1829));
#1829 = FILL_AREA_STYLE_COLOUR('',#1533);
#1830 = STYLED_ITEM('color',(#1831),#1403);
#1831 = PRESENTATION_STYLE_ASSIGNMENT((#1832));
#1832 = SURFACE_STYLE_USAGE(.BOTH.,#1833);
#1833 = SURFACE_SIDE_STYLE('',(#1834));
#1834 = SURFACE_STYLE_FILL_AREA(#1835);
#1835 = FILL_AREA_STYLE('',(#1836));
#1836 = FILL_AREA_STYLE_COLOUR('',#1533);
#1837 = STYLED_ITEM('color',(#1838),#1421);
#1838 = PRESENTATION_STYLE_ASSIGNMENT((#1839));
#1839 = SURFACE_STYLE_USAGE(.BOTH.,#1840);
#1840 = SURFACE_SIDE_STYLE('',(#1841));
#1841 = SURFACE_STYLE_FILL_AREA(#1842);
#1842 = FILL_AREA_STYLE('',(#1843));
#1843 = FILL_AREA_STYLE_COLOUR('',#1533);
#1844 = STYLED_ITEM('color',(#1845),#1439);
#1845 = PRESENTATION_STYLE_ASSIGNMENT((#1846));
#1846 = SURFACE_STYLE_USAGE(.BOTH.,#1847);
#1847 = SURFACE_SIDE_STYLE('',(#1848));
#1848 = SURFACE_STYLE_FILL_AREA(#1849);
#1849 = FILL_AREA_STYLE('',(#1850));
#1850 = FILL_AREA_STYLE_COLOUR('',#1533);
#1851 = STYLED_ITEM('color',(#1852),#1457);
#1852 = PRESENTATION_STYLE_ASSIGNMENT((#1853));
#1853 = SURFACE_STYLE_USAGE(.BOTH.,#1854);
#1854 = SURFACE_SIDE_STYLE('',(#1855));
#1855 = SURFACE_STYLE_FILL_AREA(#1856);
#1856 = FILL_AREA_STYLE('',(#1857));
#1857 = FILL_AREA_STYLE_COLOUR('',#1533);
#1858 = STYLED_ITEM('color',(#1859),#1471);
#1859 = PRESENTATION_STYLE_ASSIGNMENT((#1860));
#1860 = SURFACE_STYLE_USAGE(.BOTH.,#1861);
#1861 = SURFACE_SIDE_STYLE('',(#1862));
#1862 = SURFACE_STYLE_FILL_AREA(#1863);
#1863 = FILL_AREA_STYLE('',(#1864));
#1864 = FILL_AREA_STYLE_COLOUR('',#1562);
#1865 = STYLED_ITEM('color',(#1866),#1483);
#1866 = PRESENTATION_STYLE_ASSIGNMENT((#1867));
#1867 = SURFACE_STYLE_USAGE(.BOTH.,#1868);
#1868 = SURFACE_SIDE_STYLE('',(#1869));
#1869 = SURFACE_STYLE_FILL_AREA(#1870);
#1870 = FILL_AREA_STYLE('',(#1871));
#1871 = FILL_AREA_STYLE_COLOUR('',#1562);
#1872 = STYLED_ITEM('color',(#1873),#1495);
#1873 = PRESENTATION_STYLE_ASSIGNMENT((#1874));
#1874 = SURFACE_STYLE_USAGE(.BOTH.,#1875);
#1875 = SURFACE_SIDE_STYLE('',(#1876));
#1876 = SURFACE_STYLE_FILL_AREA(#1877);
#1877 = FILL_AREA_STYLE('',(#1878));
#1878 = FILL_AREA_STYLE_COLOUR('',#1562);
#1879 = STYLED_ITEM('color',(#1880),#1507);
#1880 = PRESENTATION_STYLE_ASSIGNMENT((#1881));
#1881 = SURFACE_STYLE_USAGE(.BOTH.,#1882);
#1882 = SURFACE_SIDE_STYLE('',(#1883));
#1883 = SURFACE_STYLE_FILL_AREA(#1884);
#1884 = FILL_AREA_STYLE('',(#1885));
#1885 = FILL_AREA_STYLE_COLOUR('',#1562);
ENDSEC;
END-ISO-10303-21;
