ISO-10303-21;
HEADER;
FILE_DESCRIPTION(('FreeCAD Model'),'2;1');
FILE_NAME('C:/Git/Pointer3D_Marek/freecad/L_0403.step',
  '2018-01-08T16:56:58',('Author'),(''),
  'Open CASCADE STEP processor 6.8','FreeCAD','Unknown');
FILE_SCHEMA(('AUTOMOTIVE_DESIGN_CC2 { 1 2 10303 214 -1 1 5 4 }'));
ENDSEC;
DATA;
#1 = APPLICATION_PROTOCOL_DEFINITION('committee draft',
  'automotive_design',1997,#2);
#2 = APPLICATION_CONTEXT(
  'core data for automotive mechanical design processes');
#3 = SHAPE_DEFINITION_REPRESENTATION(#4,#10);
#4 = PRODUCT_DEFINITION_SHAPE('','',#5);
#5 = PRODUCT_DEFINITION('design','',#6,#9);
#6 = PRODUCT_DEFINITION_FORMATION('','',#7);
#7 = PRODUCT('Compound','Compound','',(#8));
#8 = MECHANICAL_CONTEXT('',#2,'mechanical');
#9 = PRODUCT_DEFINITION_CONTEXT('part definition',#2,'design');
#10 = SHAPE_REPRESENTATION('',(#11,#15,#121,#227,#333,#505),#677);
#11 = AXIS2_PLACEMENT_3D('',#12,#13,#14);
#12 = CARTESIAN_POINT('',(0.E+000,0.E+000,0.E+000));
#13 = DIRECTION('',(0.E+000,0.E+000,1.));
#14 = DIRECTION('',(1.,0.E+000,-0.E+000));
#15 = MANIFOLD_SOLID_BREP('',#16);
#16 = CLOSED_SHELL('',(#17,#113,#117));
#17 = ADVANCED_FACE('',(#18),#32,.T.);
#18 = FACE_BOUND('',#19,.F.);
#19 = EDGE_LOOP('',(#20,#50,#81,#82));
#20 = ORIENTED_EDGE('',*,*,#21,.T.);
#21 = EDGE_CURVE('',#22,#24,#26,.T.);
#22 = VERTEX_POINT('',#23);
#23 = CARTESIAN_POINT('',(2.4,0.E+000,0.1));
#24 = VERTEX_POINT('',#25);
#25 = CARTESIAN_POINT('',(2.4,0.E+000,1.1));
#26 = SEAM_CURVE('',#27,(#31,#43),.PCURVE_S1.);
#27 = LINE('',#28,#29);
#28 = CARTESIAN_POINT('',(2.4,0.E+000,0.1));
#29 = VECTOR('',#30,1.);
#30 = DIRECTION('',(0.E+000,0.E+000,1.));
#31 = PCURVE('',#32,#37);
#32 = CYLINDRICAL_SURFACE('',#33,2.4);
#33 = AXIS2_PLACEMENT_3D('',#34,#35,#36);
#34 = CARTESIAN_POINT('',(0.E+000,0.E+000,0.1));
#35 = DIRECTION('',(-0.E+000,-0.E+000,-1.));
#36 = DIRECTION('',(1.,0.E+000,0.E+000));
#37 = DEFINITIONAL_REPRESENTATION('',(#38),#42);
#38 = LINE('',#39,#40);
#39 = CARTESIAN_POINT('',(-0.E+000,0.E+000));
#40 = VECTOR('',#41,1.);
#41 = DIRECTION('',(-0.E+000,-1.));
#42 = ( GEOMETRIC_REPRESENTATION_CONTEXT(2) 
PARAMETRIC_REPRESENTATION_CONTEXT() REPRESENTATION_CONTEXT('2D SPACE',''
  ) );
#43 = PCURVE('',#32,#44);
#44 = DEFINITIONAL_REPRESENTATION('',(#45),#49);
#45 = LINE('',#46,#47);
#46 = CARTESIAN_POINT('',(-6.28318530718,0.E+000));
#47 = VECTOR('',#48,1.);
#48 = DIRECTION('',(-0.E+000,-1.));
#49 = ( GEOMETRIC_REPRESENTATION_CONTEXT(2) 
PARAMETRIC_REPRESENTATION_CONTEXT() REPRESENTATION_CONTEXT('2D SPACE',''
  ) );
#50 = ORIENTED_EDGE('',*,*,#51,.T.);
#51 = EDGE_CURVE('',#24,#24,#52,.T.);
#52 = SURFACE_CURVE('',#53,(#58,#65),.PCURVE_S1.);
#53 = CIRCLE('',#54,2.4);
#54 = AXIS2_PLACEMENT_3D('',#55,#56,#57);
#55 = CARTESIAN_POINT('',(0.E+000,0.E+000,1.1));
#56 = DIRECTION('',(0.E+000,0.E+000,1.));
#57 = DIRECTION('',(1.,0.E+000,0.E+000));
#58 = PCURVE('',#32,#59);
#59 = DEFINITIONAL_REPRESENTATION('',(#60),#64);
#60 = LINE('',#61,#62);
#61 = CARTESIAN_POINT('',(-0.E+000,-1.));
#62 = VECTOR('',#63,1.);
#63 = DIRECTION('',(-1.,0.E+000));
#64 = ( GEOMETRIC_REPRESENTATION_CONTEXT(2) 
PARAMETRIC_REPRESENTATION_CONTEXT() REPRESENTATION_CONTEXT('2D SPACE',''
  ) );
#65 = PCURVE('',#66,#71);
#66 = PLANE('',#67);
#67 = AXIS2_PLACEMENT_3D('',#68,#69,#70);
#68 = CARTESIAN_POINT('',(2.4,0.E+000,1.1));
#69 = DIRECTION('',(0.E+000,0.E+000,-1.));
#70 = DIRECTION('',(-1.,0.E+000,0.E+000));
#71 = DEFINITIONAL_REPRESENTATION('',(#72),#80);
#72 = ( BOUNDED_CURVE() B_SPLINE_CURVE(2,(#73,#74,#75,#76,#77,#78,#79),
.UNSPECIFIED.,.F.,.F.) B_SPLINE_CURVE_WITH_KNOTS((1,2,2,2,2,1),(
    -2.094395102393,0.E+000,2.094395102393,4.188790204786,6.28318530718,
8.377580409573),.UNSPECIFIED.) CURVE() GEOMETRIC_REPRESENTATION_ITEM() 
RATIONAL_B_SPLINE_CURVE((1.,0.5,1.,0.5,1.,0.5,1.)) REPRESENTATION_ITEM(
  '') );
#73 = CARTESIAN_POINT('',(0.E+000,0.E+000));
#74 = CARTESIAN_POINT('',(0.E+000,4.156921938165));
#75 = CARTESIAN_POINT('',(3.6,2.078460969083));
#76 = CARTESIAN_POINT('',(7.2,5.878304635907E-016));
#77 = CARTESIAN_POINT('',(3.6,-2.078460969083));
#78 = CARTESIAN_POINT('',(3.552713678801E-015,-4.156921938165));
#79 = CARTESIAN_POINT('',(0.E+000,0.E+000));
#80 = ( GEOMETRIC_REPRESENTATION_CONTEXT(2) 
PARAMETRIC_REPRESENTATION_CONTEXT() REPRESENTATION_CONTEXT('2D SPACE',''
  ) );
#81 = ORIENTED_EDGE('',*,*,#21,.F.);
#82 = ORIENTED_EDGE('',*,*,#83,.F.);
#83 = EDGE_CURVE('',#22,#22,#84,.T.);
#84 = SURFACE_CURVE('',#85,(#90,#97),.PCURVE_S1.);
#85 = CIRCLE('',#86,2.4);
#86 = AXIS2_PLACEMENT_3D('',#87,#88,#89);
#87 = CARTESIAN_POINT('',(0.E+000,0.E+000,0.1));
#88 = DIRECTION('',(0.E+000,0.E+000,1.));
#89 = DIRECTION('',(1.,0.E+000,0.E+000));
#90 = PCURVE('',#32,#91);
#91 = DEFINITIONAL_REPRESENTATION('',(#92),#96);
#92 = LINE('',#93,#94);
#93 = CARTESIAN_POINT('',(-0.E+000,0.E+000));
#94 = VECTOR('',#95,1.);
#95 = DIRECTION('',(-1.,0.E+000));
#96 = ( GEOMETRIC_REPRESENTATION_CONTEXT(2) 
PARAMETRIC_REPRESENTATION_CONTEXT() REPRESENTATION_CONTEXT('2D SPACE',''
  ) );
#97 = PCURVE('',#98,#103);
#98 = PLANE('',#99);
#99 = AXIS2_PLACEMENT_3D('',#100,#101,#102);
#100 = CARTESIAN_POINT('',(2.4,0.E+000,0.1));
#101 = DIRECTION('',(0.E+000,0.E+000,-1.));
#102 = DIRECTION('',(-1.,0.E+000,0.E+000));
#103 = DEFINITIONAL_REPRESENTATION('',(#104),#112);
#104 = ( BOUNDED_CURVE() B_SPLINE_CURVE(2,(#105,#106,#107,#108,#109,#110
,#111),.UNSPECIFIED.,.F.,.F.) B_SPLINE_CURVE_WITH_KNOTS((1,2,2,2,2,1),(
    -2.094395102393,0.E+000,2.094395102393,4.188790204786,6.28318530718,
8.377580409573),.UNSPECIFIED.) CURVE() GEOMETRIC_REPRESENTATION_ITEM() 
RATIONAL_B_SPLINE_CURVE((1.,0.5,1.,0.5,1.,0.5,1.)) REPRESENTATION_ITEM(
  '') );
#105 = CARTESIAN_POINT('',(0.E+000,0.E+000));
#106 = CARTESIAN_POINT('',(0.E+000,4.156921938165));
#107 = CARTESIAN_POINT('',(3.6,2.078460969083));
#108 = CARTESIAN_POINT('',(7.2,5.878304635907E-016));
#109 = CARTESIAN_POINT('',(3.6,-2.078460969083));
#110 = CARTESIAN_POINT('',(3.552713678801E-015,-4.156921938165));
#111 = CARTESIAN_POINT('',(0.E+000,0.E+000));
#112 = ( GEOMETRIC_REPRESENTATION_CONTEXT(2) 
PARAMETRIC_REPRESENTATION_CONTEXT() REPRESENTATION_CONTEXT('2D SPACE',''
  ) );
#113 = ADVANCED_FACE('',(#114),#98,.T.);
#114 = FACE_BOUND('',#115,.F.);
#115 = EDGE_LOOP('',(#116));
#116 = ORIENTED_EDGE('',*,*,#83,.T.);
#117 = ADVANCED_FACE('',(#118),#66,.F.);
#118 = FACE_BOUND('',#119,.T.);
#119 = EDGE_LOOP('',(#120));
#120 = ORIENTED_EDGE('',*,*,#51,.T.);
#121 = MANIFOLD_SOLID_BREP('',#122);
#122 = CLOSED_SHELL('',(#123,#219,#223));
#123 = ADVANCED_FACE('',(#124),#138,.T.);
#124 = FACE_BOUND('',#125,.F.);
#125 = EDGE_LOOP('',(#126,#156,#187,#188));
#126 = ORIENTED_EDGE('',*,*,#127,.T.);
#127 = EDGE_CURVE('',#128,#130,#132,.T.);
#128 = VERTEX_POINT('',#129);
#129 = CARTESIAN_POINT('',(1.8,0.E+000,1.1));
#130 = VERTEX_POINT('',#131);
#131 = CARTESIAN_POINT('',(1.8,0.E+000,2.6));
#132 = SEAM_CURVE('',#133,(#137,#149),.PCURVE_S1.);
#133 = LINE('',#134,#135);
#134 = CARTESIAN_POINT('',(1.8,0.E+000,1.1));
#135 = VECTOR('',#136,1.);
#136 = DIRECTION('',(0.E+000,0.E+000,1.));
#137 = PCURVE('',#138,#143);
#138 = CYLINDRICAL_SURFACE('',#139,1.8);
#139 = AXIS2_PLACEMENT_3D('',#140,#141,#142);
#140 = CARTESIAN_POINT('',(0.E+000,0.E+000,1.1));
#141 = DIRECTION('',(-0.E+000,-0.E+000,-1.));
#142 = DIRECTION('',(1.,0.E+000,0.E+000));
#143 = DEFINITIONAL_REPRESENTATION('',(#144),#148);
#144 = LINE('',#145,#146);
#145 = CARTESIAN_POINT('',(-0.E+000,0.E+000));
#146 = VECTOR('',#147,1.);
#147 = DIRECTION('',(-0.E+000,-1.));
#148 = ( GEOMETRIC_REPRESENTATION_CONTEXT(2) 
PARAMETRIC_REPRESENTATION_CONTEXT() REPRESENTATION_CONTEXT('2D SPACE',''
  ) );
#149 = PCURVE('',#138,#150);
#150 = DEFINITIONAL_REPRESENTATION('',(#151),#155);
#151 = LINE('',#152,#153);
#152 = CARTESIAN_POINT('',(-6.28318530718,0.E+000));
#153 = VECTOR('',#154,1.);
#154 = DIRECTION('',(-0.E+000,-1.));
#155 = ( GEOMETRIC_REPRESENTATION_CONTEXT(2) 
PARAMETRIC_REPRESENTATION_CONTEXT() REPRESENTATION_CONTEXT('2D SPACE',''
  ) );
#156 = ORIENTED_EDGE('',*,*,#157,.T.);
#157 = EDGE_CURVE('',#130,#130,#158,.T.);
#158 = SURFACE_CURVE('',#159,(#164,#171),.PCURVE_S1.);
#159 = CIRCLE('',#160,1.8);
#160 = AXIS2_PLACEMENT_3D('',#161,#162,#163);
#161 = CARTESIAN_POINT('',(0.E+000,0.E+000,2.6));
#162 = DIRECTION('',(0.E+000,0.E+000,1.));
#163 = DIRECTION('',(1.,0.E+000,0.E+000));
#164 = PCURVE('',#138,#165);
#165 = DEFINITIONAL_REPRESENTATION('',(#166),#170);
#166 = LINE('',#167,#168);
#167 = CARTESIAN_POINT('',(-0.E+000,-1.5));
#168 = VECTOR('',#169,1.);
#169 = DIRECTION('',(-1.,0.E+000));
#170 = ( GEOMETRIC_REPRESENTATION_CONTEXT(2) 
PARAMETRIC_REPRESENTATION_CONTEXT() REPRESENTATION_CONTEXT('2D SPACE',''
  ) );
#171 = PCURVE('',#172,#177);
#172 = PLANE('',#173);
#173 = AXIS2_PLACEMENT_3D('',#174,#175,#176);
#174 = CARTESIAN_POINT('',(1.8,0.E+000,2.6));
#175 = DIRECTION('',(0.E+000,0.E+000,-1.));
#176 = DIRECTION('',(-1.,0.E+000,0.E+000));
#177 = DEFINITIONAL_REPRESENTATION('',(#178),#186);
#178 = ( BOUNDED_CURVE() B_SPLINE_CURVE(2,(#179,#180,#181,#182,#183,#184
,#185),.UNSPECIFIED.,.F.,.F.) B_SPLINE_CURVE_WITH_KNOTS((1,2,2,2,2,1),(
    -2.094395102393,0.E+000,2.094395102393,4.188790204786,6.28318530718,
8.377580409573),.UNSPECIFIED.) CURVE() GEOMETRIC_REPRESENTATION_ITEM() 
RATIONAL_B_SPLINE_CURVE((1.,0.5,1.,0.5,1.,0.5,1.)) REPRESENTATION_ITEM(
  '') );
#179 = CARTESIAN_POINT('',(0.E+000,0.E+000));
#180 = CARTESIAN_POINT('',(0.E+000,3.117691453624));
#181 = CARTESIAN_POINT('',(2.7,1.558845726812));
#182 = CARTESIAN_POINT('',(5.4,4.40872847693E-016));
#183 = CARTESIAN_POINT('',(2.7,-1.558845726812));
#184 = CARTESIAN_POINT('',(2.886579864025E-015,-3.117691453624));
#185 = CARTESIAN_POINT('',(0.E+000,0.E+000));
#186 = ( GEOMETRIC_REPRESENTATION_CONTEXT(2) 
PARAMETRIC_REPRESENTATION_CONTEXT() REPRESENTATION_CONTEXT('2D SPACE',''
  ) );
#187 = ORIENTED_EDGE('',*,*,#127,.F.);
#188 = ORIENTED_EDGE('',*,*,#189,.F.);
#189 = EDGE_CURVE('',#128,#128,#190,.T.);
#190 = SURFACE_CURVE('',#191,(#196,#203),.PCURVE_S1.);
#191 = CIRCLE('',#192,1.8);
#192 = AXIS2_PLACEMENT_3D('',#193,#194,#195);
#193 = CARTESIAN_POINT('',(0.E+000,0.E+000,1.1));
#194 = DIRECTION('',(0.E+000,0.E+000,1.));
#195 = DIRECTION('',(1.,0.E+000,0.E+000));
#196 = PCURVE('',#138,#197);
#197 = DEFINITIONAL_REPRESENTATION('',(#198),#202);
#198 = LINE('',#199,#200);
#199 = CARTESIAN_POINT('',(-0.E+000,0.E+000));
#200 = VECTOR('',#201,1.);
#201 = DIRECTION('',(-1.,0.E+000));
#202 = ( GEOMETRIC_REPRESENTATION_CONTEXT(2) 
PARAMETRIC_REPRESENTATION_CONTEXT() REPRESENTATION_CONTEXT('2D SPACE',''
  ) );
#203 = PCURVE('',#204,#209);
#204 = PLANE('',#205);
#205 = AXIS2_PLACEMENT_3D('',#206,#207,#208);
#206 = CARTESIAN_POINT('',(1.8,0.E+000,1.1));
#207 = DIRECTION('',(0.E+000,0.E+000,-1.));
#208 = DIRECTION('',(-1.,0.E+000,0.E+000));
#209 = DEFINITIONAL_REPRESENTATION('',(#210),#218);
#210 = ( BOUNDED_CURVE() B_SPLINE_CURVE(2,(#211,#212,#213,#214,#215,#216
,#217),.UNSPECIFIED.,.F.,.F.) B_SPLINE_CURVE_WITH_KNOTS((1,2,2,2,2,1),(
    -2.094395102393,0.E+000,2.094395102393,4.188790204786,6.28318530718,
8.377580409573),.UNSPECIFIED.) CURVE() GEOMETRIC_REPRESENTATION_ITEM() 
RATIONAL_B_SPLINE_CURVE((1.,0.5,1.,0.5,1.,0.5,1.)) REPRESENTATION_ITEM(
  '') );
#211 = CARTESIAN_POINT('',(0.E+000,0.E+000));
#212 = CARTESIAN_POINT('',(0.E+000,3.117691453624));
#213 = CARTESIAN_POINT('',(2.7,1.558845726812));
#214 = CARTESIAN_POINT('',(5.4,4.40872847693E-016));
#215 = CARTESIAN_POINT('',(2.7,-1.558845726812));
#216 = CARTESIAN_POINT('',(2.886579864025E-015,-3.117691453624));
#217 = CARTESIAN_POINT('',(0.E+000,0.E+000));
#218 = ( GEOMETRIC_REPRESENTATION_CONTEXT(2) 
PARAMETRIC_REPRESENTATION_CONTEXT() REPRESENTATION_CONTEXT('2D SPACE',''
  ) );
#219 = ADVANCED_FACE('',(#220),#204,.T.);
#220 = FACE_BOUND('',#221,.F.);
#221 = EDGE_LOOP('',(#222));
#222 = ORIENTED_EDGE('',*,*,#189,.T.);
#223 = ADVANCED_FACE('',(#224),#172,.F.);
#224 = FACE_BOUND('',#225,.T.);
#225 = EDGE_LOOP('',(#226));
#226 = ORIENTED_EDGE('',*,*,#157,.T.);
#227 = MANIFOLD_SOLID_BREP('',#228);
#228 = CLOSED_SHELL('',(#229,#325,#329));
#229 = ADVANCED_FACE('',(#230),#244,.T.);
#230 = FACE_BOUND('',#231,.F.);
#231 = EDGE_LOOP('',(#232,#262,#293,#294));
#232 = ORIENTED_EDGE('',*,*,#233,.T.);
#233 = EDGE_CURVE('',#234,#236,#238,.T.);
#234 = VERTEX_POINT('',#235);
#235 = CARTESIAN_POINT('',(2.4,0.E+000,2.1));
#236 = VERTEX_POINT('',#237);
#237 = CARTESIAN_POINT('',(2.4,0.E+000,3.1));
#238 = SEAM_CURVE('',#239,(#243,#255),.PCURVE_S1.);
#239 = LINE('',#240,#241);
#240 = CARTESIAN_POINT('',(2.4,0.E+000,2.1));
#241 = VECTOR('',#242,1.);
#242 = DIRECTION('',(0.E+000,0.E+000,1.));
#243 = PCURVE('',#244,#249);
#244 = CYLINDRICAL_SURFACE('',#245,2.4);
#245 = AXIS2_PLACEMENT_3D('',#246,#247,#248);
#246 = CARTESIAN_POINT('',(0.E+000,0.E+000,2.1));
#247 = DIRECTION('',(-0.E+000,-0.E+000,-1.));
#248 = DIRECTION('',(1.,0.E+000,0.E+000));
#249 = DEFINITIONAL_REPRESENTATION('',(#250),#254);
#250 = LINE('',#251,#252);
#251 = CARTESIAN_POINT('',(-0.E+000,0.E+000));
#252 = VECTOR('',#253,1.);
#253 = DIRECTION('',(-0.E+000,-1.));
#254 = ( GEOMETRIC_REPRESENTATION_CONTEXT(2) 
PARAMETRIC_REPRESENTATION_CONTEXT() REPRESENTATION_CONTEXT('2D SPACE',''
  ) );
#255 = PCURVE('',#244,#256);
#256 = DEFINITIONAL_REPRESENTATION('',(#257),#261);
#257 = LINE('',#258,#259);
#258 = CARTESIAN_POINT('',(-6.28318530718,0.E+000));
#259 = VECTOR('',#260,1.);
#260 = DIRECTION('',(-0.E+000,-1.));
#261 = ( GEOMETRIC_REPRESENTATION_CONTEXT(2) 
PARAMETRIC_REPRESENTATION_CONTEXT() REPRESENTATION_CONTEXT('2D SPACE',''
  ) );
#262 = ORIENTED_EDGE('',*,*,#263,.T.);
#263 = EDGE_CURVE('',#236,#236,#264,.T.);
#264 = SURFACE_CURVE('',#265,(#270,#277),.PCURVE_S1.);
#265 = CIRCLE('',#266,2.4);
#266 = AXIS2_PLACEMENT_3D('',#267,#268,#269);
#267 = CARTESIAN_POINT('',(0.E+000,0.E+000,3.1));
#268 = DIRECTION('',(0.E+000,0.E+000,1.));
#269 = DIRECTION('',(1.,0.E+000,0.E+000));
#270 = PCURVE('',#244,#271);
#271 = DEFINITIONAL_REPRESENTATION('',(#272),#276);
#272 = LINE('',#273,#274);
#273 = CARTESIAN_POINT('',(-0.E+000,-1.));
#274 = VECTOR('',#275,1.);
#275 = DIRECTION('',(-1.,0.E+000));
#276 = ( GEOMETRIC_REPRESENTATION_CONTEXT(2) 
PARAMETRIC_REPRESENTATION_CONTEXT() REPRESENTATION_CONTEXT('2D SPACE',''
  ) );
#277 = PCURVE('',#278,#283);
#278 = PLANE('',#279);
#279 = AXIS2_PLACEMENT_3D('',#280,#281,#282);
#280 = CARTESIAN_POINT('',(2.4,0.E+000,3.1));
#281 = DIRECTION('',(0.E+000,0.E+000,-1.));
#282 = DIRECTION('',(-1.,0.E+000,0.E+000));
#283 = DEFINITIONAL_REPRESENTATION('',(#284),#292);
#284 = ( BOUNDED_CURVE() B_SPLINE_CURVE(2,(#285,#286,#287,#288,#289,#290
,#291),.UNSPECIFIED.,.F.,.F.) B_SPLINE_CURVE_WITH_KNOTS((1,2,2,2,2,1),(
    -2.094395102393,0.E+000,2.094395102393,4.188790204786,6.28318530718,
8.377580409573),.UNSPECIFIED.) CURVE() GEOMETRIC_REPRESENTATION_ITEM() 
RATIONAL_B_SPLINE_CURVE((1.,0.5,1.,0.5,1.,0.5,1.)) REPRESENTATION_ITEM(
  '') );
#285 = CARTESIAN_POINT('',(0.E+000,0.E+000));
#286 = CARTESIAN_POINT('',(0.E+000,4.156921938165));
#287 = CARTESIAN_POINT('',(3.6,2.078460969083));
#288 = CARTESIAN_POINT('',(7.2,5.878304635907E-016));
#289 = CARTESIAN_POINT('',(3.6,-2.078460969083));
#290 = CARTESIAN_POINT('',(3.552713678801E-015,-4.156921938165));
#291 = CARTESIAN_POINT('',(0.E+000,0.E+000));
#292 = ( GEOMETRIC_REPRESENTATION_CONTEXT(2) 
PARAMETRIC_REPRESENTATION_CONTEXT() REPRESENTATION_CONTEXT('2D SPACE',''
  ) );
#293 = ORIENTED_EDGE('',*,*,#233,.F.);
#294 = ORIENTED_EDGE('',*,*,#295,.F.);
#295 = EDGE_CURVE('',#234,#234,#296,.T.);
#296 = SURFACE_CURVE('',#297,(#302,#309),.PCURVE_S1.);
#297 = CIRCLE('',#298,2.4);
#298 = AXIS2_PLACEMENT_3D('',#299,#300,#301);
#299 = CARTESIAN_POINT('',(0.E+000,0.E+000,2.1));
#300 = DIRECTION('',(0.E+000,0.E+000,1.));
#301 = DIRECTION('',(1.,0.E+000,0.E+000));
#302 = PCURVE('',#244,#303);
#303 = DEFINITIONAL_REPRESENTATION('',(#304),#308);
#304 = LINE('',#305,#306);
#305 = CARTESIAN_POINT('',(-0.E+000,0.E+000));
#306 = VECTOR('',#307,1.);
#307 = DIRECTION('',(-1.,0.E+000));
#308 = ( GEOMETRIC_REPRESENTATION_CONTEXT(2) 
PARAMETRIC_REPRESENTATION_CONTEXT() REPRESENTATION_CONTEXT('2D SPACE',''
  ) );
#309 = PCURVE('',#310,#315);
#310 = PLANE('',#311);
#311 = AXIS2_PLACEMENT_3D('',#312,#313,#314);
#312 = CARTESIAN_POINT('',(2.4,0.E+000,2.1));
#313 = DIRECTION('',(0.E+000,0.E+000,-1.));
#314 = DIRECTION('',(-1.,0.E+000,0.E+000));
#315 = DEFINITIONAL_REPRESENTATION('',(#316),#324);
#316 = ( BOUNDED_CURVE() B_SPLINE_CURVE(2,(#317,#318,#319,#320,#321,#322
,#323),.UNSPECIFIED.,.F.,.F.) B_SPLINE_CURVE_WITH_KNOTS((1,2,2,2,2,1),(
    -2.094395102393,0.E+000,2.094395102393,4.188790204786,6.28318530718,
8.377580409573),.UNSPECIFIED.) CURVE() GEOMETRIC_REPRESENTATION_ITEM() 
RATIONAL_B_SPLINE_CURVE((1.,0.5,1.,0.5,1.,0.5,1.)) REPRESENTATION_ITEM(
  '') );
#317 = CARTESIAN_POINT('',(0.E+000,0.E+000));
#318 = CARTESIAN_POINT('',(0.E+000,4.156921938165));
#319 = CARTESIAN_POINT('',(3.6,2.078460969083));
#320 = CARTESIAN_POINT('',(7.2,5.878304635907E-016));
#321 = CARTESIAN_POINT('',(3.6,-2.078460969083));
#322 = CARTESIAN_POINT('',(3.552713678801E-015,-4.156921938165));
#323 = CARTESIAN_POINT('',(0.E+000,0.E+000));
#324 = ( GEOMETRIC_REPRESENTATION_CONTEXT(2) 
PARAMETRIC_REPRESENTATION_CONTEXT() REPRESENTATION_CONTEXT('2D SPACE',''
  ) );
#325 = ADVANCED_FACE('',(#326),#310,.T.);
#326 = FACE_BOUND('',#327,.F.);
#327 = EDGE_LOOP('',(#328));
#328 = ORIENTED_EDGE('',*,*,#295,.T.);
#329 = ADVANCED_FACE('',(#330),#278,.F.);
#330 = FACE_BOUND('',#331,.T.);
#331 = EDGE_LOOP('',(#332));
#332 = ORIENTED_EDGE('',*,*,#263,.T.);
#333 = MANIFOLD_SOLID_BREP('',#334);
#334 = CLOSED_SHELL('',(#335,#446,#472,#500));
#335 = ADVANCED_FACE('',(#336),#350,.T.);
#336 = FACE_BOUND('',#337,.T.);
#337 = EDGE_LOOP('',(#338,#373,#399,#427));
#338 = ORIENTED_EDGE('',*,*,#339,.F.);
#339 = EDGE_CURVE('',#340,#342,#344,.T.);
#340 = VERTEX_POINT('',#341);
#341 = CARTESIAN_POINT('',(-1.854049621774,-0.75,0.E+000));
#342 = VERTEX_POINT('',#343);
#343 = CARTESIAN_POINT('',(1.854049621774,-0.75,0.E+000));
#344 = SURFACE_CURVE('',#345,(#349,#361),.PCURVE_S1.);
#345 = LINE('',#346,#347);
#346 = CARTESIAN_POINT('',(-2.25,-0.75,0.E+000));
#347 = VECTOR('',#348,1.);
#348 = DIRECTION('',(1.,0.E+000,0.E+000));
#349 = PCURVE('',#350,#355);
#350 = PLANE('',#351);
#351 = AXIS2_PLACEMENT_3D('',#352,#353,#354);
#352 = CARTESIAN_POINT('',(-2.25,-0.75,0.E+000));
#353 = DIRECTION('',(0.E+000,1.,0.E+000));
#354 = DIRECTION('',(1.,0.E+000,0.E+000));
#355 = DEFINITIONAL_REPRESENTATION('',(#356),#360);
#356 = LINE('',#357,#358);
#357 = CARTESIAN_POINT('',(0.E+000,0.E+000));
#358 = VECTOR('',#359,1.);
#359 = DIRECTION('',(1.,0.E+000));
#360 = ( GEOMETRIC_REPRESENTATION_CONTEXT(2) 
PARAMETRIC_REPRESENTATION_CONTEXT() REPRESENTATION_CONTEXT('2D SPACE',''
  ) );
#361 = PCURVE('',#362,#367);
#362 = PLANE('',#363);
#363 = AXIS2_PLACEMENT_3D('',#364,#365,#366);
#364 = CARTESIAN_POINT('',(-2.25,-0.75,0.E+000));
#365 = DIRECTION('',(0.E+000,0.E+000,1.));
#366 = DIRECTION('',(1.,0.E+000,0.E+000));
#367 = DEFINITIONAL_REPRESENTATION('',(#368),#372);
#368 = LINE('',#369,#370);
#369 = CARTESIAN_POINT('',(0.E+000,0.E+000));
#370 = VECTOR('',#371,1.);
#371 = DIRECTION('',(1.,0.E+000));
#372 = ( GEOMETRIC_REPRESENTATION_CONTEXT(2) 
PARAMETRIC_REPRESENTATION_CONTEXT() REPRESENTATION_CONTEXT('2D SPACE',''
  ) );
#373 = ORIENTED_EDGE('',*,*,#374,.T.);
#374 = EDGE_CURVE('',#340,#375,#377,.T.);
#375 = VERTEX_POINT('',#376);
#376 = CARTESIAN_POINT('',(-1.854049621774,-0.75,0.1));
#377 = SURFACE_CURVE('',#378,(#382,#388),.PCURVE_S1.);
#378 = LINE('',#379,#380);
#379 = CARTESIAN_POINT('',(-1.854049621774,-0.75,0.E+000));
#380 = VECTOR('',#381,1.);
#381 = DIRECTION('',(0.E+000,0.E+000,1.));
#382 = PCURVE('',#350,#383);
#383 = DEFINITIONAL_REPRESENTATION('',(#384),#387);
#384 = B_SPLINE_CURVE_WITH_KNOTS('',1,(#385,#386),.UNSPECIFIED.,.F.,.F.,
  (2,2),(-4.E-007,0.1000004),.PIECEWISE_BEZIER_KNOTS.);
#385 = CARTESIAN_POINT('',(0.395950378226,4.E-007));
#386 = CARTESIAN_POINT('',(0.395950378226,-0.1000004));
#387 = ( GEOMETRIC_REPRESENTATION_CONTEXT(2) 
PARAMETRIC_REPRESENTATION_CONTEXT() REPRESENTATION_CONTEXT('2D SPACE',''
  ) );
#388 = PCURVE('',#389,#394);
#389 = CYLINDRICAL_SURFACE('',#390,2.);
#390 = AXIS2_PLACEMENT_3D('',#391,#392,#393);
#391 = CARTESIAN_POINT('',(0.E+000,0.E+000,0.E+000));
#392 = DIRECTION('',(0.E+000,0.E+000,1.));
#393 = DIRECTION('',(1.,0.E+000,0.E+000));
#394 = DEFINITIONAL_REPRESENTATION('',(#395),#398);
#395 = B_SPLINE_CURVE_WITH_KNOTS('',1,(#396,#397),.UNSPECIFIED.,.F.,.F.,
  (2,2),(-4.E-007,0.1000004),.PIECEWISE_BEZIER_KNOTS.);
#396 = CARTESIAN_POINT('',(3.525989428085,-4.E-007));
#397 = CARTESIAN_POINT('',(3.525989428085,0.1000004));
#398 = ( GEOMETRIC_REPRESENTATION_CONTEXT(2) 
PARAMETRIC_REPRESENTATION_CONTEXT() REPRESENTATION_CONTEXT('2D SPACE',''
  ) );
#399 = ORIENTED_EDGE('',*,*,#400,.T.);
#400 = EDGE_CURVE('',#375,#401,#403,.T.);
#401 = VERTEX_POINT('',#402);
#402 = CARTESIAN_POINT('',(1.854049621774,-0.75,0.1));
#403 = SURFACE_CURVE('',#404,(#408,#415),.PCURVE_S1.);
#404 = LINE('',#405,#406);
#405 = CARTESIAN_POINT('',(-2.25,-0.75,0.1));
#406 = VECTOR('',#407,1.);
#407 = DIRECTION('',(1.,0.E+000,0.E+000));
#408 = PCURVE('',#350,#409);
#409 = DEFINITIONAL_REPRESENTATION('',(#410),#414);
#410 = LINE('',#411,#412);
#411 = CARTESIAN_POINT('',(0.E+000,-0.1));
#412 = VECTOR('',#413,1.);
#413 = DIRECTION('',(1.,0.E+000));
#414 = ( GEOMETRIC_REPRESENTATION_CONTEXT(2) 
PARAMETRIC_REPRESENTATION_CONTEXT() REPRESENTATION_CONTEXT('2D SPACE',''
  ) );
#415 = PCURVE('',#416,#421);
#416 = PLANE('',#417);
#417 = AXIS2_PLACEMENT_3D('',#418,#419,#420);
#418 = CARTESIAN_POINT('',(-2.25,-0.75,0.1));
#419 = DIRECTION('',(0.E+000,0.E+000,1.));
#420 = DIRECTION('',(1.,0.E+000,0.E+000));
#421 = DEFINITIONAL_REPRESENTATION('',(#422),#426);
#422 = LINE('',#423,#424);
#423 = CARTESIAN_POINT('',(0.E+000,0.E+000));
#424 = VECTOR('',#425,1.);
#425 = DIRECTION('',(1.,0.E+000));
#426 = ( GEOMETRIC_REPRESENTATION_CONTEXT(2) 
PARAMETRIC_REPRESENTATION_CONTEXT() REPRESENTATION_CONTEXT('2D SPACE',''
  ) );
#427 = ORIENTED_EDGE('',*,*,#428,.F.);
#428 = EDGE_CURVE('',#342,#401,#429,.T.);
#429 = SURFACE_CURVE('',#430,(#434,#440),.PCURVE_S1.);
#430 = LINE('',#431,#432);
#431 = CARTESIAN_POINT('',(1.854049621774,-0.75,0.E+000));
#432 = VECTOR('',#433,1.);
#433 = DIRECTION('',(0.E+000,0.E+000,1.));
#434 = PCURVE('',#350,#435);
#435 = DEFINITIONAL_REPRESENTATION('',(#436),#439);
#436 = B_SPLINE_CURVE_WITH_KNOTS('',1,(#437,#438),.UNSPECIFIED.,.F.,.F.,
  (2,2),(-4.E-007,0.1000004),.PIECEWISE_BEZIER_KNOTS.);
#437 = CARTESIAN_POINT('',(4.104049621774,4.E-007));
#438 = CARTESIAN_POINT('',(4.104049621774,-0.1000004));
#439 = ( GEOMETRIC_REPRESENTATION_CONTEXT(2) 
PARAMETRIC_REPRESENTATION_CONTEXT() REPRESENTATION_CONTEXT('2D SPACE',''
  ) );
#440 = PCURVE('',#389,#441);
#441 = DEFINITIONAL_REPRESENTATION('',(#442),#445);
#442 = B_SPLINE_CURVE_WITH_KNOTS('',1,(#443,#444),.UNSPECIFIED.,.F.,.F.,
  (2,2),(-4.E-007,0.1000004),.PIECEWISE_BEZIER_KNOTS.);
#443 = CARTESIAN_POINT('',(5.898788532684,-4.E-007));
#444 = CARTESIAN_POINT('',(5.898788532684,0.1000004));
#445 = ( GEOMETRIC_REPRESENTATION_CONTEXT(2) 
PARAMETRIC_REPRESENTATION_CONTEXT() REPRESENTATION_CONTEXT('2D SPACE',''
  ) );
#446 = ADVANCED_FACE('',(#447),#362,.F.);
#447 = FACE_BOUND('',#448,.F.);
#448 = EDGE_LOOP('',(#449,#450));
#449 = ORIENTED_EDGE('',*,*,#339,.F.);
#450 = ORIENTED_EDGE('',*,*,#451,.T.);
#451 = EDGE_CURVE('',#340,#342,#452,.T.);
#452 = SURFACE_CURVE('',#453,(#458,#465),.PCURVE_S1.);
#453 = CIRCLE('',#454,2.);
#454 = AXIS2_PLACEMENT_3D('',#455,#456,#457);
#455 = CARTESIAN_POINT('',(0.E+000,0.E+000,0.E+000));
#456 = DIRECTION('',(0.E+000,0.E+000,1.));
#457 = DIRECTION('',(1.,0.E+000,0.E+000));
#458 = PCURVE('',#362,#459);
#459 = DEFINITIONAL_REPRESENTATION('',(#460),#464);
#460 = CIRCLE('',#461,2.);
#461 = AXIS2_PLACEMENT_2D('',#462,#463);
#462 = CARTESIAN_POINT('',(2.25,0.75));
#463 = DIRECTION('',(1.,0.E+000));
#464 = ( GEOMETRIC_REPRESENTATION_CONTEXT(2) 
PARAMETRIC_REPRESENTATION_CONTEXT() REPRESENTATION_CONTEXT('2D SPACE',''
  ) );
#465 = PCURVE('',#389,#466);
#466 = DEFINITIONAL_REPRESENTATION('',(#467),#471);
#467 = LINE('',#468,#469);
#468 = CARTESIAN_POINT('',(0.E+000,0.E+000));
#469 = VECTOR('',#470,1.);
#470 = DIRECTION('',(1.,0.E+000));
#471 = ( GEOMETRIC_REPRESENTATION_CONTEXT(2) 
PARAMETRIC_REPRESENTATION_CONTEXT() REPRESENTATION_CONTEXT('2D SPACE',''
  ) );
#472 = ADVANCED_FACE('',(#473),#389,.T.);
#473 = FACE_BOUND('',#474,.T.);
#474 = EDGE_LOOP('',(#475,#476,#498,#499));
#475 = ORIENTED_EDGE('',*,*,#428,.T.);
#476 = ORIENTED_EDGE('',*,*,#477,.F.);
#477 = EDGE_CURVE('',#375,#401,#478,.T.);
#478 = SURFACE_CURVE('',#479,(#484,#491),.PCURVE_S1.);
#479 = CIRCLE('',#480,2.);
#480 = AXIS2_PLACEMENT_3D('',#481,#482,#483);
#481 = CARTESIAN_POINT('',(0.E+000,0.E+000,0.1));
#482 = DIRECTION('',(0.E+000,0.E+000,1.));
#483 = DIRECTION('',(1.,0.E+000,0.E+000));
#484 = PCURVE('',#389,#485);
#485 = DEFINITIONAL_REPRESENTATION('',(#486),#490);
#486 = LINE('',#487,#488);
#487 = CARTESIAN_POINT('',(0.E+000,0.1));
#488 = VECTOR('',#489,1.);
#489 = DIRECTION('',(1.,0.E+000));
#490 = ( GEOMETRIC_REPRESENTATION_CONTEXT(2) 
PARAMETRIC_REPRESENTATION_CONTEXT() REPRESENTATION_CONTEXT('2D SPACE',''
  ) );
#491 = PCURVE('',#416,#492);
#492 = DEFINITIONAL_REPRESENTATION('',(#493),#497);
#493 = CIRCLE('',#494,2.);
#494 = AXIS2_PLACEMENT_2D('',#495,#496);
#495 = CARTESIAN_POINT('',(2.25,0.75));
#496 = DIRECTION('',(1.,0.E+000));
#497 = ( GEOMETRIC_REPRESENTATION_CONTEXT(2) 
PARAMETRIC_REPRESENTATION_CONTEXT() REPRESENTATION_CONTEXT('2D SPACE',''
  ) );
#498 = ORIENTED_EDGE('',*,*,#374,.F.);
#499 = ORIENTED_EDGE('',*,*,#451,.T.);
#500 = ADVANCED_FACE('',(#501),#416,.T.);
#501 = FACE_BOUND('',#502,.T.);
#502 = EDGE_LOOP('',(#503,#504));
#503 = ORIENTED_EDGE('',*,*,#400,.F.);
#504 = ORIENTED_EDGE('',*,*,#477,.T.);
#505 = MANIFOLD_SOLID_BREP('',#506);
#506 = CLOSED_SHELL('',(#507,#572,#645,#672));
#507 = ADVANCED_FACE('',(#508),#523,.F.);
#508 = FACE_BOUND('',#509,.F.);
#509 = EDGE_LOOP('',(#510,#546));
#510 = ORIENTED_EDGE('',*,*,#511,.T.);
#511 = EDGE_CURVE('',#512,#514,#516,.T.);
#512 = VERTEX_POINT('',#513);
#513 = CARTESIAN_POINT('',(1.854049621774,0.75,0.E+000));
#514 = VERTEX_POINT('',#515);
#515 = CARTESIAN_POINT('',(-1.854049621774,0.75,0.E+000));
#516 = SURFACE_CURVE('',#517,(#522,#534),.PCURVE_S1.);
#517 = CIRCLE('',#518,2.);
#518 = AXIS2_PLACEMENT_3D('',#519,#520,#521);
#519 = CARTESIAN_POINT('',(0.E+000,0.E+000,0.E+000));
#520 = DIRECTION('',(0.E+000,0.E+000,1.));
#521 = DIRECTION('',(1.,0.E+000,0.E+000));
#522 = PCURVE('',#523,#528);
#523 = PLANE('',#524);
#524 = AXIS2_PLACEMENT_3D('',#525,#526,#527);
#525 = CARTESIAN_POINT('',(-2.25,2.5,0.E+000));
#526 = DIRECTION('',(0.E+000,0.E+000,1.));
#527 = DIRECTION('',(1.,0.E+000,0.E+000));
#528 = DEFINITIONAL_REPRESENTATION('',(#529),#533);
#529 = CIRCLE('',#530,2.);
#530 = AXIS2_PLACEMENT_2D('',#531,#532);
#531 = CARTESIAN_POINT('',(2.25,-2.5));
#532 = DIRECTION('',(1.,0.E+000));
#533 = ( GEOMETRIC_REPRESENTATION_CONTEXT(2) 
PARAMETRIC_REPRESENTATION_CONTEXT() REPRESENTATION_CONTEXT('2D SPACE',''
  ) );
#534 = PCURVE('',#535,#540);
#535 = CYLINDRICAL_SURFACE('',#536,2.);
#536 = AXIS2_PLACEMENT_3D('',#537,#538,#539);
#537 = CARTESIAN_POINT('',(0.E+000,0.E+000,0.E+000));
#538 = DIRECTION('',(0.E+000,0.E+000,1.));
#539 = DIRECTION('',(1.,0.E+000,0.E+000));
#540 = DEFINITIONAL_REPRESENTATION('',(#541),#545);
#541 = LINE('',#542,#543);
#542 = CARTESIAN_POINT('',(0.E+000,0.E+000));
#543 = VECTOR('',#544,1.);
#544 = DIRECTION('',(1.,0.E+000));
#545 = ( GEOMETRIC_REPRESENTATION_CONTEXT(2) 
PARAMETRIC_REPRESENTATION_CONTEXT() REPRESENTATION_CONTEXT('2D SPACE',''
  ) );
#546 = ORIENTED_EDGE('',*,*,#547,.F.);
#547 = EDGE_CURVE('',#512,#514,#548,.T.);
#548 = SURFACE_CURVE('',#549,(#553,#560),.PCURVE_S1.);
#549 = LINE('',#550,#551);
#550 = CARTESIAN_POINT('',(2.25,0.75,0.E+000));
#551 = VECTOR('',#552,1.);
#552 = DIRECTION('',(-1.,0.E+000,0.E+000));
#553 = PCURVE('',#523,#554);
#554 = DEFINITIONAL_REPRESENTATION('',(#555),#559);
#555 = LINE('',#556,#557);
#556 = CARTESIAN_POINT('',(4.5,-1.75));
#557 = VECTOR('',#558,1.);
#558 = DIRECTION('',(-1.,0.E+000));
#559 = ( GEOMETRIC_REPRESENTATION_CONTEXT(2) 
PARAMETRIC_REPRESENTATION_CONTEXT() REPRESENTATION_CONTEXT('2D SPACE',''
  ) );
#560 = PCURVE('',#561,#566);
#561 = PLANE('',#562);
#562 = AXIS2_PLACEMENT_3D('',#563,#564,#565);
#563 = CARTESIAN_POINT('',(2.25,0.75,0.E+000));
#564 = DIRECTION('',(0.E+000,-1.,0.E+000));
#565 = DIRECTION('',(-1.,0.E+000,0.E+000));
#566 = DEFINITIONAL_REPRESENTATION('',(#567),#571);
#567 = LINE('',#568,#569);
#568 = CARTESIAN_POINT('',(0.E+000,-0.E+000));
#569 = VECTOR('',#570,1.);
#570 = DIRECTION('',(1.,0.E+000));
#571 = ( GEOMETRIC_REPRESENTATION_CONTEXT(2) 
PARAMETRIC_REPRESENTATION_CONTEXT() REPRESENTATION_CONTEXT('2D SPACE',''
  ) );
#572 = ADVANCED_FACE('',(#573),#535,.T.);
#573 = FACE_BOUND('',#574,.T.);
#574 = EDGE_LOOP('',(#575,#606,#625,#626));
#575 = ORIENTED_EDGE('',*,*,#576,.F.);
#576 = EDGE_CURVE('',#577,#579,#581,.T.);
#577 = VERTEX_POINT('',#578);
#578 = CARTESIAN_POINT('',(1.854049621774,0.75,0.1));
#579 = VERTEX_POINT('',#580);
#580 = CARTESIAN_POINT('',(-1.854049621774,0.75,0.1));
#581 = SURFACE_CURVE('',#582,(#587,#594),.PCURVE_S1.);
#582 = CIRCLE('',#583,2.);
#583 = AXIS2_PLACEMENT_3D('',#584,#585,#586);
#584 = CARTESIAN_POINT('',(0.E+000,0.E+000,0.1));
#585 = DIRECTION('',(0.E+000,0.E+000,1.));
#586 = DIRECTION('',(1.,0.E+000,0.E+000));
#587 = PCURVE('',#535,#588);
#588 = DEFINITIONAL_REPRESENTATION('',(#589),#593);
#589 = LINE('',#590,#591);
#590 = CARTESIAN_POINT('',(0.E+000,0.1));
#591 = VECTOR('',#592,1.);
#592 = DIRECTION('',(1.,0.E+000));
#593 = ( GEOMETRIC_REPRESENTATION_CONTEXT(2) 
PARAMETRIC_REPRESENTATION_CONTEXT() REPRESENTATION_CONTEXT('2D SPACE',''
  ) );
#594 = PCURVE('',#595,#600);
#595 = PLANE('',#596);
#596 = AXIS2_PLACEMENT_3D('',#597,#598,#599);
#597 = CARTESIAN_POINT('',(-2.25,2.5,0.1));
#598 = DIRECTION('',(0.E+000,0.E+000,1.));
#599 = DIRECTION('',(1.,0.E+000,0.E+000));
#600 = DEFINITIONAL_REPRESENTATION('',(#601),#605);
#601 = CIRCLE('',#602,2.);
#602 = AXIS2_PLACEMENT_2D('',#603,#604);
#603 = CARTESIAN_POINT('',(2.25,-2.5));
#604 = DIRECTION('',(1.,0.E+000));
#605 = ( GEOMETRIC_REPRESENTATION_CONTEXT(2) 
PARAMETRIC_REPRESENTATION_CONTEXT() REPRESENTATION_CONTEXT('2D SPACE',''
  ) );
#606 = ORIENTED_EDGE('',*,*,#607,.F.);
#607 = EDGE_CURVE('',#512,#577,#608,.T.);
#608 = SURFACE_CURVE('',#609,(#613,#619),.PCURVE_S1.);
#609 = LINE('',#610,#611);
#610 = CARTESIAN_POINT('',(1.854049621774,0.75,0.E+000));
#611 = VECTOR('',#612,1.);
#612 = DIRECTION('',(0.E+000,0.E+000,1.));
#613 = PCURVE('',#535,#614);
#614 = DEFINITIONAL_REPRESENTATION('',(#615),#618);
#615 = B_SPLINE_CURVE_WITH_KNOTS('',1,(#616,#617),.UNSPECIFIED.,.F.,.F.,
  (2,2),(-4.E-007,0.1000004),.PIECEWISE_BEZIER_KNOTS.);
#616 = CARTESIAN_POINT('',(0.384396774496,-4.E-007));
#617 = CARTESIAN_POINT('',(0.384396774496,0.1000004));
#618 = ( GEOMETRIC_REPRESENTATION_CONTEXT(2) 
PARAMETRIC_REPRESENTATION_CONTEXT() REPRESENTATION_CONTEXT('2D SPACE',''
  ) );
#619 = PCURVE('',#561,#620);
#620 = DEFINITIONAL_REPRESENTATION('',(#621),#624);
#621 = B_SPLINE_CURVE_WITH_KNOTS('',1,(#622,#623),.UNSPECIFIED.,.F.,.F.,
  (2,2),(-4.E-007,0.1000004),.PIECEWISE_BEZIER_KNOTS.);
#622 = CARTESIAN_POINT('',(0.395950378226,4.E-007));
#623 = CARTESIAN_POINT('',(0.395950378226,-0.1000004));
#624 = ( GEOMETRIC_REPRESENTATION_CONTEXT(2) 
PARAMETRIC_REPRESENTATION_CONTEXT() REPRESENTATION_CONTEXT('2D SPACE',''
  ) );
#625 = ORIENTED_EDGE('',*,*,#511,.T.);
#626 = ORIENTED_EDGE('',*,*,#627,.T.);
#627 = EDGE_CURVE('',#514,#579,#628,.T.);
#628 = SURFACE_CURVE('',#629,(#633,#639),.PCURVE_S1.);
#629 = LINE('',#630,#631);
#630 = CARTESIAN_POINT('',(-1.854049621774,0.75,0.E+000));
#631 = VECTOR('',#632,1.);
#632 = DIRECTION('',(0.E+000,0.E+000,1.));
#633 = PCURVE('',#535,#634);
#634 = DEFINITIONAL_REPRESENTATION('',(#635),#638);
#635 = B_SPLINE_CURVE_WITH_KNOTS('',1,(#636,#637),.UNSPECIFIED.,.F.,.F.,
  (2,2),(-4.E-007,0.1000004),.PIECEWISE_BEZIER_KNOTS.);
#636 = CARTESIAN_POINT('',(2.757195879094,-4.E-007));
#637 = CARTESIAN_POINT('',(2.757195879094,0.1000004));
#638 = ( GEOMETRIC_REPRESENTATION_CONTEXT(2) 
PARAMETRIC_REPRESENTATION_CONTEXT() REPRESENTATION_CONTEXT('2D SPACE',''
  ) );
#639 = PCURVE('',#561,#640);
#640 = DEFINITIONAL_REPRESENTATION('',(#641),#644);
#641 = B_SPLINE_CURVE_WITH_KNOTS('',1,(#642,#643),.UNSPECIFIED.,.F.,.F.,
  (2,2),(-4.E-007,0.1000004),.PIECEWISE_BEZIER_KNOTS.);
#642 = CARTESIAN_POINT('',(4.104049621774,4.E-007));
#643 = CARTESIAN_POINT('',(4.104049621774,-0.1000004));
#644 = ( GEOMETRIC_REPRESENTATION_CONTEXT(2) 
PARAMETRIC_REPRESENTATION_CONTEXT() REPRESENTATION_CONTEXT('2D SPACE',''
  ) );
#645 = ADVANCED_FACE('',(#646),#561,.T.);
#646 = FACE_BOUND('',#647,.T.);
#647 = EDGE_LOOP('',(#648,#649,#650,#671));
#648 = ORIENTED_EDGE('',*,*,#547,.F.);
#649 = ORIENTED_EDGE('',*,*,#607,.T.);
#650 = ORIENTED_EDGE('',*,*,#651,.T.);
#651 = EDGE_CURVE('',#577,#579,#652,.T.);
#652 = SURFACE_CURVE('',#653,(#657,#664),.PCURVE_S1.);
#653 = LINE('',#654,#655);
#654 = CARTESIAN_POINT('',(2.25,0.75,0.1));
#655 = VECTOR('',#656,1.);
#656 = DIRECTION('',(-1.,0.E+000,0.E+000));
#657 = PCURVE('',#561,#658);
#658 = DEFINITIONAL_REPRESENTATION('',(#659),#663);
#659 = LINE('',#660,#661);
#660 = CARTESIAN_POINT('',(0.E+000,-0.1));
#661 = VECTOR('',#662,1.);
#662 = DIRECTION('',(1.,0.E+000));
#663 = ( GEOMETRIC_REPRESENTATION_CONTEXT(2) 
PARAMETRIC_REPRESENTATION_CONTEXT() REPRESENTATION_CONTEXT('2D SPACE',''
  ) );
#664 = PCURVE('',#595,#665);
#665 = DEFINITIONAL_REPRESENTATION('',(#666),#670);
#666 = LINE('',#667,#668);
#667 = CARTESIAN_POINT('',(4.5,-1.75));
#668 = VECTOR('',#669,1.);
#669 = DIRECTION('',(-1.,0.E+000));
#670 = ( GEOMETRIC_REPRESENTATION_CONTEXT(2) 
PARAMETRIC_REPRESENTATION_CONTEXT() REPRESENTATION_CONTEXT('2D SPACE',''
  ) );
#671 = ORIENTED_EDGE('',*,*,#627,.F.);
#672 = ADVANCED_FACE('',(#673),#595,.T.);
#673 = FACE_BOUND('',#674,.T.);
#674 = EDGE_LOOP('',(#675,#676));
#675 = ORIENTED_EDGE('',*,*,#576,.T.);
#676 = ORIENTED_EDGE('',*,*,#651,.F.);
#677 = ( GEOMETRIC_REPRESENTATION_CONTEXT(3) 
GLOBAL_UNCERTAINTY_ASSIGNED_CONTEXT((#681)) GLOBAL_UNIT_ASSIGNED_CONTEXT
((#678,#679,#680)) REPRESENTATION_CONTEXT('Context #1',
  '3D Context with UNIT and UNCERTAINTY') );
#678 = ( LENGTH_UNIT() NAMED_UNIT(*) SI_UNIT(.MILLI.,.METRE.) );
#679 = ( NAMED_UNIT(*) PLANE_ANGLE_UNIT() SI_UNIT($,.RADIAN.) );
#680 = ( NAMED_UNIT(*) SI_UNIT($,.STERADIAN.) SOLID_ANGLE_UNIT() );
#681 = UNCERTAINTY_MEASURE_WITH_UNIT(LENGTH_MEASURE(1.E-007),#678,
  'distance_accuracy_value','confusion accuracy');
#682 = PRODUCT_TYPE('part',$,(#7));
#683 = MECHANICAL_DESIGN_GEOMETRIC_PRESENTATION_REPRESENTATION('',(#684,
    #692,#699,#706,#714,#721,#728,#735,#742,#749,#757,#764,#771,#778,
    #785,#792,#799),#677);
#684 = STYLED_ITEM('color',(#685),#17);
#685 = PRESENTATION_STYLE_ASSIGNMENT((#686));
#686 = SURFACE_STYLE_USAGE(.BOTH.,#687);
#687 = SURFACE_SIDE_STYLE('',(#688));
#688 = SURFACE_STYLE_FILL_AREA(#689);
#689 = FILL_AREA_STYLE('',(#690));
#690 = FILL_AREA_STYLE_COLOUR('',#691);
#691 = DRAUGHTING_PRE_DEFINED_COLOUR('black');
#692 = STYLED_ITEM('color',(#693),#113);
#693 = PRESENTATION_STYLE_ASSIGNMENT((#694));
#694 = SURFACE_STYLE_USAGE(.BOTH.,#695);
#695 = SURFACE_SIDE_STYLE('',(#696));
#696 = SURFACE_STYLE_FILL_AREA(#697);
#697 = FILL_AREA_STYLE('',(#698));
#698 = FILL_AREA_STYLE_COLOUR('',#691);
#699 = STYLED_ITEM('color',(#700),#113);
#700 = PRESENTATION_STYLE_ASSIGNMENT((#701));
#701 = SURFACE_STYLE_USAGE(.BOTH.,#702);
#702 = SURFACE_SIDE_STYLE('',(#703));
#703 = SURFACE_STYLE_FILL_AREA(#704);
#704 = FILL_AREA_STYLE('',(#705));
#705 = FILL_AREA_STYLE_COLOUR('',#691);
#706 = STYLED_ITEM('color',(#707),#123);
#707 = PRESENTATION_STYLE_ASSIGNMENT((#708));
#708 = SURFACE_STYLE_USAGE(.BOTH.,#709);
#709 = SURFACE_SIDE_STYLE('',(#710));
#710 = SURFACE_STYLE_FILL_AREA(#711);
#711 = FILL_AREA_STYLE('',(#712));
#712 = FILL_AREA_STYLE_COLOUR('',#713);
#713 = COLOUR_RGB('',0.713999986649,0.428400009871,0.181400001049);
#714 = STYLED_ITEM('color',(#715),#219);
#715 = PRESENTATION_STYLE_ASSIGNMENT((#716));
#716 = SURFACE_STYLE_USAGE(.BOTH.,#717);
#717 = SURFACE_SIDE_STYLE('',(#718));
#718 = SURFACE_STYLE_FILL_AREA(#719);
#719 = FILL_AREA_STYLE('',(#720));
#720 = FILL_AREA_STYLE_COLOUR('',#713);
#721 = STYLED_ITEM('color',(#722),#219);
#722 = PRESENTATION_STYLE_ASSIGNMENT((#723));
#723 = SURFACE_STYLE_USAGE(.BOTH.,#724);
#724 = SURFACE_SIDE_STYLE('',(#725));
#725 = SURFACE_STYLE_FILL_AREA(#726);
#726 = FILL_AREA_STYLE('',(#727));
#727 = FILL_AREA_STYLE_COLOUR('',#713);
#728 = STYLED_ITEM('color',(#729),#17);
#729 = PRESENTATION_STYLE_ASSIGNMENT((#730));
#730 = SURFACE_STYLE_USAGE(.BOTH.,#731);
#731 = SURFACE_SIDE_STYLE('',(#732));
#732 = SURFACE_STYLE_FILL_AREA(#733);
#733 = FILL_AREA_STYLE('',(#734));
#734 = FILL_AREA_STYLE_COLOUR('',#691);
#735 = STYLED_ITEM('color',(#736),#113);
#736 = PRESENTATION_STYLE_ASSIGNMENT((#737));
#737 = SURFACE_STYLE_USAGE(.BOTH.,#738);
#738 = SURFACE_SIDE_STYLE('',(#739));
#739 = SURFACE_STYLE_FILL_AREA(#740);
#740 = FILL_AREA_STYLE('',(#741));
#741 = FILL_AREA_STYLE_COLOUR('',#691);
#742 = STYLED_ITEM('color',(#743),#113);
#743 = PRESENTATION_STYLE_ASSIGNMENT((#744));
#744 = SURFACE_STYLE_USAGE(.BOTH.,#745);
#745 = SURFACE_SIDE_STYLE('',(#746));
#746 = SURFACE_STYLE_FILL_AREA(#747);
#747 = FILL_AREA_STYLE('',(#748));
#748 = FILL_AREA_STYLE_COLOUR('',#691);
#749 = STYLED_ITEM('color',(#750),#335);
#750 = PRESENTATION_STYLE_ASSIGNMENT((#751));
#751 = SURFACE_STYLE_USAGE(.BOTH.,#752);
#752 = SURFACE_SIDE_STYLE('',(#753));
#753 = SURFACE_STYLE_FILL_AREA(#754);
#754 = FILL_AREA_STYLE('',(#755));
#755 = FILL_AREA_STYLE_COLOUR('',#756);
#756 = COLOUR_RGB('',0.300000011921,0.300000011921,0.300000011921);
#757 = STYLED_ITEM('color',(#758),#446);
#758 = PRESENTATION_STYLE_ASSIGNMENT((#759));
#759 = SURFACE_STYLE_USAGE(.BOTH.,#760);
#760 = SURFACE_SIDE_STYLE('',(#761));
#761 = SURFACE_STYLE_FILL_AREA(#762);
#762 = FILL_AREA_STYLE('',(#763));
#763 = FILL_AREA_STYLE_COLOUR('',#756);
#764 = STYLED_ITEM('color',(#765),#472);
#765 = PRESENTATION_STYLE_ASSIGNMENT((#766));
#766 = SURFACE_STYLE_USAGE(.BOTH.,#767);
#767 = SURFACE_SIDE_STYLE('',(#768));
#768 = SURFACE_STYLE_FILL_AREA(#769);
#769 = FILL_AREA_STYLE('',(#770));
#770 = FILL_AREA_STYLE_COLOUR('',#756);
#771 = STYLED_ITEM('color',(#772),#500);
#772 = PRESENTATION_STYLE_ASSIGNMENT((#773));
#773 = SURFACE_STYLE_USAGE(.BOTH.,#774);
#774 = SURFACE_SIDE_STYLE('',(#775));
#775 = SURFACE_STYLE_FILL_AREA(#776);
#776 = FILL_AREA_STYLE('',(#777));
#777 = FILL_AREA_STYLE_COLOUR('',#756);
#778 = STYLED_ITEM('color',(#779),#507);
#779 = PRESENTATION_STYLE_ASSIGNMENT((#780));
#780 = SURFACE_STYLE_USAGE(.BOTH.,#781);
#781 = SURFACE_SIDE_STYLE('',(#782));
#782 = SURFACE_STYLE_FILL_AREA(#783);
#783 = FILL_AREA_STYLE('',(#784));
#784 = FILL_AREA_STYLE_COLOUR('',#756);
#785 = STYLED_ITEM('color',(#786),#572);
#786 = PRESENTATION_STYLE_ASSIGNMENT((#787));
#787 = SURFACE_STYLE_USAGE(.BOTH.,#788);
#788 = SURFACE_SIDE_STYLE('',(#789));
#789 = SURFACE_STYLE_FILL_AREA(#790);
#790 = FILL_AREA_STYLE('',(#791));
#791 = FILL_AREA_STYLE_COLOUR('',#756);
#792 = STYLED_ITEM('color',(#793),#645);
#793 = PRESENTATION_STYLE_ASSIGNMENT((#794));
#794 = SURFACE_STYLE_USAGE(.BOTH.,#795);
#795 = SURFACE_SIDE_STYLE('',(#796));
#796 = SURFACE_STYLE_FILL_AREA(#797);
#797 = FILL_AREA_STYLE('',(#798));
#798 = FILL_AREA_STYLE_COLOUR('',#756);
#799 = STYLED_ITEM('color',(#800),#672);
#800 = PRESENTATION_STYLE_ASSIGNMENT((#801));
#801 = SURFACE_STYLE_USAGE(.BOTH.,#802);
#802 = SURFACE_SIDE_STYLE('',(#803));
#803 = SURFACE_STYLE_FILL_AREA(#804);
#804 = FILL_AREA_STYLE('',(#805));
#805 = FILL_AREA_STYLE_COLOUR('',#756);
ENDSEC;
END-ISO-10303-21;
