#VRML V2.0 utf8


Group {
  children 
    Group {
      children 
        Group {
          children 
            Transform {
              translation 0 0 0
              rotation 0 0 1  0
              scale 1 1 1
              scaleOrientation 0 0 1  0
              center 0 0 0
              children 
                Switch {
                  whichChoice 0
                  choice [ 
                    Group {
                      children [ 
                        DEF o0 Group {
                          children 
                            Shape {
                              appearance 
                              Appearance {
                                material 
                                Material {
                                  diffuseColor 0.098039217 0.098039217 0.098039217
                                  shininess 1

                                }

                              }
                              geometry 
                              IndexedLineSet {
                                coord 
                                Coordinate {
                                  point [ -7.4499998 2.95 0,
                                      -7.4499998 2.95 2,
                                      7.4499998 2.95 0,
                                      7.4499998 2.95 2,
                                      -7.4499998 -2.95 0,
                                      -7.4499998 -2.95 2,
                                      -7.4499998 2.95 0,
                                      -7.4499998 2.95 2,
                                      7.4499998 2.95 0,
                                      7.4499998 2.95 2,
                                      7.4499998 -2.95 0,
                                      7.4499998 -2.95 2,
                                      -7.4499998 2.95 0,
                                      7.4499998 2.95 0,
                                      7.4499998 -2.95 0,
                                      5.5500002 -2.95 0,
                                      5.5500002 1.05 0,
                                      -5.5500002 1.05 0,
                                      -5.5500002 -2.95 0,
                                      -7.4499998 -2.95 0,
                                      -7.4499998 2.95 2,
                                      7.4499998 2.95 2,
                                      7.4499998 -2.95 2,
                                      -7.4499998 -2.95 2,
                                      7.4499998 -2.95 0,
                                      5.5500002 -2.95 0,
                                      5.5500002 -2.95 1.5,
                                      -5.5500002 -2.95 1.5,
                                      -5.5500002 -2.95 0,
                                      -7.4499998 -2.95 0,
                                      -7.4499998 -2.95 2,
                                      7.4499998 -2.95 2,
                                      5.5500002 -2.95 0,
                                      5.5500002 -2.95 1.5,
                                      5.5500002 1.05 0,
                                      5.5500002 1.05 1.5,
                                      5.5500002 1.05 0,
                                      5.5500002 1.05 1.5,
                                      -5.5500002 1.05 0,
                                      -5.5500002 1.05 1.5,
                                      -5.5500002 1.05 0,
                                      -5.5500002 1.05 1.5,
                                      -5.5500002 -2.95 0,
                                      -5.5500002 -2.95 1.5,
                                      -5.5500002 -2.95 1.5,
                                      5.5500002 -2.95 1.5,
                                      -5.5500002 1.05 1.5,
                                      5.5500002 1.05 1.5,
                                      -7.4499998 2.95 0,
                                      -7.4499998 2.95 2,
                                      7.4499998 2.95 0,
                                      7.4499998 2.95 2,
                                      -7.4499998 -2.95 0,
                                      -7.4499998 -2.95 2,
                                      7.4499998 -2.95 0,
                                      7.4499998 -2.95 2,
                                      5.5500002 -2.95 0,
                                      5.5500002 1.05 0,
                                      -5.5500002 1.05 0,
                                      -5.5500002 -2.95 0,
                                      5.5500002 -2.95 1.5,
                                      -5.5500002 -2.95 1.5,
                                      5.5500002 1.05 1.5,
                                      -5.5500002 1.05 1.5 ]

                                }
                                coordIndex [ 0, 1, -1, 2, 3, -1, 0, 2,
                                    -1, 1, 3, -1, 4, 5, -1, 4,
                                    6, -1, 5, 7, -1, 10, 11, -1,
                                    8, 10, -1, 9, 11, -1, 14, 15,
                                    -1, 15, 16, -1, 16, 17, -1, 17,
                                    18, -1, 18, 19, -1, 22, 23, -1,
                                    25, 26, -1, 27, 26, -1, 28, 27,
                                    -1, 33, 35, -1, 34, 35, -1, 37,
                                    39, -1, 38, 39, -1, 41, 43, -1 ]

                              }

                            }

                        },
                          
                        DEF o1 Group {
                          children 
                            Shape {
                              appearance 
                              Appearance {
                                material 
                                Material {

                                }

                              }
                              geometry 
                              IndexedFaceSet {
                                coord 
                                Coordinate {
                                  point [ -7.4499998 2.95 0,
                                      -7.4499998 2.95 2,
                                      7.4499998 2.95 0,
                                      7.4499998 2.95 2,
                                      -7.4499998 -2.95 0,
                                      -7.4499998 -2.95 2,
                                      -7.4499998 2.95 0,
                                      -7.4499998 2.95 2,
                                      7.4499998 2.95 0,
                                      7.4499998 2.95 2,
                                      7.4499998 -2.95 0,
                                      7.4499998 -2.95 2,
                                      -7.4499998 2.95 0,
                                      7.4499998 2.95 0,
                                      7.4499998 -2.95 0,
                                      5.5500002 -2.95 0,
                                      5.5500002 1.05 0,
                                      -5.5500002 1.05 0,
                                      -5.5500002 -2.95 0,
                                      -7.4499998 -2.95 0,
                                      -7.4499998 2.95 2,
                                      7.4499998 2.95 2,
                                      7.4499998 -2.95 2,
                                      -7.4499998 -2.95 2,
                                      7.4499998 -2.95 0,
                                      5.5500002 -2.95 0,
                                      5.5500002 -2.95 1.5,
                                      -5.5500002 -2.95 1.5,
                                      -5.5500002 -2.95 0,
                                      -7.4499998 -2.95 0,
                                      -7.4499998 -2.95 2,
                                      7.4499998 -2.95 2,
                                      5.5500002 -2.95 0,
                                      5.5500002 -2.95 1.5,
                                      5.5500002 1.05 0,
                                      5.5500002 1.05 1.5,
                                      5.5500002 1.05 0,
                                      5.5500002 1.05 1.5,
                                      -5.5500002 1.05 0,
                                      -5.5500002 1.05 1.5,
                                      -5.5500002 1.05 0,
                                      -5.5500002 1.05 1.5,
                                      -5.5500002 -2.95 0,
                                      -5.5500002 -2.95 1.5,
                                      -5.5500002 -2.95 1.5,
                                      5.5500002 -2.95 1.5,
                                      -5.5500002 1.05 1.5,
                                      5.5500002 1.05 1.5,
                                      -7.4499998 2.95 0,
                                      -7.4499998 2.95 2,
                                      7.4499998 2.95 0,
                                      7.4499998 2.95 2,
                                      -7.4499998 -2.95 0,
                                      -7.4499998 -2.95 2,
                                      7.4499998 -2.95 0,
                                      7.4499998 -2.95 2,
                                      5.5500002 -2.95 0,
                                      5.5500002 1.05 0,
                                      -5.5500002 1.05 0,
                                      -5.5500002 -2.95 0,
                                      5.5500002 -2.95 1.5,
                                      -5.5500002 -2.95 1.5,
                                      5.5500002 1.05 1.5,
                                      -5.5500002 1.05 1.5 ]

                                }
                                coordIndex [ 2, 0, 1, -1, 2, 1, 3, -1,
                                    6, 4, 5, -1, 6, 5, 7, -1,
                                    10, 8, 9, -1, 10, 9, 11, -1,
                                    19, 17, 18, -1, 12, 17, 19, -1,
                                    15, 16, 14, -1, 12, 16, 17, -1,
                                    16, 13, 14, -1, 12, 13, 16, -1,
                                    22, 20, 23, -1, 21, 20, 22, -1,
                                    26, 24, 31, -1, 25, 24, 26, -1,
                                    30, 27, 26, -1, 30, 26, 31, -1,
                                    29, 28, 27, -1, 29, 27, 30, -1,
                                    34, 32, 33, -1, 34, 33, 35, -1,
                                    38, 36, 37, -1, 38, 37, 39, -1,
                                    42, 40, 41, -1, 42, 41, 43, -1,
                                    46, 45, 44, -1, 46, 47, 45, -1 ]
                                ccw TRUE
                                solid FALSE
                                convex TRUE
                                creaseAngle 0

                              }

                            }

                        },
                          
                        DEF o2 Group {
                          children 
                            Shape {
                              appearance 
                              Appearance {
                                material 
                                Material {
                                  emissiveColor 0.098039217 0.098039217 0.098039217

                                }

                              }
                              geometry 
                              PointSet {
                                coord 
                                Coordinate {
                                  point [ -7.4499998 2.95 0,
                                      -7.4499998 2.95 2,
                                      7.4499998 2.95 0,
                                      7.4499998 2.95 2,
                                      -7.4499998 -2.95 0,
                                      -7.4499998 -2.95 2,
                                      -7.4499998 2.95 0,
                                      -7.4499998 2.95 2,
                                      7.4499998 2.95 0,
                                      7.4499998 2.95 2,
                                      7.4499998 -2.95 0,
                                      7.4499998 -2.95 2,
                                      -7.4499998 2.95 0,
                                      7.4499998 2.95 0,
                                      7.4499998 -2.95 0,
                                      5.5500002 -2.95 0,
                                      5.5500002 1.05 0,
                                      -5.5500002 1.05 0,
                                      -5.5500002 -2.95 0,
                                      -7.4499998 -2.95 0,
                                      -7.4499998 2.95 2,
                                      7.4499998 2.95 2,
                                      7.4499998 -2.95 2,
                                      -7.4499998 -2.95 2,
                                      7.4499998 -2.95 0,
                                      5.5500002 -2.95 0,
                                      5.5500002 -2.95 1.5,
                                      -5.5500002 -2.95 1.5,
                                      -5.5500002 -2.95 0,
                                      -7.4499998 -2.95 0,
                                      -7.4499998 -2.95 2,
                                      7.4499998 -2.95 2,
                                      5.5500002 -2.95 0,
                                      5.5500002 -2.95 1.5,
                                      5.5500002 1.05 0,
                                      5.5500002 1.05 1.5,
                                      5.5500002 1.05 0,
                                      5.5500002 1.05 1.5,
                                      -5.5500002 1.05 0,
                                      -5.5500002 1.05 1.5,
                                      -5.5500002 1.05 0,
                                      -5.5500002 1.05 1.5,
                                      -5.5500002 -2.95 0,
                                      -5.5500002 -2.95 1.5,
                                      -5.5500002 -2.95 1.5,
                                      5.5500002 -2.95 1.5,
                                      -5.5500002 1.05 1.5,
                                      5.5500002 1.05 1.5,
                                      -7.4499998 2.95 0,
                                      -7.4499998 2.95 2,
                                      7.4499998 2.95 0,
                                      7.4499998 2.95 2,
                                      -7.4499998 -2.95 0,
                                      -7.4499998 -2.95 2,
                                      7.4499998 -2.95 0,
                                      7.4499998 -2.95 2,
                                      5.5500002 -2.95 0,
                                      5.5500002 1.05 0,
                                      -5.5500002 1.05 0,
                                      -5.5500002 -2.95 0,
                                      5.5500002 -2.95 1.5,
                                      -5.5500002 -2.95 1.5,
                                      5.5500002 1.05 1.5,
                                      -5.5500002 1.05 1.5 ]

                                }

                              }

                            }

                        } ]

                    },
                      
                    USE o1,
                      
                    Group {
                      children [ 
                        USE o0,
                          
                        USE o2 ]

                    },
                      
                    USE o2 ]

                }

            }

        }

    }

}
